<?xml version="1.0" encoding="utf-8"?>
<!-- Generator: Adobe Illustrator 26.0.0, SVG Export Plug-In . SVG Version: 6.00 Build 0)  -->
<svg version="1.1" id="Layer_1" xmlns="http://www.w3.org/2000/svg" xmlns:xlink="http://www.w3.org/1999/xlink" x="0px" y="0px"
	 viewBox="0 0 100 100" style="enable-background:new 0 0 100 100;" xml:space="preserve">
<style type="text/css">
	.st0{fill:#AC7FFF;}
	.st1{fill:#180633;}
</style>
<path class="st0" d="M48.4,32.3c-5.4,0-9.7,4.4-9.7,9.7l0,0v13h13c5.4,0,9.7-4.4,9.7-9.7l0,0v-13H48.4z"/>
<path class="st1" d="M82.2,91.3c-0.5,0-1-0.2-1.4-0.6l-12-12H46.7c-5.6,0-10.1-4.5-10.1-10.1V42.1c0-6.5,5.3-11.7,11.7-11.7h33
	c1.1,0,2,0.9,2,2c0,1.1-0.9,2-2,2h-33c-4.3,0-7.7,3.5-7.7,7.7v26.6c0,3.4,2.7,6.1,6.1,6.1h22.9c0.5,0,1,0.2,1.4,0.6l9.2,9.2v-7.8
	c0-1.1,0.9-2,2-2h7.7c3.4,0,6.1-2.7,6.1-6.1V40.4c0-3.4-2.7-6.1-6.1-6.1c-1.1,0-2-0.9-2-2c0-1.1,0.9-2,2-2c5.6,0,10.1,4.5,10.1,10.1
	v28.2c0,5.6-4.5,10.1-10.1,10.1h-5.7v10.6c0,0.8-0.5,1.5-1.2,1.8C82.7,91.3,82.5,91.4,82.2,91.3z"/>
<path class="st1" d="M17.8,69.7c-0.3,0-0.5-0.1-0.8-0.2c-0.8-0.3-1.2-1-1.2-1.8V57.1h-5.7C4.5,57.1,0,52.6,0,47c0-1.1,0.9-2,2-2
	s2,0.9,2,2c0,3.4,2.7,6.1,6.1,6.1h7.7c1.1,0,2,0.9,2,2v7.8l9.2-9.2c0.4-0.4,0.9-0.6,1.4-0.6h22.9c3.4,0,6.1-2.7,6.1-6.1V18.7
	c0-3.4-2.7-6.1-6.1-6.1H10.1c-3.4,0-6.1,2.7-6.1,6.1v21.1c0,1.1-0.9,2-2,2s-2-0.9-2-2V18.7C0,13.2,4.5,8.7,10.1,8.6h43.2
	c5.6,0,10.1,4.5,10.1,10.1V47c0,5.6-4.5,10.1-10.1,10.1H31.2l-12,12C18.8,69.5,18.3,69.7,17.8,69.7z"/>
</svg>
