<?xml version="1.0" encoding="utf-8"?>
<!-- Generator: Adobe Illustrator 23.0.1, SVG Export Plug-In . SVG Version: 6.00 Build 0)  -->
<svg version="1.1" id="Layer_1" xmlns="http://www.w3.org/2000/svg" xmlns:xlink="http://www.w3.org/1999/xlink" x="0px" y="0px"
	 viewBox="0 0 80 80" style="enable-background:new 0 0 80 80;" xml:space="preserve">
<style type="text/css">
	.st0{fill:#FFFFFF;}
	.st1{fill:#606060;}
	.st2{fill:none;stroke:#5BA2E8;stroke-width:2.5;stroke-linecap:round;stroke-linejoin:round;stroke-miterlimit:10;}
	.st3{fill:none;stroke:#5BA2E8;stroke-width:2.472;stroke-linecap:round;stroke-linejoin:round;stroke-miterlimit:10;}
</style>
<g>
	<g>
		<g>
			<g>
				<path class="st0" d="M2.6,49C1.7,49,1,48.3,1,47.4V2.6C1,1.7,1.7,1,2.6,1h30.7C34.3,1,35,1.7,35,2.6v44.7c0,0.9-0.7,1.7-1.6,1.7
					H2.6z"/>
				<path class="st1" d="M33.3,2C33.7,2,34,2.3,34,2.6v44.7c0,0.4-0.3,0.6-0.6,0.6H2.6C2.3,48,2,47.7,2,47.4V2.6C2,2.3,2.3,2,2.6,2
					L33.3,2 M33.3,0H2.6C1.2,0,0,1.2,0,2.6v44.7C0,48.8,1.2,50,2.6,50h30.7c1.5,0,2.6-1.2,2.6-2.6V2.6C36,1.2,34.8,0,33.3,0z"/>
			</g>
			<path class="st2" d="M7.1,13h10"/>
			<path class="st3" d="M7.1,21h22"/>
			<path class="st3" d="M7.1,29h22"/>
			<path class="st3" d="M7.1,37h22"/>
		</g>
		<g>
			<g>
				<path class="st0" d="M24.6,64c-0.9,0-1.6-0.7-1.6-1.6V17.6c0-0.9,0.7-1.6,1.6-1.6h30.7c0.9,0,1.7,0.7,1.7,1.6v44.7
					c0,0.9-0.7,1.6-1.6,1.6H24.6"/>
				<path class="st1" d="M55.3,17c0.4,0,0.6,0.3,0.6,0.6v44.7c0,0.4-0.3,0.6-0.6,0.6H24.6c-0.4,0-0.6-0.3-0.6-0.6V17.6
					c0-0.4,0.3-0.6,0.6-0.6L55.3,17 M55.3,15H24.6c-1.5,0-2.6,1.2-2.6,2.6v44.7c0,1.5,1.2,2.6,2.6,2.6h30.7c1.5,0,2.6-1.2,2.6-2.6
					V17.6C58,16.2,56.8,15,55.3,15z"/>
			</g>
			<path class="st2" d="M29.1,28h10"/>
			<path class="st3" d="M29.1,36h22"/>
			<path class="st3" d="M29.1,44h22"/>
			<path class="st3" d="M29.1,52h22"/>
		</g>
		<g>
			<g>
				<path class="st0" d="M46.6,79c-0.9,0-1.6-0.7-1.6-1.6V32.6c0-0.9,0.7-1.6,1.6-1.6h30.7c0.9,0,1.7,0.7,1.7,1.6v44.7
					c0,0.9-0.7,1.7-1.6,1.7H46.6"/>
				<path class="st1" d="M77.3,32c0.4,0,0.6,0.3,0.6,0.6v44.7c0,0.4-0.3,0.6-0.6,0.6H46.6c-0.4,0-0.6-0.3-0.6-0.6V32.6
					c0-0.4,0.3-0.6,0.6-0.6L77.3,32 M77.3,30H46.6c-1.5,0-2.6,1.2-2.6,2.6v44.7c0,1.5,1.2,2.6,2.6,2.6h30.7c1.5,0,2.6-1.2,2.6-2.6
					V32.6C80,31.2,78.8,30,77.3,30z"/>
			</g>
			<path class="st2" d="M51.1,43h10"/>
			<path class="st3" d="M51.1,51h22"/>
			<path class="st3" d="M51.1,59h22"/>
			<path class="st3" d="M51.1,67h22"/>
		</g>
	</g>
</g>
</svg>
