<?xml version="1.0" encoding="utf-8"?>
<!-- Generator: Adobe Illustrator 25.3.0, SVG Export Plug-In . SVG Version: 6.00 Build 0)  -->
<svg version="1.1" xmlns="http://www.w3.org/2000/svg" xmlns:xlink="http://www.w3.org/1999/xlink" x="0px" y="0px"
	 viewBox="0 0 189 86.6" style="enable-background:new 0 0 189 86.6;" xml:space="preserve">
<style type="text/css">
	.Arched_x0020_Green{fill:url(#SVGID_1_);stroke:#FFFFFF;stroke-width:0.25;stroke-miterlimit:1;}
	.st0{fill:#004A93;}
	.st1{fill:#A2A6AA;}
	.st2{display:none;}
	.st3{display:inline;}
	.st4{fill:#E6007E;}
</style>
<linearGradient id="SVGID_1_" gradientUnits="userSpaceOnUse" x1="-324.4009" y1="649.4319" x2="-323.6938" y2="648.7248">
	<stop  offset="0" style="stop-color:#1DA238"/>
	<stop  offset="0.9831" style="stop-color:#24391D"/>
</linearGradient>
<g id="Artwork">
	<g>
		<g>
			<polygon class="st0" points="6.3,39.9 2,33.6 47.8,33.6 45.8,39.9 			"/>
			<g>
				<path class="st1" d="M45.5,35.3l-0.9,2.9H7.2l-2-2.9H45.5 M50.1,32H1.3c-1.1,0-1.7,1.2-1.1,2.1l5.2,7.5H47l3.1-9.4
					C50.1,32.1,50.1,32,50.1,32L50.1,32z"/>
			</g>
		</g>
		<g>
			<g>
				<g id="g48_29_" transform="translate(155.197863, 1.160267)">
					<g id="path50_35_">
						<polygon class="st0" points="-60.4,83.6 -60.4,83.6 -43.8,32.6 -76.9,32.6 -60.4,83.6 						"/>
					</g>
				</g>
				<g id="g56_28_" transform="translate(28.531199, 1.160800)">
					<g id="path58_35_">
						<polygon class="st0" points="66.3,83.6 49.7,32.6 26.5,32.6 66.3,83.6 						"/>
					</g>
				</g>
				<g id="g64_28_" transform="translate(0.088533, 0.255867)">
					<g id="path66_35_">
						<path class="st0" d="M54.9,33.5L54.9,33.5l-5,15.5c-0.5,1.4,0,3,1.2,3.8l43.6,31.7L54.9,33.5L54.9,33.5z"/>
					</g>
				</g>
				<g id="g72_29_" transform="translate(29.421866, 280.255593)">
					<g id="path74_35_">
						<path class="st0" d="M25.6-246.5h23.2l-10-30.7c-0.5-1.6-2.7-1.6-3.3,0L25.6-246.5L25.6-246.5z"/>
					</g>
				</g>
				<g id="g76_28_" transform="translate(247.197860, 1.160800)">
					<g id="path78_35_">
						<polygon class="st0" points="-152.4,83.6 -135.8,32.6 -112.6,32.6 -152.4,83.6 						"/>
					</g>
				</g>
				<g id="g80_28_" transform="translate(246.307061, 0.255867)">
					<g id="path82_35_">
						<path class="st0" d="M-111.7,33.5L-111.7,33.5l5,15.5c0.5,1.4,0,3-1.2,3.8l-43.6,31.6L-111.7,33.5L-111.7,33.5z"/>
					</g>
				</g>
				<g id="g84_29_" transform="translate(336.973725, 280.255593)">
					<g id="path86_35_">
						<path class="st0" d="M-202.4-246.5h-23.2l10-30.7c0.5-1.6,2.7-1.6,3.3,0L-202.4-246.5L-202.4-246.5z"/>
					</g>
				</g>
			</g>
			<g>
				<path class="st1" d="M141.4,48.7l-5-15.2c0-0.1-0.1-0.3-0.1-0.4l-9.9-30.6C125.9,1,124.6,0,123,0c0,0,0,0,0,0
					c-1.6,0-2.9,1-3.4,2.5L110,31.9H79.6L70,2.5C69.5,1,68.2,0,66.7,0c0,0,0,0,0,0c-1.6,0-2.9,1-3.4,2.5l-9.9,30.6c0,0,0,0.1,0,0.1
					l-5,15.5c-0.7,2.2,0.1,4.6,1.9,5.9l43.6,31.7c0.3,0.2,0.7,0.4,1.1,0.4c0.3,0,0.6-0.1,0.8-0.2c0,0,0,0,0,0c0,0,0,0,0,0
					c0,0,0,0,0,0c0,0,0,0,0.1,0c0,0,0.1,0,0.1-0.1c0,0,0,0,0,0l43.6-31.6C141.4,53.2,142.1,50.9,141.4,48.7z M76.9,35.6l12.9,39.6
					L58.9,35.6H76.9z M99.9,75.3l12.9-39.6h18l-24.3,31.2L99.9,75.3z M123,4l9,27.8H114L123,4z M108.8,35.6l-14,43.1l-14-43.1H108.8
					z M66.6,4l9.1,27.8H57.6L66.6,4z M52.3,51.6c-0.6-0.4-0.8-1.1-0.6-1.8l4-12.2l29.5,37.8L52.3,51.6z M137.3,51.6l-32.9,23.9
					l2.5-3.2l27-34.7l4,12.2C138.1,50.5,137.9,51.2,137.3,51.6z"/>
			</g>
		</g>
		<g>
			<path class="st0" d="M13.7,52.9l-4.4-6.3h34.3l-0.2,0.5c-0.6,1.9-0.7,3.9-0.2,5.8H13.7z"/>
			<g>
				<path class="st1" d="M41.4,48.3c-0.2,1-0.2,1.9-0.1,2.9H14.5l-2-2.9H41.4 M45.9,45H8.7c-1.1,0-1.7,1.2-1.1,2.1l5.2,7.5h32.9
					c-1.2-2.1-1.5-4.6-0.7-6.9L45.9,45L45.9,45z"/>
			</g>
		</g>
		<g>
			<polygon class="st0" points="21.4,65.9 17,59.7 48.6,59.7 57.2,65.9 			"/>
			<g>
				<path class="st1" d="M48.1,61.3l4,2.9H22.2l-2-2.9H48.1 M49.1,58H16.4c-1.1,0-1.7,1.2-1.1,2.1l5.2,7.5h41.9L49.1,58L49.1,58z"/>
			</g>
		</g>
		<g>
			<polygon class="st0" points="143.8,39.9 141.8,33.6 187,33.6 182.7,39.9 			"/>
			<g>
				<path class="st1" d="M183.8,35.3l-2,2.9H145l-0.9-2.9H183.8 M187.7,32h-48.2c0.1,0.2,0.1,0.4,0.2,0.6l2.9,9h40.9l5.2-7.5
					C189.4,33.2,188.7,32,187.7,32L187.7,32z"/>
			</g>
		</g>
		<g>
			<path class="st0" d="M146.4,52.9c0.5-1.9,0.4-3.9-0.2-5.8l-0.2-0.5h33.3l-4.4,6.3H146.4z"/>
			<g>
				<path class="st1" d="M176.2,48.3l-2,2.9h-25.8c0.1-1,0-1.9-0.1-2.9H176.2 M180,45h-36.3l0.9,2.7c0.8,2.4,0.5,4.9-0.7,6.9h32
					l5.2-7.5C181.7,46.2,181.1,45,180,45L180,45z"/>
			</g>
		</g>
		<g>
			<polygon class="st0" points="132.4,65.9 141,59.7 171.3,59.7 167,65.9 			"/>
			<g>
				<path class="st1" d="M168.1,61.3l-2,2.9h-28.5l4-2.9H168.1 M172,58h-31.5l-13.2,9.6h40.6l5.2-7.5C173.7,59.2,173.1,58,172,58
					L172,58z"/>
			</g>
		</g>
	</g>
</g>
<g id="Cut_Path" class="st2">
	<g class="st3">
		<path class="st4" d="M66.6-4.3c3.4,0,6.4,2.2,7.4,5.4l8.6,26.3l0.1,0.2h0.2h23.9h0.2l0.1-0.2l8.5-26.3c1-3.2,4-5.4,7.4-5.4
			c3.4,0,6.4,2.1,7.5,5.3l8.6,26.5l0.1,0.2l0.2,0l0.2,0h48.2c2.1,0,4,1.1,5,3c1,1.9,0.8,4.1-0.4,5.8l-6.5,9.3h-0.2l0,0.3
			c0.1,1.2-0.3,2.4-1,3.4l-6.5,9.3h-0.3h-0.3l0,0.3c0.1,1.2-0.3,2.4-1,3.4l-6.5,9.3h-47H123l-0.1,0L98.5,89.6l-0.2,0.2l-0.2,0.1
			c0,0-0.3,0.2-0.3,0.2c0,0-0.2,0.1-0.2,0.1l-0.2,0.1c-0.9,0.4-1.7,0.6-2.6,0.6c-1.3,0-2.5-0.4-3.6-1.2L66.7,71.9l-0.1,0h-0.1H18.3
			l-6.5-9.3c-0.7-1-1-2.2-1-3.4l0-0.3h-0.2l-6.5-9.3c-0.8-1.1-1.1-2.4-1-3.7l0-0.1l-0.1-0.1l-6.3-9.1c-1.2-1.7-1.3-3.9-0.4-5.8
			c1-1.9,2.9-3,5-3h49h0.2l0.1-0.2l8.6-26.4C60.3-2.1,63.2-4.3,66.6-4.3 M123-4.5c-3.5,0-6.6,2.3-7.6,5.6l-8.5,26.3H82.9L74.3,1.1
			c-1.1-3.3-4.1-5.5-7.7-5.6c-3.5,0-6.5,2.2-7.7,5.6l-8.6,26.4h-49c-2.2,0-4.2,1.2-5.2,3.1c-1,1.9-0.9,4.2,0.4,6l6.3,9.1
			c-0.1,1.4,0.2,2.8,1,3.9l6.6,9.4h0.1c-0.1,1.3,0.3,2.5,1,3.6l6.6,9.4h48.4l24.5,17.8c1.1,0.8,2.4,1.2,3.7,1.2
			c0.9,0,1.8-0.2,2.7-0.6l0.2-0.1c0,0,0.2-0.1,0.2-0.1c0,0,0.2-0.1,0.3-0.2l0.2-0.1l0.2-0.2l24.4-17.7h47.1l6.6-9.4
			c0.7-1.1,1.1-2.3,1-3.6h0.4l6.6-9.4c0.7-1.1,1.1-2.3,1-3.6h0.1l6.6-9.4c1.2-1.8,1.4-4.1,0.4-6s-3-3.1-5.2-3.1h-48.2l-0.2,0
			L130.7,1C129.6-2.3,126.5-4.5,123-4.5L123-4.5z"/>
	</g>
</g>
</svg>
