<?xml version="1.0" encoding="utf-8"?>
<!-- Generator: Adobe Illustrator 23.0.1, SVG Export Plug-In . SVG Version: 6.00 Build 0)  -->
<svg version="1.1" xmlns="http://www.w3.org/2000/svg" xmlns:xlink="http://www.w3.org/1999/xlink" x="0px" y="0px" width="304px"
	 height="304px" viewBox="0 0 304 304" style="enable-background:new 0 0 304 304;" xml:space="preserve">
<style type="text/css">
	.st0{fill:#151128;}
	.st1{fill:url(#SVGID_1_);}
	.st2{fill:#272359;}
	.st3{filter:url(#Adobe_OpacityMaskFilter);}
	.st4{mask:url(#SVGID_2_);}
	.st5{fill:url(#SVGID_3_);}
	.st6{fill:#554488;}
	.st7{fill:#E24329;}
	.st8{fill:#FCA326;}
	.st9{fill:#373D47;}
	.st10{fill:#37474F;}
	.st11{fill:#6B4FBB;}
	.st12{fill:#0A021E;}
	.st13{fill:#251B3F;}
	.st14{fill:url(#SVGID_4_);}
	.st15{fill:#555593;}
	.st16{fill:#FC6D26;}
	.st17{fill:url(#SVGID_5_);}
	.st18{fill:url(#SVGID_6_);}
	.st19{fill:none;stroke:#44417F;stroke-width:13;stroke-linejoin:round;stroke-miterlimit:10;}
	.st20{fill:#44417F;}
	.st21{fill:none;stroke:#44417F;stroke-width:3;stroke-linejoin:round;stroke-miterlimit:10;}
	.st22{fill:none;stroke:#413270;stroke-width:3;stroke-linejoin:round;stroke-miterlimit:10;}
	.st23{fill:#F7561E;}
	.st24{fill:#D72D20;}
	.st25{fill:#F8911E;}
	.st26{fill:none;stroke:#695C9E;stroke-width:4;stroke-linecap:round;stroke-linejoin:round;stroke-miterlimit:10;}
	.st27{opacity:0.3;fill:none;stroke:#695C9E;stroke-width:2;stroke-linecap:round;stroke-linejoin:round;stroke-miterlimit:10;}
	.st28{fill:none;stroke:#695C9E;stroke-width:4;stroke-miterlimit:10;}
	.st29{fill:#6262CC;}
	.st30{fill:#9795F9;}
	.st31{fill:#3F3177;}
	.st32{fill:#E6E6E6;}
	.st33{fill:#FFFFFF;}
	.st34{fill:#434080;}
	.st35{fill:#9795F9;stroke:#9795F9;stroke-width:3.2459;stroke-linecap:round;stroke-linejoin:round;stroke-miterlimit:10;}
	.st36{fill:none;stroke:#9795F9;stroke-width:8;stroke-linecap:round;stroke-linejoin:round;stroke-miterlimit:10;}
	.st37{fill:none;stroke:#6262CC;stroke-width:4;stroke-linecap:round;stroke-linejoin:round;stroke-miterlimit:10;}
	.st38{fill:none;stroke:#3F3177;stroke-width:4;stroke-linecap:round;stroke-linejoin:round;stroke-miterlimit:10;}
	
		.st39{fill:none;stroke:#3F3177;stroke-width:4;stroke-linecap:round;stroke-linejoin:round;stroke-miterlimit:10;stroke-dasharray:10.8195,10.8195;}
	.st40{opacity:0.45;}
	.st41{fill:none;stroke:#6262CC;stroke-miterlimit:10;}
	.st42{fill:none;stroke:#6262CC;stroke-width:3;stroke-linecap:round;stroke-miterlimit:10;}
	.st43{fill:none;stroke:url(#SVGID_7_);stroke-width:3;stroke-linecap:round;stroke-miterlimit:10;}
	.st44{fill:none;stroke:#9795F9;stroke-linecap:round;stroke-linejoin:round;stroke-miterlimit:10;}
	.st45{fill:none;stroke:url(#SVGID_8_);stroke-width:3;stroke-linecap:round;stroke-linejoin:round;stroke-miterlimit:10;}
	.st46{fill:none;stroke:url(#SVGID_9_);stroke-width:3;stroke-linecap:round;stroke-linejoin:round;stroke-miterlimit:10;}
	.st47{fill:none;stroke:url(#SVGID_10_);stroke-width:3;stroke-linecap:round;stroke-linejoin:round;stroke-miterlimit:10;}
	.st48{fill:none;stroke:url(#SVGID_11_);stroke-width:3;stroke-linecap:round;stroke-linejoin:round;stroke-miterlimit:10;}
	.st49{fill:none;stroke:url(#SVGID_12_);stroke-width:3;stroke-linecap:round;stroke-linejoin:round;stroke-miterlimit:10;}
	.st50{fill:none;stroke:#9795F9;stroke-width:2;stroke-linecap:round;stroke-linejoin:round;stroke-miterlimit:10;}
	.st51{fill:none;stroke:url(#SVGID_13_);stroke-width:3;stroke-linecap:round;stroke-linejoin:round;stroke-miterlimit:10;}
	.st52{fill:none;stroke:url(#SVGID_14_);stroke-width:3;stroke-linecap:round;stroke-linejoin:round;stroke-miterlimit:10;}
	.st53{fill:none;stroke:url(#SVGID_15_);stroke-width:3;stroke-linecap:round;stroke-linejoin:round;stroke-miterlimit:10;}
	.st54{fill:none;stroke:url(#SVGID_16_);stroke-width:3;stroke-linecap:round;stroke-linejoin:round;stroke-miterlimit:10;}
	.st55{fill:none;stroke:url(#SVGID_17_);stroke-width:3;stroke-linecap:round;stroke-linejoin:round;stroke-miterlimit:10;}
	.st56{fill:none;stroke:#000000;stroke-width:7.2695;stroke-linecap:round;stroke-linejoin:round;stroke-miterlimit:10;}
	.st57{fill:none;stroke:url(#SVGID_18_);stroke-width:0.75;stroke-miterlimit:10;}
	.st58{fill:none;stroke:url(#SVGID_19_);stroke-width:0.75;stroke-miterlimit:10;}
	.st59{fill:url(#SVGID_20_);}
	.st60{fill:url(#SVGID_21_);}
	.st61{filter:url(#Adobe_OpacityMaskFilter_1_);}
	.st62{mask:url(#SVGID_22_);}
	.st63{fill:#B7B7F9;}
	.st64{fill:url(#SVGID_23_);}
	.st65{fill:url(#SVGID_24_);}
	.st66{opacity:0.9;}
	.st67{filter:url(#Adobe_OpacityMaskFilter_2_);}
	.st68{mask:url(#SVGID_25_);}
	.st69{fill:url(#SVGID_26_);}
	.st70{fill:none;stroke:url(#SVGID_27_);stroke-width:0.75;stroke-miterlimit:10;}
	.st71{fill:none;stroke:url(#SVGID_28_);stroke-width:0.75;stroke-miterlimit:10;}
	.st72{fill:url(#SVGID_29_);}
	.st73{fill:url(#SVGID_30_);}
	.st74{fill:url(#SVGID_31_);}
	.st75{fill:none;stroke:#151128;stroke-width:4;stroke-linejoin:round;stroke-miterlimit:10;}
	.st76{fill:url(#SVGID_32_);}
	.st77{fill:none;stroke:#9795F9;stroke-width:10;stroke-linecap:round;stroke-linejoin:round;stroke-miterlimit:10;}
	.st78{fill:none;stroke:#6262CC;stroke-width:4.9191;stroke-linecap:round;stroke-linejoin:round;stroke-miterlimit:10;}
	.st79{fill:none;stroke:#3F3177;stroke-width:5;stroke-linecap:round;stroke-linejoin:round;stroke-miterlimit:10;}
	.st80{fill:none;stroke:#6262CC;stroke-width:5;stroke-linecap:round;stroke-linejoin:round;stroke-miterlimit:10;}
	.st81{fill:none;stroke:#9795F9;stroke-width:3.5272;stroke-linecap:round;stroke-linejoin:round;stroke-miterlimit:10;}
	.st82{fill:none;stroke:#6262CC;stroke-width:1.7636;stroke-linecap:round;stroke-linejoin:round;stroke-miterlimit:10;}
	.st83{fill:none;stroke:#3F3177;stroke-width:1.7636;stroke-linecap:round;stroke-linejoin:round;stroke-miterlimit:10;}
	.st84{opacity:0.6;}
	.st85{fill:none;stroke:#9795F9;stroke-width:15.2491;stroke-linecap:round;stroke-linejoin:round;stroke-miterlimit:10;}
	.st86{fill:none;stroke:#6262CC;stroke-width:7.6246;stroke-linecap:round;stroke-linejoin:round;stroke-miterlimit:10;}
	.st87{fill:none;stroke:#3F3177;stroke-width:7.6246;stroke-linecap:round;stroke-linejoin:round;stroke-miterlimit:10;}
	.st88{opacity:0.25;}
	.st89{fill:none;stroke:#9795F9;stroke-width:3.4374;stroke-linecap:round;stroke-linejoin:round;stroke-miterlimit:10;}
	.st90{fill:none;stroke:#6262CC;stroke-width:1.6909;stroke-linecap:round;stroke-linejoin:round;stroke-miterlimit:10;}
	.st91{fill:none;stroke:#3F3177;stroke-width:1.7187;stroke-linecap:round;stroke-linejoin:round;stroke-miterlimit:10;}
	.st92{fill:none;stroke:#9795F9;stroke-width:6;stroke-linecap:round;stroke-linejoin:round;stroke-miterlimit:10;}
	.st93{fill:none;stroke:#6262CC;stroke-width:3;stroke-linecap:round;stroke-linejoin:round;stroke-miterlimit:10;}
	.st94{fill:none;stroke:#3F3177;stroke-width:3;stroke-linecap:round;stroke-linejoin:round;stroke-miterlimit:10;}
	.st95{clip-path:url(#SVGID_34_);}
	.st96{fill:none;stroke:#9795F9;stroke-width:4.0573;stroke-linecap:round;stroke-linejoin:round;stroke-miterlimit:10;}
	.st97{fill:none;stroke:#6262CC;stroke-width:2.0286;stroke-linecap:round;stroke-linejoin:round;stroke-miterlimit:10;}
	.st98{fill:none;stroke:#3F3177;stroke-width:2.0286;stroke-linecap:round;stroke-linejoin:round;stroke-miterlimit:10;}
	.st99{clip-path:url(#SVGID_36_);}
	.st100{fill:none;stroke:#9795F9;stroke-width:3.2478;stroke-linecap:round;stroke-linejoin:round;stroke-miterlimit:10;}
	.st101{fill:none;stroke:#6262CC;stroke-width:1.5976;stroke-linecap:round;stroke-linejoin:round;stroke-miterlimit:10;}
	.st102{fill:none;stroke:#3F3177;stroke-width:1.6239;stroke-linecap:round;stroke-linejoin:round;stroke-miterlimit:10;}
	.st103{clip-path:url(#SVGID_38_);}
	.st104{font-family:'Lato-Black';}
	.st105{font-size:8.2962px;}
	.st106{letter-spacing:1;}
</style>
<g id="background">
</g>
<g id="logo__x2B__messaging">
	<g>
		<g>
			<path class="st36" d="M84.8,136.7c6.4-31.1,33.9-54.5,66.9-54.5c31.1,0,57.3,20.8,65.6,49.2"/>
		</g>
		<polyline class="st36" points="227.7,113.3 218.6,133.5 198.4,124.3 		"/>
		<g>
			<path class="st36" d="M219.2,167.3c-6.4,31.1-33.9,54.5-66.9,54.5c-31.1,0-57.3-20.8-65.6-49.2"/>
		</g>
		<polyline class="st36" points="76,191.4 86.3,171.8 105.9,182.1 		"/>
	</g>
	<g>
		<path class="st37" d="M198.8,54c-40.4-19.3-90.2-12.2-123.6,21.2S34.7,158.5,54,198.8"/>
		<path class="st37" d="M105.2,250c40.4,19.3,90.2,12.2,123.6-21.2s40.5-83.3,21.2-123.6"/>
	</g>
	<g>
		<path class="st38" d="M16.6,87.3C-10,143.1-0.3,211.9,45.9,258.1s115,55.9,170.7,29.3"/>
		<path class="st38" d="M287.4,216.7c26.6-55.8,16.9-124.6-29.3-170.7S143.1-10,87.3,16.6"/>
	</g>
	<g>
		<g>
			<g>
				<path class="st33" d="M122.2,163.6c0,3-1.6,4.3-4.8,4.3h-4.8c-3.2,0-4.8-1.3-4.8-4.3v-11.4c0-3,1.6-4.3,4.8-4.3h4.8
					c3.2,0,4.8,1.3,4.8,4.3v0.8c0,0.2-0.1,0.4-0.4,0.5l-2,0.5c-0.3,0.1-0.6-0.2-0.6-0.5v-0.8c0-1.5-0.5-2.1-2.2-2.1h-4
					c-1.7,0-2.2,0.6-2.2,2.1V163c0,1.5,0.5,2.1,2.2,2.1h4c1.7,0,2.2-0.6,2.2-2.1v-1c0-0.3,0.3-0.6,0.6-0.5l2,0.6
					c0.2,0.1,0.3,0.3,0.3,0.5V163.6z"/>
				<path class="st33" d="M126.4,165.1h5.1v-14.5h-4.7c-0.3,0-0.5-0.2-0.5-0.5v-1.7c0-0.3,0.2-0.5,0.5-0.5h12.4
					c0.3,0,0.5,0.2,0.5,0.5v1.7c0,0.3-0.2,0.5-0.5,0.5h-4.7v14.5h5.1c0.3,0,0.5,0.2,0.5,0.5v1.8c0,0.3-0.2,0.5-0.5,0.5h-13
					c-0.3,0-0.5-0.2-0.5-0.5v-1.8C125.9,165.3,126.2,165.1,126.4,165.1z"/>
			</g>
			<g>
				<path class="st33" d="M178.5,163.6c0,3-1.6,4.3-4.8,4.3h-4.8c-3.2,0-4.8-1.3-4.8-4.3v-11.4c0-3,1.6-4.3,4.8-4.3h4.8
					c3.2,0,4.8,1.3,4.8,4.3v0.8c0,0.2-0.1,0.4-0.4,0.5l-2,0.5c-0.3,0.1-0.6-0.2-0.6-0.5v-0.8c0-1.5-0.5-2.1-2.2-2.1h-4
					c-1.7,0-2.2,0.6-2.2,2.1V163c0,1.5,0.5,2.1,2.2,2.1h4c1.7,0,2.2-0.6,2.2-2.1v-1c0-0.3,0.3-0.6,0.6-0.5l2,0.6
					c0.2,0.1,0.3,0.3,0.3,0.5V163.6z"/>
				<path class="st33" d="M196.6,163.6c0,3-1.5,4.3-4.7,4.3h-9.2c-0.3,0-0.5-0.2-0.5-0.5v-19c0-0.3,0.2-0.5,0.5-0.5h9.2
					c3.2,0,4.7,1.3,4.7,4.3V163.6z M193.6,152.7c0-1.5-0.5-2.1-2.2-2.1h-6.3v14.5h6.3c1.7,0,2.2-0.6,2.2-2.1V152.7z"/>
			</g>
			<path class="st24" d="M156.1,136.4c-0.2-0.1-0.4,0-0.4,0.2l-9.4,17.2c-0.3,0.6-0.2,1.4,0.2,1.9l4.5,4.8l5.3-23.6
				C156.3,136.7,156.2,136.5,156.1,136.4z"/>
			<path class="st25" d="M157.2,157.6l-4.5-4.8l-5.3,23.6c0,0.2,0.1,0.3,0.2,0.4c0,0,0.1,0,0.1,0c0.1,0,0.2-0.1,0.3-0.2l9.4-17.2
				C157.8,158.8,157.7,158.1,157.2,157.6z"/>
		</g>
		<text transform="matrix(1 0 0 1 132.5469 132.8118)" class="st33 st104 st105 st106">GITLAB</text>
	</g>
</g>
<g id="filenames">
</g>
</svg>
