<svg width="463" height="90" viewBox="0 0 463 90" fill="none" xmlns="http://www.w3.org/2000/svg">
<path d="M318.925 58H322.6V51.2H328.225V58H331.925V41.7H328.225V47.975H322.6V41.7H318.925V58Z" fill="white"/>
<path d="M342.096 49.75C342.546 48.125 342.971 46.225 343.371 44.5H343.471C343.896 46.2 344.346 48.125 344.796 49.75L345.171 51.25H341.696L342.096 49.75ZM336.196 58H339.946L340.946 54.125H345.921L346.921 58H350.821L345.721 41.7H341.296L336.196 58Z" fill="white"/>
<path d="M355.102 58H358.602V52.225C358.602 50.3 358.302 48.125 358.152 46.325H358.252L359.852 49.875L364.102 58H367.877V41.7H364.377V47.45C364.377 49.375 364.677 51.675 364.827 53.4H364.727L363.127 49.8L358.877 41.7H355.102V58Z" fill="white"/>
<path d="M374.228 58H379.028C383.803 58 387.003 55.375 387.003 49.775C387.003 44.175 383.803 41.7 378.828 41.7H374.228V58ZM377.903 55.025V44.675H378.603C381.378 44.675 383.228 45.875 383.228 49.775C383.228 53.675 381.378 55.025 378.603 55.025H377.903Z" fill="white"/>
<path d="M392.597 58H398.647C402.172 58 404.972 56.525 404.972 53.2C404.972 51.025 403.697 49.8 402.047 49.375V49.275C403.372 48.775 404.172 47.2 404.172 45.75C404.172 42.625 401.547 41.7 398.172 41.7H392.597V58ZM396.272 48.225V44.55H398.022C399.747 44.55 400.572 45.025 400.572 46.3C400.572 47.475 399.797 48.225 397.997 48.225H396.272ZM396.272 55.15V50.95H398.347C400.372 50.95 401.372 51.525 401.372 52.95C401.372 54.45 400.347 55.15 398.347 55.15H396.272Z" fill="white"/>
<path d="M416.858 58.3C421.258 58.3 424.258 55.1 424.258 49.775C424.258 44.475 421.258 41.4 416.858 41.4C412.458 41.4 409.458 44.45 409.458 49.775C409.458 55.1 412.458 58.3 416.858 58.3ZM416.858 55.125C414.633 55.125 413.233 53.05 413.233 49.775C413.233 46.525 414.633 44.575 416.858 44.575C419.083 44.575 420.483 46.525 420.483 49.775C420.483 53.05 419.083 55.125 416.858 55.125Z" fill="white"/>
<path d="M436.448 58.3C440.848 58.3 443.848 55.1 443.848 49.775C443.848 44.475 440.848 41.4 436.448 41.4C432.048 41.4 429.048 44.45 429.048 49.775C429.048 55.1 432.048 58.3 436.448 58.3ZM436.448 55.125C434.223 55.125 432.823 53.05 432.823 49.775C432.823 46.525 434.223 44.575 436.448 44.575C438.673 44.575 440.073 46.525 440.073 49.775C440.073 53.05 438.673 55.125 436.448 55.125Z" fill="white"/>
<path d="M449.413 58H453.088V53.625L454.988 51.125L458.963 58H462.988L457.163 48.2L462.088 41.7H458.038L453.188 48.375H453.088V41.7H449.413V58Z" fill="white"/>
<path d="M208.91 21.4709H202.546L202.576 68.4958H228.351V62.6792H208.939L208.91 21.4709Z" fill="white"/>
<path d="M252.88 60.2455C251.86 61.2958 250.636 62.1298 249.281 62.6968C247.926 63.2639 246.469 63.5523 244.999 63.5444C240.153 63.5444 238.197 61.1715 238.197 58.0751C238.197 53.416 241.466 51.1877 248.414 51.1877C249.919 51.1935 251.422 51.3096 252.909 51.535V60.2455H252.88ZM246.283 31.7411C241.336 31.7259 236.541 33.4367 232.738 36.5738L234.986 40.4516C237.584 38.9468 240.766 37.442 245.349 37.442C250.574 37.442 252.88 40.1043 252.88 44.5608V46.847C251.422 46.6203 249.948 46.5042 248.472 46.4997C237.321 46.4997 231.658 50.3774 231.658 58.4802C231.658 65.7438 236.154 69.39 242.955 69.39C247.538 69.39 251.946 67.3064 253.464 63.9206L254.632 68.5218H259.127V44.4451C259.098 36.8343 255.77 31.7411 246.283 31.7411Z" fill="white"/>
<path d="M279.66 63.7585C277.267 63.7585 275.165 63.4691 273.589 62.7456V41.0129C275.749 39.2187 278.434 37.9165 281.85 37.9165C288.009 37.9165 290.374 42.2283 290.374 49.2025C290.374 59.0994 286.55 63.7585 279.66 63.7585ZM282.346 31.7526C280.695 31.7425 279.06 32.0804 277.55 32.7439C276.04 33.4075 274.69 34.3815 273.589 35.6014V29.5185L273.56 21.4737H267.342L267.371 67.3411C270.494 68.6433 274.756 69.3378 279.398 69.3378C291.279 69.3378 297 61.8138 297 48.8205C296.971 38.5473 291.687 31.7468 282.346 31.7468" fill="white"/>
<path d="M139.621 26.5727C145.255 26.5727 148.904 28.4248 151.268 30.3058L154.012 25.5888C150.305 22.3477 145.284 20.6114 139.913 20.6114C126.368 20.6114 116.881 28.801 116.881 45.3248C116.881 62.63 127.127 69.3727 138.833 69.3727C143.676 69.3837 148.474 68.4598 152.961 66.6524L152.815 48.1608V42.3442H135.435V48.1608H146.527L146.673 62.1959C145.214 62.9194 142.703 63.4981 139.288 63.4981C129.888 63.4981 123.583 57.6236 123.583 45.2669C123.554 32.6787 130.064 26.5727 139.609 26.5727" fill="white"/>
<path d="M184.439 21.4651H178.221L178.25 29.3652V56.6542C178.25 64.265 181.578 69.3582 191.065 69.3582C192.348 69.3614 193.628 69.2451 194.889 69.0109V63.4837C193.933 63.6272 192.967 63.6949 191.999 63.6862C186.774 63.6862 184.468 61.0239 184.468 56.5674V37.7574H194.889V32.6064H184.477L184.448 21.4651H184.439Z" fill="white"/>
<path d="M162.408 68.496H168.626V32.6124H162.408V68.496Z" fill="white"/>
<path d="M162.408 27.6636H168.626V21.4998H162.408V27.6636Z" fill="white"/>
<path d="M98.3627 51.4569L92.8426 34.6379L81.9193 1.27766C81.7935 0.90548 81.5529 0.581889 81.2316 0.352621C80.9102 0.123353 80.5243 0 80.1284 0C79.7324 0 79.3465 0.123353 79.0252 0.352621C78.7038 0.581889 78.4632 0.90548 78.3375 1.27766L67.42 34.6176H31.1236L20.2002 1.27766C20.0745 0.90548 19.8339 0.581889 19.5126 0.352621C19.1912 0.123353 18.8053 0 18.4094 0C18.0134 0 17.6275 0.123353 17.3061 0.352621C16.9848 0.581889 16.7442 0.90548 16.6185 1.27766L5.71555 34.6176L0.192566 51.4569C-0.0522126 52.2046 -0.0524757 53.0098 0.191813 53.7576C0.436102 54.5054 0.912456 55.1576 1.55288 55.6211L49.2689 90L96.9848 55.6211C97.628 55.1597 98.1076 54.5084 98.355 53.7606C98.6025 53.0127 98.6052 52.2064 98.3627 51.4569Z" fill="#FC6D26"/>
<path d="M49.28 89.9681L67.4195 34.6147H31.1348L49.28 89.9681Z" fill="#E24329"/>
<path d="M49.2687 89.971L31.1234 34.6147H5.72705L49.2687 89.971Z" fill="#FC6D26"/>
<path d="M5.70676 34.635L0.183777 51.454C-0.0610016 52.2017 -0.0612647 53.0069 0.183024 53.7547C0.427313 54.5026 0.903667 55.1548 1.54409 55.6183L49.2601 90L5.70676 34.635Z" fill="#FCA326"/>
<path d="M5.71289 34.635H31.1414L20.1976 1.29502C20.0718 0.922842 19.8313 0.599251 19.5099 0.369983C19.1885 0.140715 18.8026 0.0173645 18.4067 0.0173645C18.0108 0.0173645 17.6248 0.140715 17.3035 0.369983C16.9821 0.599251 16.7416 0.922842 16.6158 1.29502L5.71289 34.635Z" fill="#E24329"/>
<path d="M49.2812 89.971L67.4207 34.6147H92.8462L49.2812 89.971Z" fill="#FC6D26"/>
<path d="M92.837 34.635L98.3629 51.454C98.6077 52.2017 98.608 53.0069 98.3637 53.7547C98.1194 54.5025 97.643 55.1547 97.0026 55.6182L49.2837 89.9681L92.837 34.635Z" fill="#FCA326"/>
<path d="M92.8518 34.635H67.4204L78.3438 1.29502C78.4695 0.922842 78.7101 0.599251 79.0314 0.369983C79.3528 0.140715 79.7387 0.0173645 80.1347 0.0173645C80.5306 0.0173645 80.9165 0.140715 81.2379 0.369983C81.5592 0.599251 81.7998 0.922842 81.9255 1.29502L92.8489 34.635H92.8518Z" fill="#E24329"/>
</svg>
