<svg width="1870" height="60" viewBox="0 0 1870 60" fill="none" xmlns="http://www.w3.org/2000/svg">
<path fill-rule="evenodd" clip-rule="evenodd" d="M29.9841 0C23.4443 0 17.6583 4.23696 15.684 10.4716L0 60H654H1216H1870L1854.32 10.4716C1852.34 4.23696 1846.56 0 1840.02 0H1193.29H676.707H29.9841Z" fill="#180633"/>
</svg>
