<svg width="724" height="595" viewBox="0 0 724 595" fill="none" xmlns="http://www.w3.org/2000/svg">
<circle cx="461" cy="220" r="14" fill="#2E2E2E"/>
<rect x="454.908" y="215.431" width="2.15385" height="15.0769" transform="rotate(-45 454.908 215.431)" fill="white"/>
<rect x="465.569" y="213.906" width="2.15385" height="15.0769" transform="rotate(45 465.569 213.906)" fill="white"/>
<circle cx="461" cy="530" r="14" fill="#2E2E2E"/>
<rect x="454.908" y="525.431" width="2.15385" height="15.0769" transform="rotate(-45 454.908 525.431)" fill="white"/>
<rect x="465.569" y="523.906" width="2.15385" height="15.0769" transform="rotate(45 465.569 523.906)" fill="white"/>
<circle cx="263" cy="220" r="14" fill="#2E2E2E"/>
<rect x="256.908" y="215.431" width="2.15385" height="15.0769" transform="rotate(-45 256.908 215.431)" fill="white"/>
<rect x="267.569" y="213.906" width="2.15385" height="15.0769" transform="rotate(45 267.569 213.906)" fill="white"/>
<circle cx="263" cy="530" r="14" fill="#2E2E2E"/>
<rect x="256.908" y="525.431" width="2.15385" height="15.0769" transform="rotate(-45 256.908 525.431)" fill="white"/>
<rect x="267.569" y="523.906" width="2.15385" height="15.0769" transform="rotate(45 267.569 523.906)" fill="white"/>
<circle cx="362" cy="375" r="14" fill="#2E2E2E"/>
<rect x="355.908" y="370.431" width="2.15385" height="15.0769" transform="rotate(-45 355.908 370.431)" fill="white"/>
<rect x="366.569" y="368.906" width="2.15385" height="15.0769" transform="rotate(45 366.569 368.906)" fill="white"/>
<circle cx="362" cy="65" r="14" fill="#2E2E2E"/>
<rect x="355.908" y="60.4307" width="2.15385" height="15.0769" transform="rotate(-45 355.908 60.4307)" fill="white"/>
<rect x="366.569" y="58.9062" width="2.15385" height="15.0769" transform="rotate(45 366.569 58.9062)" fill="white"/>
<circle cx="164" cy="375" r="14" fill="#2E2E2E"/>
<rect x="157.908" y="370.431" width="2.15385" height="15.0769" transform="rotate(-45 157.908 370.431)" fill="white"/>
<rect x="168.569" y="368.906" width="2.15385" height="15.0769" transform="rotate(45 168.569 368.906)" fill="white"/>
<circle cx="164" cy="65" r="14" fill="#2E2E2E"/>
<rect x="157.908" y="60.4307" width="2.15385" height="15.0769" transform="rotate(-45 157.908 60.4307)" fill="white"/>
<rect x="168.569" y="58.9062" width="2.15385" height="15.0769" transform="rotate(45 168.569 58.9062)" fill="white"/>
<circle cx="560" cy="375" r="14" fill="#2E2E2E"/>
<rect x="553.908" y="370.431" width="2.15385" height="15.0769" transform="rotate(-45 553.908 370.431)" fill="white"/>
<rect x="564.569" y="368.906" width="2.15385" height="15.0769" transform="rotate(45 564.569 368.906)" fill="white"/>
<circle cx="560" cy="65" r="14" fill="#2E2E2E"/>
<rect x="553.908" y="60.4307" width="2.15385" height="15.0769" transform="rotate(-45 553.908 60.4307)" fill="white"/>
<rect x="564.569" y="58.9062" width="2.15385" height="15.0769" transform="rotate(45 564.569 58.9062)" fill="white"/>
<path d="M65 130C100.899 130 130 100.899 130 65C130 29.1015 100.899 0 65 0C29.1015 0 0 29.1015 0 65C0 100.899 29.1015 130 65 130Z" fill="#FFC46C"/>
<path d="M65 43.822C79.9117 43.822 92 40.7278 92 36.911C92 33.0942 79.9117 30 65 30C50.0883 30 38 33.0942 38 36.911C38 40.7278 50.0883 43.822 65 43.822Z" stroke="white" stroke-width="4" stroke-linecap="round" stroke-linejoin="round"/>
<path d="M92 55.6367C92 59.4535 79.9117 62.5477 65 62.5477C50.0883 62.5477 38 59.4535 38 55.6367" stroke="white" stroke-width="4" stroke-linecap="round" stroke-linejoin="round"/>
<path d="M92 74.3633C92 78.1802 79.9117 81.2743 65 81.2743C56.4113 81.2743 48.7592 80.2479 43.8141 78.6481" stroke="white" stroke-width="4" stroke-linecap="round" stroke-linejoin="round"/>
<path d="M92 80.7005V36.9111" stroke="white" stroke-width="4" stroke-linecap="round" stroke-linejoin="round"/>
<path d="M38 49.9043V93.0893C38 96.9061 50.0883 100 65 100C79.9117 100 92 96.9061 92 93.0893" stroke="white" stroke-width="4" stroke-linecap="round" stroke-linejoin="round"/>
<path d="M263 130C298.899 130 328 100.899 328 65C328 29.1015 298.899 0 263 0C227.101 0 198 29.1015 198 65C198 100.899 227.101 130 263 130Z" fill="#5AC4FF"/>
<path d="M262.999 71.2188V81.8107" stroke="white" stroke-width="4" stroke-linecap="round" stroke-linejoin="round"/>
<path d="M262.999 73.6216C264.339 73.6216 265.426 72.5457 265.426 71.2185C265.426 69.8913 264.339 68.8154 262.999 68.8154C261.658 68.8154 260.572 69.8913 260.572 71.2185C260.572 72.5457 261.658 73.6216 262.999 73.6216Z" stroke="white" stroke-width="4" stroke-linecap="round" stroke-linejoin="round"/>
<path d="M282.173 51.604V42.977C282.147 37.9174 280.113 33.0752 276.517 29.5155C272.922 25.9558 268.059 23.9701 263 23.9954V23.9954C257.94 23.9701 253.078 25.9557 249.482 29.5154C245.887 33.0751 243.852 37.9174 243.827 42.977V51.604" stroke="white" stroke-width="4" stroke-linecap="round" stroke-linejoin="round"/>
<path d="M290.391 93.995H235.609V63.46" stroke="white" stroke-width="4" stroke-linecap="round" stroke-linejoin="round"/>
<path d="M235.609 54.6338H290.391V85.1688" stroke="white" stroke-width="4" stroke-linecap="round" stroke-linejoin="round"/>
<path d="M461 130C496.899 130 526 100.899 526 65C526 29.1015 496.899 0 461 0C425.101 0 396 29.1015 396 65C396 100.899 425.101 130 461 130Z" fill="#FF9769"/>
<path d="M459.939 34.5655H490.991C492.312 34.5589 493.583 35.0776 494.522 36.0076C495.462 36.9376 495.993 38.2027 496 39.5246V62.2994C495.993 63.6213 495.462 64.8864 494.522 65.8164C493.583 66.7465 492.312 67.2652 490.991 67.2586H486.381L480.897 74.7949L475.413 67.2586H459.939C458.617 67.2652 457.347 66.7465 456.407 65.8165C455.468 64.8864 454.936 63.6213 454.929 62.2994V39.5246C454.936 38.2027 455.468 36.9376 456.407 36.0076C457.347 35.0776 458.617 34.5588 459.939 34.5655Z" stroke="white" stroke-width="4" stroke-linecap="round" stroke-linejoin="round"/>
<path d="M483.389 50.9121H467.54" stroke="white" stroke-width="4" stroke-linecap="round" stroke-linejoin="round"/>
<path d="M449.637 72.1377H438.611" stroke="white" stroke-width="4" stroke-linecap="round" stroke-linejoin="round"/>
<path d="M467.071 75.7956V82.9564C467.067 83.611 466.935 84.2585 466.681 84.862C466.428 85.4655 466.058 86.0132 465.593 86.4737C465.127 86.9342 464.576 87.2985 463.97 87.546C463.364 87.7934 462.715 87.919 462.061 87.9156H446.587L441.147 95.4346L435.62 87.9156H431.01C429.688 87.9222 428.417 87.4035 427.478 86.4735C426.538 85.5434 426.007 84.2783 426 82.9564V60.1818C426.007 58.86 426.538 57.5949 427.478 56.6649C428.417 55.735 429.688 55.2162 431.009 55.2227H445.647" stroke="white" stroke-width="4" stroke-linecap="round" stroke-linejoin="round"/>
<path d="M659 130C694.899 130 724 100.899 724 65C724 29.1015 694.899 0 659 0C623.101 0 594 29.1015 594 65C594 100.899 623.101 130 659 130Z" fill="#08C486"/>
<path d="M627.843 34.7744L689.225 96.2249" stroke="white" stroke-width="4" stroke-linecap="round" stroke-linejoin="round"/>
<path d="M681.489 47.5324C684.253 47.5324 686.494 45.2918 686.494 42.5279C686.494 39.764 684.253 37.5234 681.489 37.5234C678.725 37.5234 676.485 39.764 676.485 42.5279C676.485 45.2918 678.725 47.5324 681.489 47.5324Z" stroke="white" stroke-width="4" stroke-linecap="round" stroke-linejoin="round"/>
<path d="M658.52 38.008C661.284 38.008 663.525 35.7674 663.525 33.0035C663.525 30.2396 661.284 27.999 658.52 27.999C655.756 27.999 653.516 30.2396 653.516 33.0035C653.516 35.7674 655.756 38.008 658.52 38.008Z" stroke="white" stroke-width="4" stroke-linecap="round" stroke-linejoin="round"/>
<path d="M690.998 70.5129C693.762 70.5129 696.002 68.2723 696.002 65.5084C696.002 62.7445 693.762 60.5039 690.998 60.5039C688.234 60.5039 685.993 62.7445 685.993 65.5084C685.993 68.2723 688.234 70.5129 690.998 70.5129Z" stroke="white" stroke-width="4" stroke-linecap="round" stroke-linejoin="round"/>
<path d="M672.538 94.8157C668.156 96.9176 663.357 98.0055 658.497 97.9985C654.229 97.998 650.003 97.157 646.06 95.5233C642.118 93.8896 638.535 91.4954 635.518 88.4773C632.5 85.4591 630.107 81.8762 628.474 77.9331C626.841 73.9899 626.001 69.7638 626.002 65.496C625.994 60.4021 627.188 55.3783 629.488 50.833" stroke="white" stroke-width="4" stroke-linecap="round" stroke-linejoin="round"/>
<path d="M690.59 70.623C688.688 82.6292 681.489 87.8286 681.489 87.8286" stroke="white" stroke-width="4" stroke-linecap="round" stroke-linejoin="round"/>
<path d="M684.788 46.3896C687.804 50.5298 689.794 55.3274 690.593 60.3872" stroke="white" stroke-width="4" stroke-linecap="round" stroke-linejoin="round"/>
<path d="M663.524 33.3799C668.625 34.1728 673.462 36.176 677.63 39.2218" stroke="white" stroke-width="4" stroke-linecap="round" stroke-linejoin="round"/>
<path d="M653.516 33.373C647.056 34.3795 641.052 37.3202 636.296 41.8073" stroke="white" stroke-width="4" stroke-linecap="round" stroke-linejoin="round"/>
<path d="M634.082 83.8828H660.49" stroke="white" stroke-width="4" stroke-linecap="round" stroke-linejoin="round"/>
<path d="M628.949 70.334H645.639" stroke="white" stroke-width="4" stroke-linecap="round" stroke-linejoin="round"/>
<path d="M628.949 56.7842H635.61" stroke="white" stroke-width="4" stroke-linecap="round" stroke-linejoin="round"/>
<path d="M164 285C199.899 285 229 255.899 229 220C229 184.101 199.899 155 164 155C128.101 155 99 184.101 99 220C99 255.899 128.101 285 164 285Z" fill="#AC7FFF"/>
<path d="M136.006 193.006C136.012 190.877 136.864 188.837 138.374 187.336C139.884 185.834 141.929 184.994 144.058 185H171.959C174.088 184.994 176.133 185.834 177.643 187.336C179.153 188.837 180.005 190.877 180.012 193.006V246.994C180.005 249.123 179.153 251.163 177.643 252.665C176.133 254.166 174.088 255.006 171.959 255H144.059C141.929 255.006 139.885 254.166 138.374 252.665C136.864 251.163 136.012 249.123 136.006 246.994V208.881" stroke="white" stroke-width="4" stroke-linecap="round" stroke-linejoin="round"/>
<path d="M177.923 187.635L202.776 206.12C203.626 206.75 204.342 207.542 204.883 208.45C205.423 209.359 205.778 210.366 205.926 211.413C206.074 212.46 206.012 213.526 205.745 214.549C205.477 215.572 205.008 216.532 204.366 217.372L179.101 250.464" stroke="white" stroke-width="4" stroke-linecap="round" stroke-linejoin="round"/>
<path d="M362 285C397.899 285 427 255.899 427 220C427 184.101 397.899 155 362 155C326.101 155 297 184.101 297 220C297 255.899 326.101 285 362 285Z" fill="#FF675F"/>
<path d="M334.624 231.026C332.29 229.563 330.366 227.532 329.032 225.122C327.699 222.712 327 220.003 327 217.249C327.002 215.109 327.426 212.991 328.247 211.015C329.067 209.04 330.269 207.245 331.784 205.734C333.298 204.222 335.095 203.024 337.072 202.208C339.05 201.391 341.169 200.972 343.308 200.974C345.33 200.973 347.335 201.348 349.219 202.081C350.395 198.738 352.58 195.842 355.473 193.794C358.365 191.746 361.822 190.647 365.366 190.648C367.611 190.646 369.833 191.086 371.908 191.943C373.982 192.799 375.867 194.056 377.456 195.642C379.044 197.227 380.305 199.11 381.166 201.183C382.027 203.255 382.471 205.477 382.474 207.721C382.472 208.459 382.423 209.195 382.327 209.927C383.21 209.72 384.114 209.615 385.021 209.612C386.592 209.61 388.149 209.918 389.601 210.518C391.054 211.118 392.374 211.999 393.487 213.109C394.599 214.219 395.482 215.537 396.085 216.989C396.688 218.44 396.999 219.996 397.001 221.568C397 223.762 396.396 225.914 395.253 227.788C394.111 229.661 392.474 231.184 390.524 232.19" stroke="white" stroke-width="4" stroke-linecap="round" stroke-linejoin="round"/>
<path d="M350.704 236.171L344.938 230.417L350.704 224.663" stroke="white" stroke-width="4" stroke-linecap="round" stroke-linejoin="round"/>
<path d="M373.296 224.663L379.062 230.417L373.296 236.171" stroke="white" stroke-width="4" stroke-linecap="round" stroke-linejoin="round"/>
<path d="M365.014 221.622L358.986 239.343" stroke="white" stroke-width="4" stroke-linecap="round" stroke-linejoin="round"/>
<path d="M560 285C595.899 285 625 255.899 625 220C625 184.101 595.899 155 560 155C524.101 155 495 184.101 495 220C495 255.899 524.101 285 560 285Z" fill="#FF99D1"/>
<path d="M570.76 240.265V237.512C570.761 235.453 570.245 233.426 569.258 231.619C568.272 229.812 566.847 228.282 565.114 227.17L548.881 216.146C547.136 214.952 545.71 213.35 544.726 211.479C543.742 209.608 543.23 207.524 543.235 205.41V197.635" stroke="white" stroke-width="4" stroke-linecap="round" stroke-linejoin="round"/>
<path d="M543.235 197.203C546.551 197.203 549.239 194.471 549.239 191.101C549.239 187.732 546.551 185 543.235 185C539.919 185 537.231 187.732 537.231 191.101C537.231 194.471 539.919 197.203 543.235 197.203Z" stroke="white" stroke-width="4" stroke-linecap="round" stroke-linejoin="round"/>
<path d="M570.76 197.203V242.798" stroke="white" stroke-width="4" stroke-linecap="round" stroke-linejoin="round"/>
<path d="M570.76 197.203C574.076 197.203 576.764 194.471 576.764 191.101C576.764 187.732 574.076 185 570.76 185C567.444 185 564.756 187.732 564.756 191.101C564.756 194.471 567.444 197.203 570.76 197.203Z" stroke="white" stroke-width="4" stroke-linecap="round" stroke-linejoin="round"/>
<path d="M570.76 255C574.076 255 576.764 252.269 576.764 248.899C576.764 245.529 574.076 242.798 570.76 242.798C567.444 242.798 564.756 245.529 564.756 248.899C564.756 252.269 567.444 255 570.76 255Z" stroke="white" stroke-width="4" stroke-linecap="round" stroke-linejoin="round"/>
<path d="M461 440C496.899 440 526 410.899 526 375C526 339.101 496.899 310 461 310C425.101 310 396 339.101 396 375C396 410.899 425.101 440 461 440Z" fill="#6E49CB"/>
<path d="M469.765 405.697C477.039 401.262 484.005 394.967 486.58 389.586C491.697 378.892 489.218 370.973 489.862 350.751C484.541 351.425 479.136 350.798 474.109 348.926C469.083 347.053 464.585 343.991 461.001 340C455.742 345.866 448.565 349.665 440.758 350.716" stroke="white" stroke-width="4" stroke-linecap="round" stroke-linejoin="round"/>
<path d="M432.14 350.751C432.783 370.928 430.3 378.882 435.422 389.585C439.046 397.159 451.363 406.54 461.001 410" stroke="white" stroke-width="4" stroke-linecap="round" stroke-linejoin="round"/>
<path d="M450.318 375.743L456.972 382.433L471.76 367.567" stroke="white" stroke-width="4" stroke-linecap="round" stroke-linejoin="round"/>
<path d="M263 440C298.899 440 328 410.899 328 375C328 339.101 298.899 310 263 310C227.101 310 198 339.101 198 375C198 410.899 227.101 440 263 440Z" fill="#FFAE2C"/>
<path d="M283.708 373.219H277.649" stroke="white" stroke-width="4" stroke-linecap="round" stroke-linejoin="round"/>
<path d="M242.292 373.219H248.351" stroke="white" stroke-width="4" stroke-linecap="round" stroke-linejoin="round"/>
<path d="M263 352.511V358.569" stroke="white" stroke-width="4" stroke-linecap="round" stroke-linejoin="round"/>
<path d="M246.671 359.055L250.955 363.339" stroke="white" stroke-width="4" stroke-linecap="round" stroke-linejoin="round"/>
<path d="M279.329 359.055L275.045 363.339" stroke="white" stroke-width="4" stroke-linecap="round" stroke-linejoin="round"/>
<path d="M247.133 387.013L251.417 382.729" stroke="white" stroke-width="4" stroke-linecap="round" stroke-linejoin="round"/>
<path d="M263 340C272.283 340 281.185 343.687 287.749 350.251C294.313 356.815 298 365.717 298 375C298 382.598 295.527 389.99 290.957 396.06C286.386 402.13 279.965 406.549 272.663 408.649" stroke="white" stroke-width="4" stroke-linecap="round" stroke-linejoin="round"/>
<path d="M263 410C253.717 410 244.815 406.312 238.251 399.748C231.688 393.185 228 384.282 228 375C228 367.534 230.387 360.264 234.811 354.251C239.235 348.238 245.465 343.796 252.592 341.573" stroke="white" stroke-width="4" stroke-linecap="round" stroke-linejoin="round"/>
<path d="M263 375.234L282.322 386.6" stroke="white" stroke-width="4" stroke-linecap="round" stroke-linejoin="round"/>
<path d="M65 440C100.899 440 130 410.899 130 375C130 339.101 100.899 310 65 310C29.1015 310 0 339.101 0 375C0 410.899 29.1015 440 65 440Z" fill="#08C486"/>
<path d="M61.109 352.687L64.4291 344.34C65.1036 342.644 66.424 341.286 68.1 340.564C69.7759 339.841 71.6701 339.815 73.3658 340.489L82.8271 344.252C83.6668 344.585 84.4325 345.081 85.0804 345.711C85.7284 346.341 86.246 347.092 86.6036 347.922C86.9612 348.752 87.1519 349.644 87.1647 350.547C87.1775 351.451 87.0121 352.348 86.6781 353.188L71.3346 391.767" stroke="white" stroke-width="4" stroke-linecap="round" stroke-linejoin="round"/>
<path d="M68.128 399.827L51.198 410L45.879 390.979L58.231 359.924" stroke="white" stroke-width="4" stroke-linecap="round" stroke-linejoin="round"/>
<path d="M68.1282 399.827L45.8792 390.979" stroke="white" stroke-width="4" stroke-linecap="round" stroke-linejoin="round"/>
<path d="M55.0074 407.04L50.0242 405.059" stroke="white" stroke-width="4" stroke-linecap="round" stroke-linejoin="round"/>
<path d="M83.3581 361.534L61.109 352.687" stroke="white" stroke-width="4" stroke-linecap="round" stroke-linejoin="round"/>
<path d="M72.2311 357.11L57.0012 395.403" stroke="white" stroke-width="4" stroke-linecap="round" stroke-linejoin="round"/>
<path d="M91.519 366.519L100 375L91.519 383.481" stroke="white" stroke-width="4" stroke-linecap="round" stroke-linejoin="round"/>
<path d="M38.481 383.481L30 375L38.481 366.519" stroke="white" stroke-width="4" stroke-linecap="round" stroke-linejoin="round"/>
<path d="M659 440C694.899 440 724 410.899 724 375C724 339.101 694.899 310 659 310C623.101 310 594 339.101 594 375C594 410.899 623.101 440 659 440Z" fill="#FF675F"/>
<path d="M652.135 361.488L656.198 365.541L665.865 355.898" stroke="white" stroke-width="4" stroke-linecap="round" stroke-linejoin="round"/>
<path d="M652.897 394.103L665.102 381.929" stroke="white" stroke-width="4" stroke-linecap="round" stroke-linejoin="round"/>
<path d="M652.897 381.929L665.102 394.103" stroke="white" stroke-width="4" stroke-linecap="round" stroke-linejoin="round"/>
<path d="M684.109 346.087C684.107 344.471 683.463 342.921 682.318 341.78C681.174 340.638 679.623 339.998 678.006 340H639.994C638.377 339.998 636.826 340.638 635.682 341.78C634.538 342.921 633.893 344.471 633.891 346.087V403.913C633.892 404.713 634.051 405.506 634.358 406.245C634.666 406.984 635.115 407.655 635.682 408.22C636.249 408.785 636.921 409.234 637.661 409.539C638.401 409.844 639.194 410.001 639.994 410H678.006C678.807 410.001 679.599 409.844 680.339 409.539C681.079 409.234 681.752 408.785 682.318 408.22C682.885 407.655 683.335 406.984 683.642 406.245C683.949 405.506 684.108 404.713 684.109 403.913V346.087Z" stroke="white" stroke-width="4" stroke-linecap="round" stroke-linejoin="round"/>
<path d="M164 595C199.899 595 229 565.899 229 530C229 494.101 199.899 465 164 465C128.101 465 99 494.101 99 530C99 565.899 128.101 595 164 595Z" fill="#18A3FF"/>
<path d="M164 537.535H195.196C195.695 537.535 196.19 537.634 196.652 537.825C197.113 538.016 197.533 538.296 197.886 538.65C198.239 539.003 198.519 539.422 198.71 539.884C198.902 540.345 199 540.84 199 541.34V555.191C199 555.69 198.902 556.185 198.71 556.647C198.519 557.108 198.239 557.528 197.886 557.881C197.533 558.234 197.113 558.515 196.652 558.706C196.19 558.897 195.695 558.995 195.196 558.995H132.804C132.305 558.995 131.81 558.897 131.348 558.706C130.887 558.515 130.467 558.234 130.114 557.881C129.761 557.528 129.481 557.108 129.29 556.647C129.098 556.185 129 555.69 129 555.191V541.34C129 540.84 129.098 540.345 129.29 539.884C129.481 539.422 129.761 539.003 130.114 538.65C130.467 538.296 130.887 538.016 131.348 537.825C131.81 537.634 132.305 537.535 132.804 537.535H152.247" stroke="white" stroke-width="4" stroke-linecap="round" stroke-linejoin="round"/>
<path d="M169.603 548.265H187.575" stroke="white" stroke-width="4" stroke-linecap="round" stroke-linejoin="round"/>
<path d="M139.603 547.662V548.869" stroke="white" stroke-width="4" stroke-linecap="round" stroke-linejoin="round"/>
<path d="M148.741 547.662V548.869" stroke="white" stroke-width="4" stroke-linecap="round" stroke-linejoin="round"/>
<path d="M164 537.535V519.082H149.198C146.724 519.079 144.353 518.095 142.603 516.345C140.854 514.596 139.87 512.224 139.867 509.75C139.87 507.276 140.854 504.904 142.603 503.155C144.353 501.406 146.724 500.422 149.198 500.419C149.614 500.419 150.029 500.447 150.44 500.502C150.653 497.383 152.041 494.46 154.324 492.325C156.607 490.189 159.616 488.999 162.742 488.995C165.392 488.998 167.97 489.854 170.096 491.435C172.223 493.016 173.784 495.239 174.55 497.776C175.449 497.539 176.374 497.42 177.304 497.421C180.175 497.424 182.928 498.566 184.958 500.596C186.989 502.627 188.131 505.38 188.134 508.251C188.131 511.123 186.989 513.875 184.958 515.906C182.928 517.936 180.175 519.078 177.304 519.082" stroke="white" stroke-width="4" stroke-linecap="round" stroke-linejoin="round"/>
<path d="M362 595C397.899 595 427 565.899 427 530C427 494.101 397.899 465 362 465C326.101 465 297 494.101 297 530C297 565.899 326.101 595 362 595Z" fill="#F968B3"/>
<path d="M327 515.015H397" stroke="white" stroke-width="4" stroke-linecap="round" stroke-linejoin="round"/>
<path d="M390.913 495H333.087C329.725 495 327 497.725 327 501.087V558.913C327 562.275 329.725 565 333.087 565H390.913C394.275 565 397 562.275 397 558.913V501.087C397 497.725 394.275 495 390.913 495Z" stroke="white" stroke-width="4" stroke-linecap="round" stroke-linejoin="round"/>
<path d="M370.719 547.566L369.437 538.012L378.991 539.295" stroke="white" stroke-width="4" stroke-linecap="round" stroke-linejoin="round"/>
<path d="M369.437 538.012L379.968 548.543" stroke="white" stroke-width="4" stroke-linecap="round" stroke-linejoin="round"/>
<path d="M366.273 505.007L385.602 505.007" stroke="white" stroke-width="4" stroke-linecap="round" stroke-linejoin="round"/>
<path d="M560 595C595.899 595 625 565.899 625 530C625 494.101 595.899 465 560 465C524.101 465 495 494.101 495 530C495 565.899 524.101 595 560 595Z" fill="#FC6D26"/>
<path d="M525 530C524.994 525.403 525.897 520.85 527.656 516.603C529.415 512.355 531.996 508.498 535.251 505.251C541.815 498.687 550.717 495 560 495C569.283 495 578.185 498.687 584.749 505.251C585.976 506.478 587.111 507.793 588.145 509.187" stroke="white" stroke-width="4" stroke-linecap="round" stroke-linejoin="round"/>
<path d="M595 530C595.006 534.597 594.103 539.15 592.344 543.397C590.585 547.645 588.004 551.502 584.749 554.749C578.185 561.313 569.283 565 560 565C550.717 565 541.815 561.313 535.251 554.749C534.001 553.5 532.847 552.158 531.798 550.736" stroke="white" stroke-width="4" stroke-linecap="round" stroke-linejoin="round"/>
<path d="M560 548.774C570.369 548.774 578.774 540.369 578.774 530C578.774 519.632 570.369 511.227 560 511.227C549.632 511.227 541.226 519.632 541.226 530C541.226 540.369 549.632 548.774 560 548.774Z" stroke="white" stroke-width="4" stroke-linecap="round" stroke-linejoin="round"/>
<path d="M552.832 530.82L557.074 535.062L567.168 524.967" stroke="white" stroke-width="4" stroke-linecap="round" stroke-linejoin="round"/>
<path d="M588.145 499.865V509.189H578.821" stroke="white" stroke-width="4" stroke-linecap="round" stroke-linejoin="round"/>
<path d="M531.798 560.041V550.716H541.123" stroke="white" stroke-width="4" stroke-linecap="round" stroke-linejoin="round"/>
</svg>
