<?xml version="1.0" encoding="UTF-8"?>
<svg width="1205px" height="1172px" viewBox="0 0 1205 1172" version="1.1" xmlns="http://www.w3.org/2000/svg" xmlns:xlink="http://www.w3.org/1999/xlink">
    <title>Group 28</title>
    <g id="Page-1" stroke="none" stroke-width="1" fill="none" fill-rule="evenodd" stroke-linecap="round" stroke-linejoin="round">
        <g id="DevSecOps-UI" transform="translate(-305.000000, -15832.000000)" stroke="#2E0864" stroke-width="5">
            <g id="Group-28" transform="translate(307.000000, 15834.000000)">
                <path d="M663.0024,590.5269 L662.9914,591.7919 L662.9584,593.0559 L662.9034,594.3199 L662.8264,595.5829 L662.7274,596.8439 L662.6064,598.1029 L662.4624,599.3599 L662.2974,600.6139 L662.1104,601.8649 L661.9014,603.1119 L661.6714,604.3569 L661.4194,605.5959 L661.1454,606.8309 L660.8504,608.0609 L660.5324,609.2859 L660.1944,610.5049 L659.8354,611.7169 L659.4554,612.9239 L659.0544,614.1239 L658.6324,615.3159 L658.1894,616.5009 L657.7254,617.6779 L657.2404,618.8459 L656.7364,620.0059 L656.2124,621.1569 L655.6674,622.2989 L655.1034,623.4309 L654.5194,624.5529 L653.9154,625.6649 L653.2924,626.7659 L652.6504,627.8559 L651.9894,628.9339 L651.3104,630.0009 L650.6114,631.0559 L649.8954,632.0989 L649.1604,633.1289 L648.4084,634.1449 L647.6384,635.1489 L646.8514,636.1389 L646.0464,637.1149 L645.2254,638.0769 L644.3864,639.0239 L643.5314,639.9569 L642.6614,640.8739 L641.7744,641.7769 L640.8724,642.6629 L639.9544,643.5339 L639.0224,644.3879 L638.0744,645.2269 L637.1124,646.0479 L636.1374,646.8529 L635.1474,647.6399 L634.1434,648.4099 L633.1264,649.1629 L632.0964,649.8969 L631.0544,650.6139 L629.9994,651.3119 L628.9324,651.9919 L627.8544,652.6519 L626.7644,653.2949 L625.6624,653.9179 L624.5514,654.5209 L623.4294,655.1049 L622.2974,655.6699 L621.1554,656.2139 L620.0044,656.7389 L618.8444,657.2429 L617.6754,657.7269 L616.4984,658.1909 L615.3144,658.6339 L614.1214,659.0559 L612.9224,659.4579 L611.7154,659.8379 L610.5024,660.1969 L609.2834,660.5349 L608.0594,660.8519 L606.8284,661.1469 L605.5944,661.4209 L604.3554,661.6729 L603.1104,661.9029 L601.8624,662.1119 L600.6114,662.2989 L599.3574,662.4649 L598.1014,662.6079 L596.8424,662.7289 L595.5804,662.8279 L594.3174,662.9049 L593.0544,662.9609 L591.7904,662.9939 L590.5244,663.0049 L589.2604,662.9939 L587.9954,662.9609 L586.7314,662.9049 L585.4694,662.8279 L584.2084,662.7289 L582.9484,662.6079 L581.6914,662.4649 L580.4384,662.2989 L579.1874,662.1119 L577.9394,661.9029 L576.6954,661.6729 L575.4564,661.4209 L574.2214,661.1469 L572.9914,660.8519 L571.7664,660.5349 L570.5474,660.1969 L569.3344,659.8379 L568.1284,659.4569 L566.9294,659.0559 L565.7364,658.6339 L564.5514,658.1909 L563.3744,657.7269 L562.2054,657.2429 L561.0454,656.7389 L559.8954,656.2139 L558.7534,655.6699 L557.6204,655.1049 L556.4984,654.5209 L555.3874,653.9179 L554.2864,653.2949 L553.1964,652.6519 L552.1174,651.9919 L551.0514,651.3119 L549.9964,650.6139 L548.9534,649.8969 L547.9244,649.1629 L546.9064,648.4099 L545.9034,647.6399 L544.9134,646.8529 L543.9374,646.0479 L542.9754,645.2269 L542.0274,644.3879 L541.0954,643.5339 L540.1784,642.6629 L539.2754,641.7769 L538.3894,640.8739 L537.5184,639.9569 L536.6634,639.0239 L535.8254,638.0769 L535.0044,637.1149 L534.1994,636.1389 L533.4114,635.1489 L532.6424,634.1449 L531.8894,633.1289 L531.1544,632.0989 L530.4384,631.0559 L529.7404,630.0009 L529.0614,628.9339 L528.3994,627.8559 L527.7574,626.7659 L527.1354,625.6649 L526.5304,624.5529 L525.9464,623.4309 L525.3824,622.2989 L524.8384,621.1569 L524.3144,620.0059 L523.8094,618.8459 L523.3244,617.6779 L522.8614,616.5009 L522.4184,615.3159 L521.9964,614.1239 L521.5954,612.9239 L521.2144,611.7169 L520.8554,610.5049 L520.5174,609.2859 L520.2004,608.0609 L519.9044,606.8309 L519.6314,605.5959 L519.3794,604.3569 L519.1484,603.1119 L518.9404,601.8649 L518.7524,600.6139 L518.5874,599.3599 L518.4444,598.1029 L518.3234,596.8439 L518.2244,595.5829 L518.1474,594.3199 L518.0914,593.0559 L518.0584,591.7919 L518.0474,590.5269 L518.0584,589.2619 L518.0914,587.9979 L518.1474,586.7339 L518.2244,585.4709 L518.3234,584.2099 L518.4444,582.9509 L518.5874,581.6939 L518.7524,580.4399 L518.9404,579.1889 L519.1484,577.9419 L519.3794,576.6979 L519.6314,575.4579 L519.9044,574.2229 L520.2004,572.9929 L520.5174,571.7689 L520.8554,570.5489 L521.2144,569.3369 L521.5954,568.1299 L521.9964,566.9309 L522.4184,565.7379 L522.8614,564.5529 L523.3244,563.3769 L523.8094,562.2079 L524.3144,561.0479 L524.8384,559.8969 L525.3824,558.7549 L525.9464,557.6229 L526.5304,556.5009 L527.1354,555.3889 L527.7574,554.2879 L528.3994,553.1979 L529.0614,552.1199 L529.7404,551.0529 L530.4384,549.9979 L531.1544,548.9559 L531.8894,547.9259 L532.6424,546.9089 L533.4114,545.9049 L534.1994,544.9149 L535.0044,543.9389 L535.8254,542.9779 L536.6634,542.0299 L537.5184,541.0969 L538.3894,540.1799 L539.2754,539.2769 L540.1784,538.3909 L541.0954,537.5199 L542.0274,536.6659 L542.9754,535.8269 L543.9374,535.0059 L544.9134,534.2009 L545.9034,533.4139 L546.9064,532.6439 L547.9244,531.8909 L548.9534,531.1569 L549.9964,530.4409 L551.0514,529.7419 L552.1174,529.0629 L553.1964,528.4019 L554.2864,527.7589 L555.3874,527.1369 L556.4984,526.5329 L557.6204,525.9489 L558.7534,525.3839 L559.8954,524.8399 L561.0454,524.3159 L562.2054,523.8109 L563.3744,523.3269 L564.5514,522.8629 L565.7364,522.4209 L566.9294,521.9979 L568.1284,521.5969 L569.3344,521.2159 L570.5474,520.8569 L571.7664,520.5189 L572.9914,520.2019 L574.2214,519.9069 L575.4564,519.6329 L576.6954,519.3809 L577.9394,519.1509 L579.1874,518.9419 L580.4384,518.7549 L581.6914,518.5889 L582.9484,518.4459 L584.2084,518.3249 L585.4694,518.2259 L586.7314,518.1489 L587.9954,518.0929 L589.2604,518.0609 L590.5244,518.0489 L591.7904,518.0609 L593.0544,518.0929 L594.3174,518.1489 L595.5804,518.2259 L596.8424,518.3249 L598.1014,518.4459 L599.3574,518.5889 L600.6114,518.7549 L601.8624,518.9419 L603.1104,519.1509 L604.3554,519.3809 L605.5944,519.6329 L606.8284,519.9069 L608.0594,520.2019 L609.2834,520.5189 L610.5024,520.8569 L611.7154,521.2159 L612.9224,521.5969 L614.1214,521.9979 L615.3144,522.4209 L616.4984,522.8629 L617.6754,523.3269 L618.8444,523.8109 L620.0044,524.3159 L621.1554,524.8399 L622.2974,525.3839 L623.4294,525.9489 L624.5514,526.5329 L625.6624,527.1369 L626.7644,527.7589 L627.8544,528.4019 L628.9324,529.0629 L629.9994,529.7419 L631.0544,530.4409 L632.0964,531.1569 L633.1264,531.8909 L634.1434,532.6439 L635.1474,533.4139 L636.1374,534.2009 L637.1124,535.0059 L638.0744,535.8269 L639.0224,536.6659 L639.9544,537.5199 L640.8724,538.3909 L641.7744,539.2769 L642.6614,540.1799 L643.5314,541.0969 L644.3864,542.0299 L645.2254,542.9779 L646.0464,543.9389 L646.8514,544.9149 L647.6384,545.9049 L648.4084,546.9089 L649.1604,547.9259 L649.8954,548.9559 L650.6114,549.9979 L651.3104,551.0529 L651.9894,552.1199 L652.6504,553.1979 L653.2924,554.2879 L653.9154,555.3889 L654.5194,556.5009 L655.1034,557.6229 L655.6674,558.7549 L656.2124,559.8969 L656.7364,561.0479 L657.2404,562.2079 L657.7254,563.3769 L658.1894,564.5529 L658.6324,565.7379 L659.0544,566.9309 L659.4554,568.1299 L659.8354,569.3369 L660.1944,570.5489 L660.5324,571.7689 L660.8504,572.9929 L661.1454,574.2229 L661.4194,575.4579 L661.6714,576.6979 L661.9014,577.9419 L662.1104,579.1889 L662.2974,580.4399 L662.4624,581.6939 L662.6064,582.9509 L662.7274,584.2099 L662.8264,585.4709 L662.9034,586.7339 L662.9584,587.9979 L662.9914,589.2619 L663.0024,590.5269 Z" id="Stroke-1" stroke-dasharray="37.31,37.31,16.582,37.31,82.911,82.911"></path>
                <path d="M707.6059,590.5269 L707.5879,592.5699 L707.5349,594.6129 L707.4449,596.6539 L707.3209,598.6939 L707.1609,600.7309 L706.9639,602.7649 L706.7329,604.7959 L706.4659,606.8209 L706.1649,608.8419 L705.8269,610.8579 L705.4549,612.8669 L705.0469,614.8689 L704.6049,616.8639 L704.1269,618.8509 L703.6159,620.8299 L703.0699,622.7989 L702.4899,624.7579 L701.8749,626.7069 L701.2269,628.6449 L700.5439,630.5709 L699.8289,632.4849 L699.0799,634.3859 L698.2979,636.2739 L697.4829,638.1479 L696.6349,640.0069 L695.7559,641.8519 L694.8439,643.6799 L693.9009,645.4929 L692.9249,647.2889 L691.9189,649.0669 L690.8819,650.8279 L689.8149,652.5699 L688.7159,654.2929 L687.5879,655.9969 L686.4309,657.6809 L685.2449,659.3449 L684.0299,660.9869 L682.7859,662.6089 L681.5129,664.2079 L680.2129,665.7849 L678.8859,667.3389 L677.5329,668.8689 L676.1519,670.3759 L674.7459,671.8579 L673.3129,673.3149 L671.8559,674.7469 L670.3739,676.1539 L668.8669,677.5339 L667.3359,678.8879 L665.7829,680.2149 L664.2069,681.5149 L662.6069,682.7879 L660.9859,684.0309 L659.3429,685.2469 L657.6789,686.4339 L655.9959,687.5909 L654.2919,688.7189 L652.5679,689.8169 L650.8259,690.8839 L649.0649,691.9219 L647.2869,692.9279 L645.4909,693.9029 L643.6779,694.8459 L641.8499,695.7579 L640.0049,696.6379 L638.1459,697.4849 L636.2719,698.2999 L634.3839,699.0819 L632.4829,699.8309 L630.5689,700.5469 L628.6429,701.2289 L626.7049,701.8769 L624.7559,702.4919 L622.7969,703.0719 L620.8279,703.6179 L618.8489,704.1299 L616.8629,704.6069 L614.8679,705.0489 L612.8649,705.4559 L610.8559,705.8289 L608.8399,706.1659 L606.8199,706.4679 L604.7929,706.7349 L602.7629,706.9659 L600.7289,707.1619 L598.6919,707.3219 L596.6529,707.4469 L594.6109,707.5359 L592.5689,707.5889 L590.5249,707.6069 L588.4819,707.5889 L586.4389,707.5359 L584.3979,707.4459 L582.3579,707.3219 L580.3209,707.1609 L578.2869,706.9649 L576.2559,706.7339 L574.2309,706.4669 L572.2099,706.1649 L570.1949,705.8279 L568.1849,705.4559 L566.1829,705.0479 L564.1879,704.6059 L562.2009,704.1289 L560.2229,703.6169 L558.2529,703.0709 L556.2939,702.4909 L554.3449,701.8769 L552.4079,701.2279 L550.4819,700.5459 L548.5679,699.8309 L546.6669,699.0819 L544.7789,698.2989 L542.9049,697.4849 L541.0449,696.6369 L539.2009,695.7579 L537.3719,694.8459 L535.5589,693.9019 L533.7629,692.9269 L531.9849,691.9219 L530.2239,690.8839 L528.4819,689.8169 L526.7589,688.7189 L525.0549,687.5909 L523.3709,686.4329 L521.7079,685.2469 L520.0649,684.0309 L518.4439,682.7869 L516.8439,681.5149 L515.2669,680.2149 L513.7129,678.8879 L512.1829,677.5339 L510.6769,676.1539 L509.1949,674.7469 L507.7369,673.3149 L506.3049,671.8579 L504.8979,670.3759 L503.5179,668.8689 L502.1639,667.3389 L500.8359,665.7849 L499.5369,664.2079 L498.2649,662.6089 L497.0209,660.9869 L495.8049,659.3449 L494.6189,657.6809 L493.4609,655.9969 L492.3339,654.2929 L491.2359,652.5699 L490.1689,650.8279 L489.1309,649.0669 L488.1249,647.2879 L487.1499,645.4929 L486.2069,643.6799 L485.2949,641.8509 L484.4149,640.0069 L483.5679,638.1479 L482.7529,636.2739 L481.9709,634.3859 L481.2219,632.4849 L480.5059,630.5699 L479.8249,628.6449 L479.1759,626.7069 L478.5609,624.7579 L477.9809,622.7979 L477.4349,620.8299 L476.9229,618.8509 L476.4469,616.8639 L476.0039,614.8689 L475.5959,612.8669 L475.2239,610.8579 L474.8869,608.8419 L474.5849,606.8209 L474.3179,604.7959 L474.0859,602.7649 L473.8909,600.7309 L473.7309,598.6939 L473.6059,596.6539 L473.5159,594.6129 L473.4629,592.5699 L473.4449,590.5269 L473.4629,588.4839 L473.5159,586.4409 L473.6049,584.3999 L473.7299,582.3599 L473.8899,580.3229 L474.0859,578.2889 L474.3179,576.2579 L474.5849,574.2329 L474.8859,572.2119 L475.2229,570.1959 L475.5959,568.1869 L476.0029,566.1849 L476.4459,564.1899 L476.9219,562.2029 L477.4339,560.2239 L477.9799,558.2559 L478.5599,556.2959 L479.1749,554.3469 L479.8239,552.4089 L480.5049,550.4829 L481.2209,548.5689 L481.9699,546.6679 L482.7529,544.7799 L483.5669,542.9059 L484.4149,541.0469 L485.2949,539.2019 L486.2069,537.3739 L487.1499,535.5609 L488.1249,533.7659 L489.1309,531.9869 L490.1689,530.2269 L491.2359,528.4839 L492.3339,526.7609 L493.4609,525.0569 L494.6189,523.3729 L495.8059,521.7099 L497.0209,520.0669 L498.2649,518.4449 L499.5379,516.8459 L500.8369,515.2699 L502.1649,513.7159 L503.5179,512.1859 L504.8989,510.6789 L506.3049,509.1969 L507.7379,507.7389 L509.1949,506.3069 L510.6769,504.9009 L512.1839,503.5199 L513.7139,502.1659 L515.2679,500.8389 L516.8439,499.5389 L518.4439,498.2669 L520.0649,497.0229 L521.7079,495.8079 L523.3709,494.6209 L525.0549,493.4639 L526.7589,492.3359 L528.4819,491.2379 L530.2239,490.1699 L531.9849,489.1329 L533.7639,488.1269 L535.5589,487.1519 L537.3719,486.2079 L539.2009,485.2959 L541.0449,484.4159 L542.9049,483.5689 L544.7779,482.7539 L546.6669,481.9719 L548.5669,481.2229 L550.4809,480.5069 L552.4079,479.8249 L554.3449,479.1769 L556.2939,478.5619 L558.2529,477.9819 L560.2219,477.4359 L562.2009,476.9239 L564.1879,476.4469 L566.1829,476.0049 L568.1849,475.5979 L570.1949,475.2249 L572.2099,474.8879 L574.2309,474.5859 L576.2559,474.3189 L578.2869,474.0879 L580.3209,473.8919 L582.3579,473.7319 L584.3979,473.6079 L586.4389,473.5179 L588.4819,473.4649 L590.5249,473.4469 L592.5689,473.4649 L594.6109,473.5189 L596.6529,473.6079 L598.6919,473.7329 L600.7289,473.8929 L602.7629,474.0889 L604.7929,474.3199 L606.8199,474.5869 L608.8399,474.8889 L610.8559,475.2259 L612.8649,475.5979 L614.8679,476.0059 L616.8629,476.4479 L618.8489,476.9249 L620.8279,477.4369 L622.7959,477.9829 L624.7559,478.5629 L626.7049,479.1779 L628.6429,479.8259 L630.5689,480.5079 L632.4829,481.2239 L634.3839,481.9719 L636.2719,482.7549 L638.1459,483.5689 L640.0049,484.4169 L641.8499,485.2959 L643.6779,486.2079 L645.4909,487.1519 L647.2869,488.1269 L649.0649,489.1319 L650.8259,490.1699 L652.5679,491.2369 L654.2919,492.3349 L655.9959,493.4629 L657.6789,494.6199 L659.3429,495.8069 L660.9859,497.0229 L662.6069,498.2669 L664.2069,499.5389 L665.7829,500.8389 L667.3359,502.1659 L668.8669,503.5199 L670.3739,504.8999 L671.8559,506.3069 L673.3129,507.7389 L674.7459,509.1959 L676.1519,510.6789 L677.5329,512.1849 L678.8859,513.7149 L680.2129,515.2699 L681.5129,516.8459 L682.7859,518.4449 L684.0299,520.0669 L685.2449,521.7089 L686.4309,523.3729 L687.5879,525.0569 L688.7159,526.7609 L689.8139,528.4839 L690.8819,530.2269 L691.9189,531.9869 L692.9249,533.7659 L693.9009,535.5619 L694.8439,537.3739 L695.7549,539.2029 L696.6349,541.0469 L697.4829,542.9059 L698.2969,544.7799 L699.0799,546.6679 L699.8289,548.5689 L700.5439,550.4839 L701.2259,552.4099 L701.8749,554.3469 L702.4899,556.2959 L703.0699,558.2559 L703.6159,560.2249 L704.1269,562.2029 L704.6049,564.1899 L705.0469,566.1849 L705.4549,568.1869 L705.8269,570.1959 L706.1649,572.2119 L706.4659,574.2329 L706.7329,576.2579 L706.9639,578.2889 L707.1609,580.3229 L707.3209,582.3599 L707.4449,584.3999 L707.5349,586.4409 L707.5879,588.4839 L707.6059,590.5269 Z" id="Stroke-2" stroke-dasharray="62.183,41.455,39.383,24.873,41.455,20.728"></path>
                <path d="M752.2368,590.5269 L752.2128,593.3489 L752.1378,596.1709 L752.0148,598.9899 L751.8418,601.8069 L751.6208,604.6209 L751.3488,607.4299 L751.0288,610.2349 L750.6598,613.0319 L750.2418,615.8239 L749.7758,618.6069 L749.2598,621.3819 L748.6968,624.1479 L748.0858,626.9019 L747.4248,629.6469 L746.7178,632.3789 L745.9638,635.0979 L745.1618,637.8039 L744.3118,640.4949 L743.4158,643.1719 L742.4728,645.8319 L741.4848,648.4749 L740.4498,651.0999 L739.3688,653.7079 L738.2438,656.2959 L737.0728,658.8629 L735.8568,661.4099 L734.5968,663.9359 L733.2948,666.4389 L731.9468,668.9189 L730.5568,671.3749 L729.1248,673.8059 L727.6498,676.2119 L726.1328,678.5919 L724.5758,680.9449 L722.9778,683.2709 L721.3398,685.5689 L719.6608,687.8379 L717.9428,690.0769 L716.1858,692.2849 L714.3908,694.4629 L712.5588,696.6099 L710.6888,698.7229 L708.7828,700.8039 L706.8408,702.8519 L704.8638,704.8649 L702.8508,706.8439 L700.8038,708.7869 L698.7238,710.6939 L696.6108,712.5639 L694.4658,714.3979 L692.2878,716.1929 L690.0798,717.9499 L687.8408,719.6689 L685.5728,721.3479 L683.2748,722.9869 L680.9498,724.5869 L678.5958,726.1449 L676.2158,727.6619 L673.8098,729.1359 L671.3788,730.5689 L668.9228,731.9599 L666.4428,733.3069 L663.9388,734.6099 L661.4138,735.8699 L658.8668,737.0849 L656.2988,738.2559 L653.7108,739.3809 L651.1028,740.4619 L648.4768,741.4959 L645.8338,742.4849 L643.1728,743.4269 L640.4968,744.3219 L637.8038,745.1709 L635.0978,745.9729 L632.3788,746.7269 L629.6458,747.4329 L626.9018,748.0909 L624.1458,748.7009 L621.3808,749.2629 L618.6048,749.7769 L615.8218,750.2419 L613.0298,750.6579 L610.2318,751.0259 L607.4268,751.3439 L604.6188,751.6139 L601.8048,751.8339 L598.9878,752.0059 L596.1688,752.1269 L593.3468,752.1999 L590.5248,752.2239 L587.7038,752.1979 L584.8828,752.1229 L582.0628,751.9999 L579.2458,751.8259 L576.4328,751.6039 L573.6238,751.3329 L570.8198,751.0129 L568.0218,750.6449 L565.2308,750.2269 L562.4478,749.7609 L559.6738,749.2469 L556.9078,748.6849 L554.1528,748.0739 L551.4088,747.4159 L548.6758,746.7089 L545.9568,745.9559 L543.2508,745.1539 L540.5588,744.3059 L537.8828,743.4109 L535.2218,742.4699 L532.5788,741.4819 L529.9528,740.4479 L527.3448,739.3689 L524.7578,738.2439 L522.1888,737.0739 L519.6418,735.8599 L517.1158,734.5999 L514.6128,733.2979 L512.1328,731.9509 L509.6758,730.5619 L507.2448,729.1299 L504.8388,727.6549 L502.4578,726.1389 L500.1038,724.5819 L497.7788,722.9829 L495.4808,721.3439 L493.2128,719.6659 L490.9728,717.9469 L488.7648,716.1909 L486.5878,714.3949 L484.4418,712.5619 L482.3278,710.6919 L480.2478,708.7849 L478.2008,706.8419 L476.1878,704.8639 L474.2108,702.8509 L472.2678,700.8039 L470.3618,698.7229 L468.4918,696.6089 L466.6598,694.4629 L464.8648,692.2849 L463.1088,690.0759 L461.3908,687.8369 L459.7128,685.5679 L458.0748,683.2699 L456.4758,680.9439 L454.9198,678.5909 L453.4028,676.2109 L451.9288,673.8039 L450.4978,671.3719 L449.1078,668.9159 L447.7608,666.4359 L446.4588,663.9329 L445.1998,661.4069 L443.9848,658.8599 L442.8148,656.2919 L441.6898,653.7039 L440.6108,651.0959 L439.5768,648.4709 L438.5888,645.8279 L437.6458,643.1679 L436.7518,640.4909 L435.9028,637.7999 L435.1008,635.0939 L434.3468,632.3749 L433.6398,629.6429 L432.9808,626.8989 L432.3708,624.1439 L431.8068,621.3789 L431.2928,618.6039 L430.8268,615.8209 L430.4088,613.0299 L430.0398,610.2319 L429.7188,607.4279 L429.4478,604.6189 L429.2248,601.8059 L429.0518,598.9889 L428.9268,596.1699 L428.8518,593.3489 L428.8268,590.5269 L428.8498,587.7049 L428.9228,584.8839 L429.0448,582.0639 L429.2158,579.2469 L429.4358,576.4339 L429.7048,573.6239 L430.0228,570.8199 L430.3908,568.0219 L430.8068,565.2299 L431.2718,562.4459 L431.7858,559.6709 L432.3478,556.9049 L432.9588,554.1499 L433.6178,551.4049 L434.3238,548.6729 L435.0788,545.9529 L435.8808,543.2479 L436.7298,540.5559 L437.6268,537.8799 L438.5688,535.2189 L439.5578,532.5759 L440.5938,529.9509 L441.6758,527.3439 L442.8008,524.7559 L443.9728,522.1889 L445.1888,519.6419 L446.4498,517.1169 L447.7548,514.6139 L449.1018,512.1349 L450.4928,509.6789 L451.9258,507.2489 L453.4018,504.8429 L454.9198,502.4639 L456.4768,500.1099 L458.0768,497.7859 L459.7168,495.4879 L461.3948,493.2199 L463.1138,490.9819 L464.8708,488.7739 L466.6658,486.5969 L468.4988,484.4509 L470.3688,482.3379 L472.2748,480.2569 L474.2168,478.2099 L476.1958,476.1969 L478.2088,474.2189 L480.2558,472.2769 L482.3358,470.3699 L484.4488,468.5009 L486.5938,466.6679 L488.7718,464.8719 L490.9798,463.1149 L493.2178,461.3969 L495.4868,459.7179 L497.7838,458.0779 L500.1088,456.4789 L502.4618,454.9209 L504.8418,453.4029 L507.2468,451.9279 L509.6768,450.4949 L512.1328,449.1039 L514.6128,447.7559 L517.1148,446.4519 L519.6398,445.1909 L522.1868,443.9749 L524.7548,442.8029 L527.3418,441.6769 L529.9488,440.5959 L532.5748,439.5599 L535.2168,438.5709 L537.8778,437.6279 L540.5538,436.7319 L543.2458,435.8819 L545.9518,435.0809 L548.6718,434.3259 L551.4038,433.6189 L554.1478,432.9609 L556.9038,432.3499 L559.6698,431.7879 L562.4448,431.2739 L565.2278,430.8089 L568.0198,430.3929 L570.8178,430.0249 L573.6228,429.7069 L576.4318,429.4379 L579.2458,429.2169 L582.0618,429.0459 L584.8828,428.9239 L587.7028,428.8519 L590.5248,428.8279 L593.3468,428.8539 L596.1688,428.9289 L598.9878,429.0539 L601.8038,429.2269 L604.6178,429.4489 L607.4258,429.7209 L610.2298,430.0409 L613.0278,430.4099 L615.8188,430.8279 L618.6018,431.2939 L621.3768,431.8089 L624.1418,432.3719 L626.8968,432.9829 L629.6408,433.6409 L632.3738,434.3469 L635.0928,435.1009 L637.7988,435.9019 L640.4908,436.7499 L643.1668,437.6449 L645.8278,438.5859 L648.4708,439.5729 L651.0968,440.6059 L653.7048,441.6849 L656.2938,442.8099 L658.8618,443.9789 L661.4098,445.1929 L663.9348,446.4509 L666.4388,447.7539 L668.9198,449.0989 L671.3768,450.4879 L673.8088,451.9199 L676.2158,453.3939 L678.5958,454.9099 L680.9498,456.4679 L683.2748,458.0659 L685.5728,459.7049 L687.8408,461.3839 L690.0808,463.1019 L692.2888,464.8589 L694.4658,466.6549 L696.6118,468.4879 L698.7248,470.3589 L700.8058,472.2659 L702.8518,474.2089 L704.8648,476.1879 L706.8418,478.2009 L708.7848,480.2489 L710.6898,482.3299 L712.5598,484.4439 L714.3918,486.5899 L716.1868,488.7689 L717.9428,490.9779 L719.6608,493.2169 L721.3388,495.4859 L722.9768,497.7829 L724.5748,500.1099 L726.1318,502.4629 L727.6478,504.8429 L729.1218,507.2499 L730.5538,509.6809 L731.9438,512.1369 L733.2908,514.6179 L734.5928,517.1209 L735.8528,519.6459 L737.0678,522.1929 L738.2388,524.7609 L739.3638,527.3489 L740.4448,529.9559 L741.4798,532.5809 L742.4678,535.2239 L743.4118,537.8839 L744.3078,540.5599 L745.1578,543.2509 L745.9608,545.9569 L746.7158,548.6759 L747.4238,551.4079 L748.0838,554.1519 L748.6958,556.9069 L749.2588,559.6719 L749.7748,562.4469 L750.2418,565.2309 L750.6598,568.0219 L751.0288,570.8189 L751.3488,573.6239 L751.6208,576.4329 L751.8418,579.2469 L752.0148,582.0639 L752.1378,584.8829 L752.2128,587.7049 L752.2368,590.5269 Z" id="Stroke-3" stroke-dasharray="93.27500000000001,51.819,24.873,24.873,41.455,41.455"></path>
                <path d="M797.1049,590.5269 L797.0729,594.1319 L796.9759,597.7359 L796.8159,601.3389 L796.5909,604.9369 L796.3039,608.5299 L795.9529,612.1179 L795.5389,615.6989 L795.0609,619.2729 L794.5209,622.8369 L793.9189,626.3909 L793.2549,629.9339 L792.5289,633.4649 L791.7419,636.9819 L790.8929,640.4849 L789.9849,643.9719 L789.0149,647.4429 L787.9849,650.8969 L786.8949,654.3319 L785.7469,657.7469 L784.5379,661.1419 L783.2709,664.5149 L781.9449,667.8659 L780.5609,671.1929 L779.1199,674.4949 L777.6209,677.7709 L776.0659,681.0209 L774.4549,684.2439 L772.7879,687.4379 L771.0659,690.6019 L769.2889,693.7359 L767.4589,696.8399 L765.5749,699.9099 L763.6379,702.9479 L761.6499,705.9519 L759.6099,708.9219 L757.5189,711.8549 L755.3769,714.7519 L753.1859,717.6119 L750.9459,720.4329 L748.6579,723.2149 L746.3209,725.9579 L743.9369,728.6589 L741.5059,731.3189 L739.0299,733.9359 L736.5079,736.5099 L733.9419,739.0399 L731.3329,741.5239 L728.6789,743.9629 L725.9839,746.3549 L723.2479,748.6989 L720.4699,750.9959 L717.6539,753.2439 L714.7969,755.4419 L711.9039,757.5899 L708.9729,759.6879 L706.0049,761.7339 L703.0019,763.7269 L699.9649,765.6679 L696.8949,767.5549 L693.7919,769.3889 L690.6559,771.1679 L687.4899,772.8909 L684.2939,774.5589 L681.0699,776.1709 L677.8179,777.7259 L674.5389,779.2239 L671.2329,780.6639 L667.9039,782.0449 L664.5499,783.3679 L661.1729,784.6309 L657.7749,785.8359 L654.3559,786.9789 L650.9179,788.0629 L647.4599,789.0849 L643.9859,790.0459 L640.4949,790.9449 L636.9889,791.7819 L633.4679,792.5569 L629.9339,793.2689 L626.3879,793.9189 L622.8329,794.5059 L619.2659,795.0299 L615.6919,795.4909 L612.1099,795.8899 L608.5209,796.2249 L604.9279,796.4979 L601.3309,796.7069 L597.7299,796.8539 L594.1279,796.9389 L590.5249,796.9609 L586.9219,796.9199 L583.3219,796.8169 L579.7219,796.6519 L576.1269,796.4249 L572.5369,796.1359 L568.9519,795.7849 L565.3739,795.3729 L561.8019,794.8999 L558.2409,794.3649 L554.6879,793.7699 L551.1459,793.1129 L547.6169,792.3959 L544.0999,791.6179 L540.5959,790.7799 L537.1079,789.8809 L533.6359,788.9229 L530.1809,787.9029 L526.7439,786.8249 L523.3269,785.6869 L519.9289,784.4889 L516.5529,783.2319 L513.1989,781.9159 L509.8689,780.5419 L506.5629,779.1089 L503.2829,777.6179 L500.0299,776.0699 L496.8029,774.4659 L493.6059,772.8049 L490.4389,771.0879 L487.3009,769.3159 L484.1959,767.4889 L481.1229,765.6079 L478.0839,763.6729 L475.0779,761.6849 L472.1079,759.6439 L469.1739,757.5519 L466.2779,755.4089 L463.4189,753.2139 L460.6009,750.9699 L457.8209,748.6769 L455.0829,746.3359 L452.3849,743.9459 L449.7309,741.5099 L447.1199,739.0279 L444.5519,736.4999 L442.0299,733.9279 L439.5519,731.3119 L437.1209,728.6529 L434.7369,725.9519 L432.4009,723.2099 L430.1119,720.4269 L427.8739,717.6049 L425.6839,714.7439 L423.5439,711.8449 L421.4569,708.9099 L419.4189,705.9389 L417.4349,702.9329 L415.5029,699.8929 L413.6249,696.8189 L411.7999,693.7139 L410.0299,690.5779 L408.3139,687.4109 L406.6539,684.2149 L405.0489,680.9899 L403.5009,677.7379 L402.0089,674.4599 L400.5759,671.1559 L399.1989,667.8279 L397.8799,664.4759 L396.6209,661.1029 L395.4189,657.7069 L394.2779,654.2919 L393.1949,650.8569 L392.1709,647.4039 L391.2089,643.9339 L390.3059,640.4469 L389.4629,636.9459 L388.6809,633.4299 L387.9599,629.9019 L387.2989,626.3609 L386.6999,622.8099 L386.1619,619.2489 L385.6839,615.6779 L385.2689,612.0999 L384.9149,608.5159 L384.6229,604.9249 L384.3909,601.3299 L384.2229,597.7309 L384.1169,594.1299 L384.0739,590.5269 L384.0919,586.9239 L384.1739,583.3209 L384.3199,579.7199 L384.5279,576.1219 L384.7989,572.5279 L385.1329,568.9399 L385.5309,565.3569 L385.9929,561.7819 L386.5169,558.2149 L387.1049,554.6579 L387.7559,551.1129 L388.4699,547.5789 L389.2479,544.0589 L390.0879,540.5519 L390.9919,537.0619 L391.9579,533.5889 L392.9849,530.1329 L394.0749,526.6959 L395.2249,523.2799 L396.4369,519.8839 L397.7089,516.5109 L399.0399,513.1619 L400.4289,509.8369 L401.8779,506.5359 L403.3849,503.2619 L404.9489,500.0149 L406.5679,496.7969 L408.2439,493.6069 L409.9749,490.4459 L411.7599,487.3169 L413.5989,484.2189 L415.4909,481.1529 L417.4349,478.1209 L419.4309,475.1229 L421.4779,472.1589 L423.5759,469.2309 L425.7229,466.3399 L427.9189,463.4859 L430.1649,460.6699 L432.4589,457.8929 L434.7989,455.1559 L437.1869,452.4609 L439.6209,449.8059 L442.0999,447.1939 L444.6249,444.6259 L447.1929,442.1019 L449.8039,439.6219 L452.4589,437.1879 L455.1539,434.7999 L457.8909,432.4599 L460.6679,430.1659 L463.4839,427.9209 L466.3369,425.7239 L469.2289,423.5769 L472.1569,421.4799 L475.1209,419.4319 L478.1189,417.4369 L481.1509,415.4919 L484.2169,413.5999 L487.3149,411.7619 L490.4449,409.9769 L493.6049,408.2459 L496.7939,406.5699 L500.0129,404.9499 L503.2599,403.3869 L506.5349,401.8799 L509.8349,400.4319 L513.1599,399.0409 L516.5089,397.7099 L519.8819,396.4389 L523.2779,395.2269 L526.6949,394.0759 L530.1309,392.9869 L533.5859,391.9589 L537.0599,390.9939 L540.5499,390.0899 L544.0569,389.2499 L547.5769,388.4719 L551.1109,387.7579 L554.6569,387.1069 L558.2129,386.5189 L561.7799,385.9939 L565.3549,385.5329 L568.9379,385.1349 L572.5269,384.8009 L576.1209,384.5289 L579.7179,384.3209 L583.3189,384.1759 L586.9209,384.0949 L590.5249,384.0749 L594.1279,384.1189 L597.7289,384.2249 L601.3289,384.3939 L604.9229,384.6239 L608.5139,384.9169 L612.0979,385.2709 L615.6759,385.6859 L619.2469,386.1629 L622.8079,386.7009 L626.3599,387.2999 L629.8999,387.9599 L633.4289,388.6789 L636.9459,389.4589 L640.4479,390.2979 L643.9349,391.1969 L647.4069,392.1559 L650.8619,393.1729 L654.2989,394.2499 L657.7179,395.3849 L661.1169,396.5789 L664.4939,397.8319 L667.8489,399.1429 L671.1819,400.5119 L674.4899,401.9389 L677.7729,403.4229 L681.0299,404.9649 L684.2589,406.5639 L687.4589,408.2199 L690.6299,409.9319 L693.7709,411.6999 L696.8789,413.5239 L699.9559,415.4019 L702.9979,417.3349 L706.0039,419.3219 L708.9749,421.3619 L711.9099,423.4549 L714.8069,425.5999 L717.6649,427.7959 L720.4839,430.0419 L723.2619,432.3379 L725.9999,434.6819 L728.6949,437.0739 L731.3469,439.5129 L733.9579,441.9989 L736.5219,444.5299 L739.0419,447.1049 L741.5179,449.7239 L743.9469,452.3859 L746.3289,455.0899 L748.6629,457.8339 L750.9489,460.6189 L753.1859,463.4429 L755.3739,466.3049 L757.5119,469.2039 L759.5989,472.1399 L761.6349,475.1109 L763.6209,478.1179 L765.5519,481.1579 L767.4319,484.2309 L769.2589,487.3349 L771.0319,490.4709 L772.7499,493.6359 L774.4139,496.8309 L776.0219,500.0539 L777.5749,503.3039 L779.0719,506.5809 L780.5129,509.8819 L781.8969,513.2079 L783.2229,516.5569 L784.4929,519.9289 L785.7039,523.3219 L786.8559,526.7349 L787.9499,530.1679 L788.9839,533.6199 L789.9589,537.0889 L790.8729,540.5749 L791.7249,544.0759 L792.5169,547.5919 L793.2469,551.1219 L793.9139,554.6639 L794.5189,558.2169 L795.0609,561.7809 L795.5399,565.3549 L795.9549,568.9359 L796.3059,572.5239 L796.5939,576.1169 L796.8179,579.7159 L796.9779,583.3179 L797.0739,586.9219 L797.1049,590.5269 Z" id="Stroke-4" stroke-dasharray="62.183,41.455,39.383,24.873,41.455,20.728"></path>
                <path d="M843.1342,590.5269 L843.0892,594.9359 L842.9622,599.3419 L842.7512,603.7459 L842.4582,608.1439 L842.0842,612.5359 L841.6292,616.9189 L841.0952,621.2929 L840.4812,625.6559 L839.7892,630.0059 L839.0212,634.3429 L838.1762,638.6659 L837.2562,642.9709 L836.2622,647.2599 L835.1942,651.5299 L834.0532,655.7799 L832.8392,660.0089 L831.5542,664.2169 L830.1962,668.4009 L828.7682,672.5609 L827.2682,676.6939 L825.6972,680.8009 L824.0562,684.8799 L822.3452,688.9289 L820.5662,692.9479 L818.7172,696.9349 L816.8022,700.8899 L814.8202,704.8109 L812.7722,708.6969 L810.6582,712.5489 L808.4812,716.3639 L806.2402,720.1419 L803.9382,723.8819 L801.5732,727.5839 L799.1492,731.2449 L796.6632,734.8659 L794.1182,738.4459 L791.5142,741.9839 L788.8522,745.4769 L786.1322,748.9259 L783.3552,752.3299 L780.5202,755.6869 L777.6282,758.9959 L774.6812,762.2549 L771.6772,765.4639 L768.6182,768.6199 L765.5052,771.7239 L762.3382,774.7739 L759.1182,777.7689 L755.8462,780.7069 L752.5232,783.5889 L749.1502,786.4119 L745.7272,789.1759 L742.2562,791.8809 L738.7382,794.5239 L735.1722,797.1049 L731.5632,799.6239 L727.9082,802.0779 L724.2102,804.4679 L720.4712,806.7929 L716.6902,809.0509 L712.8692,811.2419 L709.0102,813.3649 L705.1132,815.4199 L701.1802,817.4039 L697.2122,819.3179 L693.2092,821.1609 L689.1752,822.9309 L685.1092,824.6299 L681.0122,826.2539 L676.8862,827.8029 L672.7332,829.2769 L668.5532,830.6739 L664.3492,831.9939 L660.1202,833.2359 L655.8702,834.3989 L651.5992,835.4819 L647.3092,836.4849 L643.0012,837.4069 L638.6772,838.2489 L634.3392,839.0099 L629.9882,839.6919 L625.6272,840.2919 L621.2562,840.8129 L616.8772,841.2549 L612.4922,841.6189 L608.1032,841.9039 L603.7102,842.1129 L599.3152,842.2459 L594.9202,842.3029 L590.5252,842.2859 L586.1322,842.1939 L581.7422,842.0289 L577.3572,841.7919 L572.9772,841.4829 L568.6032,841.1019 L564.2362,840.6509 L559.8782,840.1289 L555.5292,839.5369 L551.1912,838.8759 L546.8632,838.1449 L542.5482,837.3449 L538.2472,836.4749 L533.9602,835.5359 L529.6892,834.5259 L525.4352,833.4459 L521.1992,832.2959 L516.9832,831.0729 L512.7872,829.7789 L508.6142,828.4129 L504.4652,826.9739 L500.3412,825.4629 L496.2442,823.8799 L492.1762,822.2229 L488.1372,820.4939 L484.1292,818.6939 L480.1552,816.8209 L476.2132,814.8779 L472.3072,812.8629 L468.4372,810.7799 L464.6052,808.6279 L460.8122,806.4069 L457.0582,804.1179 L453.3472,801.7629 L449.6782,799.3419 L446.0532,796.8549 L442.4732,794.3019 L438.9412,791.6859 L435.4552,789.0069 L432.0192,786.2649 L428.6332,783.4619 L425.2982,780.5989 L422.0162,777.6759 L418.7852,774.6949 L415.6112,771.6559 L412.4892,768.5629 L409.4242,765.4139 L406.4162,762.2109 L403.4652,758.9569 L400.5732,755.6509 L397.7392,752.2939 L394.9642,748.8889 L392.2502,745.4359 L389.5982,741.9359 L387.0072,738.3909 L384.4792,734.8019 L382.0132,731.1699 L379.6122,727.4959 L377.2742,723.7809 L375.0002,720.0269 L372.7922,716.2349 L370.6502,712.4059 L368.5732,708.5409 L366.5652,704.6409 L364.6222,700.7069 L362.7482,696.7409 L360.9422,692.7439 L359.2042,688.7169 L357.5362,684.6609 L355.9382,680.5769 L354.4092,676.4659 L352.9512,672.3299 L351.5642,668.1699 L350.2472,663.9869 L349.0002,659.7829 L347.8252,655.5579 L346.7202,651.3149 L345.6862,647.0519 L344.7222,642.7739 L343.8282,638.4799 L343.0052,634.1719 L342.2522,629.8499 L341.5692,625.5159 L340.9552,621.1709 L340.4122,616.8149 L339.9402,612.4499 L339.5382,608.0779 L339.2092,603.6979 L338.9522,599.3119 L338.7692,594.9219 L338.6602,590.5269 L338.6282,586.1299 L338.6712,581.7319 L338.7922,577.3339 L338.9902,572.9379 L339.2692,568.5449 L339.6272,564.1569 L340.0672,559.7749 L340.5872,555.4009 L341.1902,551.0359 L341.8762,546.6839 L342.6462,542.3439 L343.4992,538.0199 L344.4382,533.7139 L345.4602,529.4249 L346.5672,525.1589 L347.7582,520.9149 L349.0312,516.6949 L350.3882,512.5019 L351.8242,508.3359 L353.3422,504.1989 L354.9382,500.0939 L356.6112,496.0199 L358.3592,491.9789 L360.1812,487.9709 L362.0742,483.9989 L364.0382,480.0619 L366.0712,476.1619 L368.1692,472.2979 L370.3332,468.4729 L372.5612,464.6859 L374.8512,460.9369 L377.2002,457.2269 L379.6112,453.5579 L382.0782,449.9279 L384.6052,446.3399 L387.1882,442.7939 L389.8262,439.2899 L392.5212,435.8289 L395.2702,432.4129 L398.0742,429.0419 L400.9332,425.7169 L403.8462,422.4409 L406.8132,419.2129 L409.8332,416.0349 L412.9072,412.9089 L416.0322,409.8349 L419.2102,406.8139 L422.4372,403.8469 L425.7132,400.9329 L429.0372,398.0739 L432.4082,395.2689 L435.8242,392.5189 L439.2852,389.8249 L442.7892,387.1859 L446.3362,384.6039 L449.9242,382.0779 L453.5542,379.6099 L457.2242,377.2009 L460.9342,374.8509 L464.6832,372.5619 L468.4702,370.3349 L472.2962,368.1709 L476.1592,366.0719 L480.0602,364.0399 L483.9962,362.0769 L487.9692,360.1829 L491.9762,358.3609 L496.0182,356.6129 L500.0912,354.9399 L504.1982,353.3439 L508.3342,351.8269 L512.4992,350.3899 L516.6932,349.0329 L520.9122,347.7599 L525.1562,346.5689 L529.4232,345.4619 L533.7112,344.4399 L538.0182,343.5019 L542.3422,342.6479 L546.6812,341.8779 L551.0342,341.1919 L555.3992,340.5889 L559.7732,340.0689 L564.1552,339.6299 L568.5432,339.2709 L572.9362,338.9929 L577.3322,338.7939 L581.7302,338.6729 L586.1282,338.6299 L590.5252,338.6629 L594.9192,338.7719 L599.3102,338.9539 L603.6962,339.2109 L608.0752,339.5409 L612.4482,339.9419 L616.8132,340.4149 L621.1682,340.9579 L625.5142,341.5699 L629.8482,342.2519 L634.1702,343.0019 L638.4812,343.8189 L642.7772,344.7019 L647.0592,345.6519 L651.3252,346.6689 L655.5762,347.7509 L659.8112,348.8989 L664.0272,350.1139 L668.2242,351.3959 L672.4002,352.7439 L676.5552,354.1609 L680.6872,355.6469 L684.7952,357.2009 L688.8762,358.8259 L692.9302,360.5209 L696.9542,362.2869 L700.9482,364.1259 L704.9082,366.0359 L708.8342,368.0189 L712.7232,370.0749 L716.5732,372.2039 L720.3842,374.4049 L724.1532,376.6779 L727.8772,379.0229 L731.5572,381.4389 L735.1892,383.9249 L738.7742,386.4799 L742.3092,389.1029 L745.7932,391.7919 L749.2272,394.5469 L752.6082,397.3639 L755.9362,400.2439 L759.2092,403.1839 L762.4292,406.1829 L765.5922,409.2389 L768.7002,412.3509 L771.7522,415.5179 L774.7472,418.7369 L777.6852,422.0079 L780.5642,425.3289 L783.3852,428.6979 L786.1472,432.1149 L788.8502,435.5789 L791.4932,439.0869 L794.0772,442.6369 L796.6022,446.2309 L799.0652,449.8649 L801.4672,453.5389 L803.8092,457.2529 L806.0892,461.0029 L808.3062,464.7909 L810.4612,468.6139 L812.5532,472.4729 L814.5822,476.3639 L816.5492,480.2879 L818.4512,484.2429 L820.2902,488.2289 L822.0662,492.2439 L823.7772,496.2869 L825.4232,500.3579 L827.0052,504.4549 L828.5212,508.5779 L829.9702,512.7269 L831.3512,516.8989 L832.6612,521.0949 L833.9032,525.3139 L835.0712,529.5549 L836.1642,533.8169 L837.1842,538.0979 L838.1262,542.3979 L838.9902,546.7159 L839.7752,551.0499 L840.4792,555.3989 L841.1022,559.7599 L841.6422,564.1329 L842.1002,568.5169 L842.4742,572.9089 L842.7652,577.3079 L842.9722,581.7119 L843.0952,586.1179 L843.1342,590.5269 Z" id="Stroke-5" stroke-dasharray="37.31,37.31,16.582,37.31,82.911,82.911"></path>
                <path d="M893.2895,590.5269 L893.2185,595.8109 L893.0275,601.0899 L892.7215,606.3639 L892.2985,611.6289 L891.7645,616.8819 L891.1215,622.1209 L890.3725,627.3439 L889.5215,632.5479 L888.5725,637.7329 L887.5265,642.8969 L886.3905,648.0369 L885.1635,653.1539 L883.8505,658.2469 L882.4535,663.3129 L880.9745,668.3529 L879.4145,673.3649 L877.7725,678.3469 L876.0515,683.2999 L874.2485,688.2209 L872.3645,693.1079 L870.4005,697.9619 L868.3575,702.7789 L866.2365,707.5599 L864.0375,712.3029 L861.7625,717.0069 L859.4135,721.6729 L856.9915,726.2979 L854.4995,730.8849 L851.9385,735.4309 L849.3105,739.9369 L846.6165,744.4019 L843.8585,748.8279 L841.0385,753.2129 L838.1565,757.5569 L835.2135,761.8599 L832.2095,766.1209 L829.1445,770.3399 L826.0195,774.5159 L822.8335,778.6469 L819.5855,782.7309 L816.2735,786.7679 L812.8985,790.7539 L809.4595,794.6869 L805.9545,798.5649 L802.3825,802.3839 L798.7465,806.1469 L795.0445,809.8469 L791.2775,813.4849 L787.4465,817.0589 L783.5525,820.5679 L779.5955,824.0089 L775.5765,827.3809 L771.4965,830.6839 L767.3565,833.9149 L763.1585,837.0729 L758.9015,840.1559 L754.5885,843.1629 L750.2195,846.0909 L745.7965,848.9409 L741.3185,851.7099 L736.7905,854.3959 L732.2105,856.9989 L727.5825,859.5169 L722.9055,861.9469 L718.1835,864.2899 L713.4155,866.5419 L708.6035,868.7029 L703.7505,870.7699 L698.8565,872.7409 L693.9245,874.6139 L688.9545,876.3879 L683.9495,878.0579 L678.9105,879.6229 L673.8405,881.0809 L668.7395,882.4289 L663.6125,883.6639 L658.4605,884.7869 L653.2865,885.7969 L648.0945,886.6929 L642.8855,887.4769 L637.6645,888.1519 L632.4335,888.7179 L627.1945,889.1779 L621.9525,889.5359 L616.7075,889.7939 L611.4635,889.9549 L606.2215,890.0229 L600.9825,890.0009 L595.7505,889.8929 L590.5245,889.7029 L585.3085,889.4329 L580.0995,889.0859 L574.8995,888.6659 L569.7115,888.1729 L564.5335,887.6119 L559.3665,886.9839 L554.2105,886.2899 L549.0645,885.5309 L543.9315,884.7099 L538.8095,883.8239 L533.6985,882.8749 L528.6005,881.8609 L523.5155,880.7799 L518.4435,879.6299 L513.3885,878.4069 L508.3495,877.1099 L503.3275,875.7359 L498.3275,874.2809 L493.3505,872.7429 L488.3975,871.1189 L483.4735,869.4069 L478.5785,867.6049 L473.7155,865.7129 L468.8885,863.7289 L464.0975,861.6529 L459.3455,859.4859 L454.6345,857.2289 L449.9655,854.8819 L445.3415,852.4449 L440.7645,849.9209 L436.2335,847.3109 L431.7535,844.6139 L427.3255,841.8329 L422.9505,838.9659 L418.6325,836.0149 L414.3715,832.9809 L410.1715,829.8649 L406.0325,826.6669 L401.9575,823.3889 L397.9465,820.0329 L394.0025,816.6009 L390.1255,813.0929 L386.3175,809.5119 L382.5795,805.8609 L378.9115,802.1409 L375.3135,798.3549 L371.7895,794.5019 L368.3345,790.5879 L364.9535,786.6129 L361.6455,782.5799 L358.4125,778.4879 L355.2535,774.3419 L352.1685,770.1419 L349.1585,765.8899 L346.2245,761.5889 L343.3645,757.2379 L340.5815,752.8419 L337.8725,748.4019 L335.2405,743.9179 L332.6835,739.3919 L330.2015,734.8259 L327.7975,730.2219 L325.4685,725.5799 L323.2165,720.9019 L321.0415,716.1899 L318.9435,711.4429 L316.9235,706.6639 L314.9815,701.8539 L313.1185,697.0129 L311.3345,692.1439 L309.6275,687.2479 L307.9985,682.3249 L306.4465,677.3789 L304.9715,672.4079 L303.5695,667.4169 L302.2425,662.4039 L300.9875,657.3719 L299.8035,652.3219 L298.6885,647.2539 L297.6425,642.1699 L296.6625,637.0699 L295.7475,631.9549 L294.8975,626.8249 L294.1145,621.6809 L293.3965,616.5229 L292.7485,611.3499 L292.1715,606.1629 L291.6695,600.9639 L291.2455,595.7509 L290.9035,590.5269 L290.6475,585.2929 L290.4815,580.0489 L290.4105,574.7989 L290.4375,569.5429 L290.5665,564.2839 L290.8015,559.0249 L291.1455,553.7679 L291.6035,548.5159 L292.1795,543.2739 L292.8755,538.0439 L293.6955,532.8289 L294.6435,527.6349 L295.7195,522.4659 L296.9255,517.3239 L298.2605,512.2149 L299.7255,507.1419 L301.3175,502.1079 L303.0345,497.1159 L304.8735,492.1689 L306.8295,487.2699 L308.8985,482.4209 L311.0755,477.6219 L313.3555,472.8759 L315.7315,468.1809 L318.1995,463.5399 L320.7525,458.9499 L323.3845,454.4119 L326.0915,449.9249 L328.8665,445.4869 L331.7075,441.0979 L334.6075,436.7559 L337.5655,432.4609 L340.5775,428.2099 L343.6425,424.0019 L346.7555,419.8379 L349.9185,415.7159 L353.1305,411.6369 L356.3915,407.6019 L359.7015,403.6099 L363.0625,399.6639 L366.4765,395.7639 L369.9425,391.9139 L373.4645,388.1139 L377.0405,384.3669 L380.6735,380.6749 L384.3625,377.0399 L388.1075,373.4609 L391.9055,369.9379 L395.7545,366.4689 L399.6525,363.0539 L403.5985,359.6919 L407.5895,356.3799 L411.6255,353.1189 L415.7045,349.9069 L419.8265,346.7449 L423.9925,343.6319 L428.2005,340.5699 L432.4535,337.5599 L436.7505,334.6039 L441.0935,331.7039 L445.4835,328.8649 L449.9225,326.0909 L454.4095,323.3849 L458.9475,320.7539 L463.5375,318.2009 L468.1795,315.7339 L472.8735,313.3579 L477.6205,311.0779 L482.4185,308.9009 L487.2685,306.8309 L492.1675,304.8749 L497.1135,303.0359 L502.1055,301.3189 L507.1405,299.7269 L512.2135,298.2619 L517.3225,296.9269 L522.4635,295.7209 L527.6335,294.6449 L532.8275,293.6979 L538.0415,292.8779 L543.2715,292.1809 L548.5145,291.6059 L553.7665,291.1479 L559.0225,290.8029 L564.2815,290.5689 L569.5405,290.4399 L574.7965,290.4129 L580.0475,290.4839 L585.2905,290.6499 L590.5245,290.9049 L595.7495,291.2469 L600.9615,291.6709 L606.1615,292.1729 L611.3485,292.7499 L616.5205,293.3989 L621.6795,294.1159 L626.8235,294.8999 L631.9535,295.7469 L637.0695,296.6539 L642.1725,297.6189 L647.2625,298.6389 L652.3395,299.7119 L657.4045,300.8389 L662.4585,302.0169 L667.5015,303.2489 L672.5315,304.5349 L677.5515,305.8789 L682.5575,307.2809 L687.5505,308.7469 L692.5265,310.2789 L697.4865,311.8819 L702.4275,313.5609 L707.3445,315.3189 L712.2355,317.1609 L717.0985,319.0909 L721.9275,321.1139 L726.7185,323.2329 L731.4695,325.4499 L736.1745,327.7699 L740.8295,330.1929 L745.4315,332.7199 L749.9755,335.3539 L754.4585,338.0919 L758.8775,340.9349 L763.2285,343.8809 L767.5115,346.9269 L771.7215,350.0719 L775.8585,353.3109 L779.9215,356.6419 L783.9105,360.0599 L787.8235,363.5609 L791.6625,367.1419 L795.4265,370.7969 L799.1155,374.5259 L802.7305,378.3209 L806.2715,382.1819 L809.7405,386.1049 L813.1375,390.0869 L816.4605,394.1239 L819.7135,398.2149 L822.8965,402.3559 L826.0115,406.5449 L829.0585,410.7789 L832.0385,415.0569 L834.9535,419.3769 L837.8045,423.7349 L840.5915,428.1319 L843.3145,432.5669 L845.9765,437.0369 L848.5725,441.5429 L851.1055,446.0849 L853.5765,450.6599 L855.9915,455.2649 L858.3445,459.9029 L860.6395,464.5709 L862.8755,469.2689 L865.0555,473.9959 L867.1795,478.7519 L869.2465,483.5359 L871.2565,488.3489 L873.2065,493.1919 L875.0935,498.0649 L876.9145,502.9689 L878.6645,507.9039 L880.3395,512.8719 L881.9345,517.8709 L883.4415,522.9019 L884.8585,527.9639 L886.1795,533.0579 L887.3975,538.1799 L888.5105,543.3309 L889.5135,548.5069 L890.4015,553.7069 L891.1745,558.9269 L891.8285,564.1659 L892.3635,569.4209 L892.7775,574.6869 L893.0695,579.9619 L893.2405,585.2429 L893.2895,590.5269 Z" id="Stroke-6" stroke-dasharray="60,51.819,24.873,24.873,41.455,41.455"></path>
                <path d="M955.2582,590.5269 L955.1172,596.8909 L954.7752,603.2469 L954.2372,609.5889 L953.5112,615.9089 L952.6072,622.2049 L951.5342,628.4709 L950.3042,634.7019 L948.9282,640.8969 L947.4152,647.0529 L945.7792,653.1679 L944.0292,659.2409 L942.1742,665.2729 L940.2242,671.2609 L938.1852,677.2089 L936.0622,683.1129 L933.8602,688.9769 L931.5762,694.7969 L929.2112,700.5729 L926.7642,706.3029 L924.2352,711.9869 L921.6222,717.6239 L918.9292,723.2109 L916.1562,728.7499 L913.3072,734.2389 L910.3842,739.6799 L907.3932,745.0739 L904.3362,750.4219 L901.2202,755.7259 L898.0472,760.9899 L894.8242,766.2139 L891.5542,771.4039 L888.2392,776.5599 L884.8832,781.6859 L881.4872,786.7829 L878.0502,791.8539 L874.5722,796.8999 L871.0522,801.9199 L867.4872,806.9129 L863.8722,811.8799 L860.2052,816.8159 L856.4802,821.7179 L852.6912,826.5819 L848.8312,831.4019 L844.8972,836.1709 L840.8802,840.8819 L836.7922,845.5439 L832.6172,850.1399 L828.3612,854.6709 L824.0222,859.1339 L819.6002,863.5269 L815.0952,867.8479 L810.5082,872.0919 L805.8392,876.2579 L801.0882,880.3419 L796.2552,884.3399 L791.3422,888.2509 L786.3492,892.0689 L781.2772,895.7939 L776.1262,899.4199 L770.9002,902.9439 L765.5972,906.3649 L760.2212,909.6779 L754.7722,912.8799 L749.2532,915.9669 L743.6652,918.9369 L738.0102,921.7839 L732.2892,924.5039 L726.5062,927.0919 L720.6602,929.5419 L714.7562,931.8479 L708.7932,934.0039 L702.7772,936.0019 L696.7082,937.8359 L690.5912,939.4979 L684.4292,940.9829 L678.2272,942.2789 L671.9892,943.3899 L665.7252,944.3129 L659.4372,945.0499 L653.1352,945.6069 L646.8242,945.9869 L640.5122,946.2009 L634.2032,946.2559 L627.9042,946.1609 L621.6182,945.9289 L615.3522,945.5699 L609.1072,945.0959 L602.8872,944.5199 L596.6932,943.8539 L590.5252,943.1079 L584.3852,942.2939 L578.2722,941.4219 L572.1842,940.5019 L566.1192,939.5389 L560.0772,938.5429 L554.0552,937.5199 L548.0482,936.4749 L542.0552,935.4109 L536.0712,934.3319 L530.0962,933.2369 L524.1252,932.1239 L518.1572,930.9879 L512.1932,929.8219 L506.2302,928.6179 L500.2702,927.3649 L494.3142,926.0549 L488.3652,924.6749 L482.4282,923.2139 L476.5052,921.6629 L470.6022,920.0119 L464.7232,918.2519 L458.8732,916.3759 L453.0582,914.3799 L447.2812,912.2579 L441.5482,910.0099 L435.8622,907.6349 L430.2252,905.1329 L424.6412,902.5089 L419.1142,899.7599 L413.6472,896.8879 L408.2402,893.8999 L402.8992,890.7919 L397.6252,887.5669 L392.4252,884.2229 L387.3022,880.7599 L382.2602,877.1799 L377.3022,873.4829 L372.4332,869.6729 L367.6542,865.7499 L362.9692,861.7179 L358.3782,857.5809 L353.8852,853.3419 L349.4892,849.0059 L345.1932,844.5759 L340.9932,840.0589 L336.8912,835.4589 L332.8922,830.7739 L328.9822,826.0219 L325.1702,821.1959 L321.4562,816.3019 L317.8392,811.3439 L314.3182,806.3239 L310.8902,801.2469 L307.5562,796.1159 L304.3142,790.9349 L301.1602,785.7059 L298.0972,780.4319 L295.1192,775.1169 L292.2272,769.7619 L289.4192,764.3709 L286.6942,758.9439 L284.0502,753.4829 L281.4872,747.9889 L279.0052,742.4649 L276.6032,736.9109 L274.2802,731.3279 L272.0372,725.7169 L269.8742,720.0779 L267.7892,714.4139 L265.7822,708.7229 L263.8522,703.0089 L261.9942,697.2729 L260.2062,691.5159 L258.4832,685.7389 L256.8192,679.9439 L255.2112,674.1309 L253.6532,668.2999 L252.1382,662.4529 L250.6612,656.5899 L249.2172,650.7089 L247.8012,644.8089 L246.4082,638.8889 L245.0372,632.9469 L243.6882,626.9809 L242.3632,620.9869 L241.0712,614.9629 L239.8212,608.9069 L238.6232,602.8159 L237.4902,596.6889 L236.4342,590.5269 L235.4672,584.3299 L234.6052,578.0979 L233.8612,571.8349 L233.2482,565.5439 L232.7802,559.2289 L232.4712,552.8939 L232.3322,546.5469 L232.3782,540.1929 L232.6222,533.8409 L233.0772,527.4999 L233.7552,521.1779 L234.6642,514.8869 L235.8142,508.6349 L237.2052,502.4349 L238.8412,496.2939 L240.7212,490.2219 L242.8382,484.2289 L245.1862,478.3189 L247.7542,472.5019 L250.5302,466.7789 L253.5002,461.1549 L256.6482,455.6319 L259.9552,450.2089 L263.4052,444.8839 L266.9812,439.6559 L270.6622,434.5199 L274.4322,429.4699 L278.2752,424.5009 L282.1732,419.6049 L286.1142,414.7759 L290.0872,410.0059 L294.0802,405.2879 L298.0852,400.6139 L302.0972,395.9799 L306.1122,391.3789 L310.1282,386.8069 L314.1482,382.2619 L318.1722,377.7419 L322.2062,373.2469 L326.2562,368.7789 L330.3272,364.3399 L334.4272,359.9349 L338.5622,355.5679 L342.7372,351.2419 L346.9602,346.9629 L351.2322,342.7319 L355.5492,338.5469 L359.9102,334.4039 L364.3112,330.2969 L368.7452,326.2199 L373.2112,322.1669 L377.7042,318.1299 L382.2262,314.1039 L386.7732,310.0859 L391.3472,306.0719 L395.9512,302.0609 L400.5902,298.0529 L405.2682,294.0539 L409.9902,290.0669 L414.7642,286.0999 L419.5962,282.1629 L424.4942,278.2689 L429.4652,274.4299 L434.5162,270.6619 L439.6542,266.9819 L444.8822,263.4079 L450.2062,259.9579 L455.6302,256.6499 L461.1542,253.5019 L466.7772,250.5319 L472.4992,247.7559 L478.3182,245.1879 L484.2262,242.8399 L490.2202,240.7229 L496.2912,238.8439 L502.4332,237.2069 L508.6332,235.8159 L514.8842,234.6669 L521.1762,233.7569 L527.4972,233.0799 L533.8392,232.6249 L540.1912,232.3809 L546.5442,232.3349 L552.8922,232.4729 L559.2272,232.7819 L565.5412,233.2499 L571.8332,233.8629 L578.0962,234.6069 L584.3272,235.4689 L590.5252,236.4359 L596.6872,237.4919 L602.8142,238.6259 L608.9042,239.8229 L614.9612,241.0729 L620.9862,242.3649 L626.9792,243.6899 L632.9462,245.0379 L638.8892,246.4019 L644.8132,247.7689 L650.7222,249.1329 L656.6222,250.4869 L662.5192,251.8239 L668.4162,253.1419 L674.3212,254.4429 L680.2352,255.7269 L686.1612,257.0029 L692.1042,258.2769 L698.0632,259.5599 L704.0362,260.8649 L710.0242,262.2069 L716.0212,263.5979 L722.0242,265.0559 L728.0252,266.5979 L734.0172,268.2389 L739.9912,269.9949 L745.9392,271.8819 L751.8482,273.9129 L757.7092,276.0999 L763.5102,278.4529 L769.2412,280.9819 L774.8912,283.6909 L780.4492,286.5849 L785.9072,289.6639 L791.2582,292.9279 L796.4932,296.3739 L801.6092,299.9949 L806.6002,303.7859 L811.4642,307.7379 L816.2012,311.8399 L820.8122,316.0819 L825.2982,320.4519 L829.6622,324.9379 L833.9102,329.5279 L838.0402,334.2179 L842.0602,338.9919 L845.9732,343.8439 L849.7832,348.7649 L853.4942,353.7489 L857.1122,358.7869 L860.6402,363.8729 L864.0862,369.0009 L867.4562,374.1639 L870.7562,379.3579 L873.9922,384.5759 L877.1692,389.8169 L880.2932,395.0759 L883.3682,400.3519 L886.3982,405.6449 L889.3842,410.9549 L892.3272,416.2809 L895.2292,421.6269 L898.0962,426.9889 L900.9482,432.3579 L903.7742,437.7459 L906.5782,443.1489 L909.3712,448.5679 L912.1562,454.0029 L914.9382,459.4559 L917.7132,464.9309 L920.4822,470.4329 L923.2372,475.9649 L925.9692,481.5339 L928.6692,487.1459 L931.3212,492.8049 L933.9122,498.5169 L936.4242,504.2849 L938.8412,510.1119 L941.1442,516.0009 L943.3172,521.9509 L945.3422,527.9629 L947.2072,534.0339 L948.8972,540.1609 L950.4032,546.3389 L951.7142,552.5649 L952.8252,558.8299 L953.7322,565.1289 L954.4292,571.4559 L954.9162,577.8019 L955.1932,584.1619 L955.2582,590.5269 Z" id="Stroke-7" stroke-dasharray="37.31,37.31,16.582,37.31,82.911,82.911"></path>
                <path d="M1046.2065,590.5269 L1045.8915,598.4759 L1045.1755,606.4039 L1044.0775,614.2969 L1042.6205,622.1409 L1040.8315,629.9239 L1038.7375,637.6359 L1036.3695,645.2699 L1033.7605,652.8189 L1030.9395,660.2819 L1027.9405,667.6549 L1024.7905,674.9399 L1021.5175,682.1369 L1018.1465,689.2509 L1014.6975,696.2849 L1011.1825,703.2419 L1007.6125,710.1249 L1003.9845,716.9339 L1000.2955,723.6699 L996.5415,730.3299 L992.7215,736.9149 L988.8345,743.4229 L984.8815,749.8579 L980.8685,756.2179 L976.8015,762.5079 L972.6875,768.7329 L968.5405,774.8969 L964.3685,781.0099 L960.1855,787.0789 L956.0045,793.1149 L951.8335,799.1279 L947.6835,805.1289 L943.5605,811.1279 L939.4725,817.1359 L935.4185,823.1609 L931.3995,829.2099 L927.4125,835.2899 L923.4485,841.4029 L919.4995,847.5499 L915.5535,853.7299 L911.5945,859.9359 L907.6065,866.1619 L903.5715,872.3959 L899.4705,878.6239 L895.2835,884.8289 L890.9915,890.9929 L886.6225,897.1449 L882.1295,903.2349 L877.5225,909.2709 L872.8005,915.2479 L867.9585,921.1599 L862.9955,926.9999 L857.9085,932.7619 L852.6965,938.4409 L847.3575,944.0269 L841.8915,949.5159 L836.2965,954.8979 L830.5715,960.1669 L824.7195,965.3149 L818.7365,970.3349 L812.6265,975.2179 L806.3905,979.9579 L800.0285,984.5469 L793.5445,988.9749 L786.9385,993.2349 L780.2155,997.3189 L773.3745,1001.2129 L766.4195,1004.9079 L759.3515,1008.3889 L752.1765,1011.6409 L744.8925,1014.6489 L737.5065,1017.3919 L730.0215,1019.8529 L722.4425,1022.0119 L714.7785,1023.8499 L707.0365,1025.3519 L699.2225,1026.4869 L691.3535,1027.2629 L683.4435,1027.6739 L675.5085,1027.7279 L667.5635,1027.4389 L659.6275,1026.8219 L651.7135,1025.9019 L643.8355,1024.7039 L636.0075,1023.2569 L628.2385,1021.5919 L620.5385,1019.7439 L612.9145,1017.7459 L605.3705,1015.6329 L597.9065,1013.4419 L590.5245,1011.2029 L583.2215,1008.9489 L575.9915,1006.7099 L568.8295,1004.5099 L561.7255,1002.3729 L554.6735,1000.3189 L547.6595,998.3659 L540.6745,996.5299 L533.7045,994.8229 L526.7395,993.2499 L519.7675,991.8099 L512.7795,990.4949 L505.7655,989.2919 L498.7195,988.1799 L491.6395,987.1359 L484.5235,986.1289 L477.3755,985.1289 L470.1965,984.1019 L462.9965,983.0179 L455.7835,981.8449 L448.5665,980.5539 L441.3575,979.1209 L434.1685,977.5229 L427.0105,975.7449 L419.8925,973.7739 L412.8255,971.6049 L405.8175,969.2329 L398.8745,966.6619 L392.0015,963.8959 L385.2055,960.9329 L378.4955,957.7729 L371.8675,954.4339 L365.3335,950.9089 L358.9005,947.1969 L352.5805,943.2949 L346.3805,939.2019 L340.3105,934.9189 L334.3765,930.4469 L328.5885,925.7919 L322.9485,920.9559 L317.4655,915.9469 L312.1395,910.7739 L306.9735,905.4439 L301.9675,899.9669 L297.1205,894.3569 L292.4305,888.6219 L287.8905,882.7779 L283.5195,876.8149 L279.2705,870.7819 L275.1725,864.6589 L271.2175,858.4579 L267.4025,852.1859 L263.7235,845.8529 L260.1715,839.4659 L256.7435,833.0329 L253.4335,826.5619 L250.2325,820.0569 L247.1385,813.5259 L244.1415,806.9719 L241.2355,800.4019 L238.4175,793.8169 L235.6805,787.2209 L233.0185,780.6159 L230.4325,774.0039 L227.9145,767.3839 L225.4645,760.7579 L223.0805,754.1239 L220.7605,747.4829 L218.5025,740.8339 L216.3035,734.1769 L214.1595,727.5129 L212.0645,720.8409 L210.0085,714.1649 L207.9785,707.4839 L205.9625,700.7979 L203.9465,694.1099 L201.9135,687.4189 L199.8485,680.7219 L197.7325,674.0179 L195.5505,667.3019 L193.2835,660.5709 L190.9185,653.8189 L188.4415,647.0359 L185.8475,640.2149 L183.1355,633.3449 L180.3145,626.4159 L177.4075,619.4149 L174.4405,612.3329 L171.4435,605.1619 L168.4505,597.8939 L165.4985,590.5269 L162.6245,583.0579 L159.8685,575.4879 L157.2715,567.8209 L154.8725,560.0629 L152.7115,552.2229 L150.8255,544.3129 L149.2515,536.3449 L148.0285,528.3379 L147.1965,520.3109 L146.7935,512.2849 L146.8525,504.2859 L147.4025,496.3389 L148.4645,488.4689 L150.0495,480.7039 L152.1625,473.0679 L154.8015,465.5849 L157.9505,458.2759 L161.5905,451.1579 L165.6935,444.2459 L170.2245,437.5499 L175.1425,431.0769 L180.4035,424.8269 L185.9585,418.7979 L191.7575,412.9839 L197.7485,407.3719 L203.8825,401.9489 L210.1095,396.6959 L216.3845,391.5919 L222.6575,386.6149 L228.8985,381.7419 L235.0715,376.9489 L241.1475,372.2119 L247.1055,367.5079 L252.9305,362.8169 L258.6135,358.1199 L264.1545,353.4049 L269.5555,348.6589 L274.8275,343.8769 L279.9835,339.0549 L285.0435,334.1969 L290.0265,329.3079 L294.9555,324.3949 L299.8515,319.4689 L304.7335,314.5419 L309.6195,309.6209 L314.5165,304.7109 L319.4215,299.8039 L324.3285,294.8849 L329.2265,289.9359 L334.1035,284.9359 L338.9555,279.8639 L343.7735,274.6999 L348.5585,269.4259 L353.3095,264.0269 L358.0325,258.4939 L362.7395,252.8209 L367.4425,247.0099 L372.1585,241.0679 L376.9075,235.0079 L381.7115,228.8509 L386.5935,222.6249 L391.5785,216.3629 L396.6865,210.0989 L401.9435,203.8779 L407.3695,197.7479 L412.9815,191.7579 L418.7965,185.9599 L424.8255,180.4049 L431.0745,175.1449 L437.5485,170.2269 L444.2435,165.6959 L451.1555,161.5929 L458.2735,157.9519 L465.5835,154.8029 L473.0655,152.1649 L480.7015,150.0509 L488.4675,148.4659 L496.3365,147.4049 L504.2835,146.8549 L512.2835,146.7959 L520.3085,147.1979 L528.3365,148.0299 L536.3435,149.2539 L544.3105,150.8269 L552.2215,152.7139 L560.0605,154.8749 L567.8185,157.2739 L575.4855,159.8709 L583.0565,162.6269 L590.5245,165.5009 L597.8915,168.4529 L605.1595,171.4459 L612.3315,174.4429 L619.4135,177.4099 L626.4135,180.3169 L633.3435,183.1369 L640.2135,185.8449 L647.0385,188.4159 L653.8325,190.8219 L660.6125,193.0379 L667.3985,195.0439 L674.2095,196.8249 L681.0595,198.3749 L687.9705,199.6959 L694.9525,200.7979 L702.0205,201.6959 L709.1825,202.4179 L716.4425,202.9919 L723.8045,203.4579 L731.2625,203.8539 L738.8115,204.2259 L746.4405,204.6219 L754.1345,205.0879 L761.8725,205.6739 L769.6345,206.4269 L777.3925,207.3919 L785.1225,208.6089 L792.7945,210.1139 L800.3805,211.9389 L807.8495,214.1089 L815.1775,216.6429 L822.3355,219.5529 L829.3015,222.8439 L836.0545,226.5149 L842.5775,230.5589 L848.8575,234.9619 L854.8885,239.7059 L860.6625,244.7669 L866.1825,250.1199 L871.4505,255.7329 L876.4765,261.5769 L881.2735,267.6179 L885.8535,273.8249 L890.2165,280.1879 L894.3905,286.6619 L898.3845,293.2309 L902.2115,299.8749 L905.8865,306.5739 L909.4265,313.3109 L912.8475,320.0669 L916.1695,326.8249 L919.4125,333.5719 L922.5975,340.2929 L925.7405,346.9789 L928.8635,353.6199 L931.9805,360.2119 L935.1075,366.7529 L938.2545,373.2409 L941.4305,379.6819 L944.6405,386.0789 L947.8835,392.4399 L951.1875,398.7589 L954.6115,405.0159 L958.1155,411.2409 L961.7245,417.4339 L965.4635,423.5939 L969.3465,429.7269 L973.3835,435.8419 L977.5735,441.9529 L981.9115,448.0739 L986.3815,454.2229 L990.9575,460.4189 L995.6105,466.6799 L1000.3035,473.0249 L1004.9905,479.4709 L1009.6275,486.0329 L1014.1635,492.7219 L1018.5505,499.5479 L1022.7375,506.5129 L1026.6815,513.6209 L1030.3385,520.8669 L1033.6725,528.2469 L1036.6535,535.7489 L1039.2565,543.3629 L1041.4615,551.0749 L1043.2575,558.8689 L1044.6335,566.7279 L1045.5835,574.6359 L1046.1065,582.5749 L1046.2065,590.5269 Z" id="Stroke-8" stroke-dasharray="62.183,41.455,39.383,24.873,41.455,20.728"></path>
                <path d="M663.8793,591.4034 L663.8683,592.6684 L663.8353,593.9334 L663.7793,595.1964 L663.7023,596.4594 L663.6043,597.7204 L663.4823,598.9794 L663.3393,600.2364 L663.1743,601.4904 L662.9863,602.7414 L662.7773,603.9894 L662.5473,605.2334 L662.2953,606.4724 L662.0223,607.7074 L661.7263,608.9374 L661.4093,610.1624 L661.0713,611.3814 L660.7123,612.5934 L660.3313,613.8004 L659.9303,615.0004 L659.5083,616.1924 L659.0653,617.3774 L658.6023,618.5544 L658.1173,619.7224 L657.6133,620.8824 L657.0883,622.0334 L656.5443,623.1754 L655.9803,624.3074 L655.3963,625.4294 L654.7923,626.5414 L654.1693,627.6424 L653.5263,628.7324 L652.8653,629.8104 L652.1873,630.8774 L651.4883,631.9324 L650.7723,632.9754 L650.0373,634.0054 L649.2843,635.0214 L648.5153,636.0254 L647.7273,637.0154 L646.9223,637.9914 L646.1013,638.9534 L645.2633,639.9004 L644.4083,640.8334 L643.5373,641.7504 L642.6503,642.6534 L641.7483,643.5394 L640.8313,644.4104 L639.8993,645.2644 L638.9513,646.1034 L637.9893,646.9244 L637.0133,647.7294 L636.0233,648.5164 L635.0203,649.2864 L634.0033,650.0394 L632.9733,650.7734 L631.9303,651.4904 L630.8753,652.1884 L629.8093,652.8684 L628.7303,653.5284 L627.6403,654.1714 L626.5393,654.7944 L625.4283,655.3974 L624.3063,655.9814 L623.1733,656.5464 L622.0313,657.0904 L620.8813,657.6154 L619.7213,658.1194 L618.5523,658.6034 L617.3753,659.0674 L616.1913,659.5104 L614.9983,659.9324 L613.7983,660.3344 L612.5923,660.7144 L611.3793,661.0734 L610.1603,661.4114 L608.9363,661.7284 L607.7053,662.0234 L606.4703,662.2974 L605.2313,662.5494 L603.9863,662.7794 L602.7393,662.9884 L601.4883,663.1754 L600.2343,663.3414 L598.9783,663.4844 L597.7183,663.6054 L596.4573,663.7044 L595.1943,663.7814 L593.9313,663.8374 L592.6663,663.8704 L591.4013,663.8814 L590.1373,663.8704 L588.8723,663.8374 L587.6083,663.7814 L586.3463,663.7044 L585.0843,663.6054 L583.8253,663.4844 L582.5683,663.3414 L581.3153,663.1754 L580.0643,662.9884 L578.8163,662.7794 L577.5723,662.5494 L576.3323,662.2974 L575.0983,662.0234 L573.8673,661.7284 L572.6433,661.4114 L571.4243,661.0734 L570.2113,660.7144 L569.0043,660.3344 L567.8053,659.9324 L566.6123,659.5104 L565.4283,659.0674 L564.2513,658.6034 L563.0823,658.1194 L561.9223,657.6154 L560.7713,657.0904 L559.6293,656.5464 L558.4973,655.9814 L557.3753,655.3974 L556.2643,654.7944 L555.1623,654.1714 L554.0723,653.5284 L552.9943,652.8684 L551.9273,652.1884 L550.8723,651.4904 L549.8303,650.7734 L548.8003,650.0394 L547.7833,649.2864 L546.7793,648.5164 L545.7893,647.7294 L544.8143,646.9244 L543.8523,646.1034 L542.9043,645.2644 L541.9723,644.4104 L541.0543,643.5394 L540.1513,642.6534 L539.2653,641.7504 L538.3953,640.8334 L537.5403,639.9004 L536.7013,638.9534 L535.8803,637.9914 L535.0753,637.0154 L534.2883,636.0254 L533.5183,635.0214 L532.7663,634.0054 L532.0313,632.9754 L531.3153,631.9324 L530.6163,630.8774 L529.9373,629.8104 L529.2753,628.7324 L528.6343,627.6424 L528.0113,626.5414 L527.4073,625.4294 L526.8233,624.3074 L526.2593,623.1754 L525.7143,622.0334 L525.1903,620.8824 L524.6863,619.7224 L524.2013,618.5544 L523.7373,617.3774 L523.2953,616.1924 L522.8723,615.0004 L522.4713,613.8004 L522.0913,612.5934 L521.7323,611.3814 L521.3943,610.1624 L521.0763,608.9374 L520.7813,607.7074 L520.5083,606.4724 L520.2553,605.2334 L520.0253,603.9894 L519.8163,602.7414 L519.6293,601.4904 L519.4643,600.2364 L519.3203,598.9794 L519.1993,597.7204 L519.1003,596.4594 L519.0233,595.1964 L518.9683,593.9334 L518.9353,592.6684 L518.9243,591.4034 L518.9353,590.1384 L518.9683,588.8744 L519.0233,587.6104 L519.1003,586.3474 L519.1993,585.0864 L519.3203,583.8274 L519.4643,582.5704 L519.6293,581.3164 L519.8163,580.0654 L520.0253,578.8184 L520.2553,577.5744 L520.5083,576.3344 L520.7813,575.0994 L521.0763,573.8694 L521.3943,572.6454 L521.7323,571.4254 L522.0913,570.2134 L522.4713,569.0074 L522.8723,567.8074 L523.2953,566.6144 L523.7373,565.4294 L524.2013,564.2534 L524.6863,563.0844 L525.1903,561.9244 L525.7143,560.7734 L526.2593,559.6314 L526.8233,558.4994 L527.4073,557.3774 L528.0113,556.2654 L528.6343,555.1644 L529.2753,554.0744 L529.9373,552.9964 L530.6163,551.9294 L531.3153,550.8744 L532.0313,549.8324 L532.7663,548.8024 L533.5183,547.7854 L534.2883,546.7814 L535.0753,545.7924 L535.8803,544.8164 L536.7013,543.8544 L537.5403,542.9064 L538.3953,541.9734 L539.2653,541.0564 L540.1513,540.1534 L541.0543,539.2674 L541.9723,538.3964 L542.9043,537.5424 L543.8523,536.7034 L544.8143,535.8824 L545.7893,535.0774 L546.7793,534.2904 L547.7833,533.5204 L548.8003,532.7674 L549.8303,532.0334 L550.8723,531.3174 L551.9273,530.6184 L552.9943,529.9394 L554.0723,529.2784 L555.1623,528.6354 L556.2643,528.0134 L557.3753,527.4094 L558.4973,526.8254 L559.6293,526.2604 L560.7713,525.7164 L561.9223,525.1924 L563.0823,524.6874 L564.2513,524.2034 L565.4283,523.7394 L566.6123,523.2974 L567.8053,522.8744 L569.0043,522.4734 L570.2113,522.0924 L571.4243,521.7334 L572.6433,521.3954 L573.8673,521.0784 L575.0983,520.7834 L576.3323,520.5094 L577.5723,520.2574 L578.8163,520.0274 L580.0643,519.8184 L581.3153,519.6314 L582.5683,519.4654 L583.8253,519.3224 L585.0843,519.2014 L586.3463,519.1024 L587.6083,519.0254 L588.8723,518.9694 L590.1373,518.9374 L591.4013,518.9254 L592.6663,518.9374 L593.9313,518.9694 L595.1943,519.0254 L596.4573,519.1024 L597.7183,519.2014 L598.9783,519.3224 L600.2343,519.4654 L601.4883,519.6314 L602.7393,519.8184 L603.9863,520.0274 L605.2313,520.2574 L606.4703,520.5094 L607.7053,520.7834 L608.9363,521.0784 L610.1603,521.3954 L611.3793,521.7334 L612.5923,522.0924 L613.7983,522.4734 L614.9983,522.8744 L616.1913,523.2974 L617.3753,523.7394 L618.5523,524.2034 L619.7213,524.6874 L620.8813,525.1924 L622.0313,525.7164 L623.1733,526.2604 L624.3063,526.8254 L625.4283,527.4094 L626.5393,528.0134 L627.6403,528.6354 L628.7303,529.2784 L629.8093,529.9394 L630.8753,530.6184 L631.9303,531.3174 L632.9733,532.0334 L634.0033,532.7674 L635.0203,533.5204 L636.0233,534.2904 L637.0133,535.0774 L637.9893,535.8824 L638.9513,536.7034 L639.8993,537.5424 L640.8313,538.3964 L641.7483,539.2674 L642.6503,540.1534 L643.5373,541.0564 L644.4083,541.9734 L645.2633,542.9064 L646.1013,543.8544 L646.9223,544.8164 L647.7273,545.7924 L648.5153,546.7814 L649.2843,547.7854 L650.0373,548.8024 L650.7723,549.8324 L651.4883,550.8744 L652.1873,551.9294 L652.8653,552.9964 L653.5263,554.0744 L654.1693,555.1644 L654.7923,556.2654 L655.3963,557.3774 L655.9803,558.4994 L656.5443,559.6314 L657.0883,560.7734 L657.6133,561.9244 L658.1173,563.0844 L658.6023,564.2534 L659.0653,565.4294 L659.5083,566.6144 L659.9303,567.8074 L660.3313,569.0074 L660.7123,570.2134 L661.0713,571.4254 L661.4093,572.6454 L661.7263,573.8694 L662.0223,575.0994 L662.2953,576.3344 L662.5473,577.5744 L662.7773,578.8184 L662.9863,580.0654 L663.1743,581.3164 L663.3393,582.5704 L663.4823,583.8274 L663.6043,585.0864 L663.7023,586.3474 L663.7793,587.6104 L663.8353,588.8744 L663.8683,590.1384 L663.8793,591.4034 Z" id="Stroke-9" stroke-dasharray="37.31,37.31,16.582,37.31,82.911,82.911"></path>
                <path d="M797.9819,591.4034 L797.9489,595.0084 L797.8529,598.6124 L797.6919,602.2154 L797.4679,605.8134 L797.1799,609.4064 L796.8299,612.9944 L796.4149,616.5754 L795.9379,620.1494 L795.3979,623.7134 L794.7949,627.2674 L794.1309,630.8104 L793.4059,634.3414 L792.6189,637.8584 L791.7699,641.3614 L790.8609,644.8484 L789.8909,648.3194 L788.8619,651.7734 L787.7719,655.2084 L786.6229,658.6234 L785.4149,662.0184 L784.1469,665.3914 L782.8219,668.7424 L781.4379,672.0694 L779.9969,675.3714 L778.4979,678.6474 L776.9419,681.8974 L775.3309,685.1204 L773.6639,688.3144 L771.9419,691.4784 L770.1659,694.6124 L768.3359,697.7164 L766.4519,700.7864 L764.5149,703.8244 L762.5269,706.8284 L760.4869,709.7984 L758.3949,712.7314 L756.2529,715.6284 L754.0629,718.4884 L751.8229,721.3094 L749.5339,724.0914 L747.1969,726.8344 L744.8129,729.5354 L742.3819,732.1954 L739.9069,734.8134 L737.3839,737.3864 L734.8189,739.9164 L732.2089,742.4004 L729.5549,744.8394 L726.8609,747.2314 L724.1239,749.5754 L721.3469,751.8724 L718.5299,754.1204 L715.6739,756.3184 L712.7799,758.4664 L709.8489,760.5644 L706.8809,762.6104 L703.8789,764.6034 L700.8419,766.5444 L697.7709,768.4314 L694.6679,770.2654 L691.5329,772.0444 L688.3669,773.7684 L685.1699,775.4364 L681.9469,777.0474 L678.6939,778.6024 L675.4149,780.1004 L672.1099,781.5404 L668.7799,782.9214 L665.4259,784.2444 L662.0499,785.5074 L658.6519,786.7124 L655.2329,787.8554 L651.7949,788.9394 L648.3369,789.9614 L644.8629,790.9224 L641.3719,791.8214 L637.8649,792.6584 L634.3439,793.4334 L630.8109,794.1454 L627.2649,794.7954 L623.7089,795.3824 L620.1429,795.9064 L616.5679,796.3674 L612.9859,796.7664 L609.3979,797.1014 L605.8039,797.3744 L602.2079,797.5834 L598.6069,797.7304 L595.0039,797.8154 L591.4019,797.8374 L587.7989,797.7964 L584.1979,797.6934 L580.5989,797.5284 L577.0029,797.3014 L573.4139,797.0124 L569.8289,796.6614 L566.2499,796.2494 L562.6789,795.7764 L559.1169,795.2414 L555.5649,794.6464 L552.0229,793.9894 L548.4929,793.2724 L544.9759,792.4944 L541.4729,791.6564 L537.9849,790.7574 L534.5119,789.7994 L531.0569,788.7804 L527.6209,787.7014 L524.2029,786.5634 L520.8049,785.3654 L517.4289,784.1084 L514.0759,782.7924 L510.7459,781.4184 L507.4399,779.9854 L504.1599,778.4944 L500.9059,776.9464 L497.6799,775.3424 L494.4829,773.6814 L491.3149,771.9644 L488.1779,770.1924 L485.0729,768.3654 L481.9999,766.4844 L478.9599,764.5494 L475.9549,762.5614 L472.9849,760.5214 L470.0509,758.4284 L467.1549,756.2854 L464.2959,754.0904 L461.4769,751.8464 L458.6979,749.5534 L455.9599,747.2124 L453.2619,744.8224 L450.6079,742.3864 L447.9969,739.9044 L445.4279,737.3764 L442.9059,734.8044 L440.4279,732.1884 L437.9979,729.5294 L435.6139,726.8284 L433.2769,724.0864 L430.9889,721.3034 L428.7499,718.4814 L426.5599,715.6204 L424.4209,712.7224 L422.3329,709.7864 L420.2959,706.8154 L418.3119,703.8094 L416.3789,700.7694 L414.5019,697.6954 L412.6759,694.5904 L410.9059,691.4544 L409.1899,688.2874 L407.5299,685.0914 L405.9249,681.8664 L404.3779,678.6144 L402.8859,675.3364 L401.4519,672.0324 L400.0759,668.7044 L398.7569,665.3524 L397.4979,661.9794 L396.2959,658.5834 L395.1539,655.1684 L394.0709,651.7334 L393.0479,648.2804 L392.0859,644.8104 L391.1819,641.3234 L390.3389,637.8224 L389.5579,634.3064 L388.8369,630.7784 L388.1759,627.2374 L387.5769,623.6864 L387.0389,620.1254 L386.5609,616.5544 L386.1449,612.9764 L385.7919,609.3924 L385.4989,605.8014 L385.2679,602.2064 L385.0999,598.6074 L384.9939,595.0064 L384.9499,591.4034 L384.9689,587.8004 L385.0509,584.1974 L385.1959,580.5964 L385.4039,576.9984 L385.6749,573.4044 L386.0099,569.8164 L386.4079,566.2334 L386.8689,562.6584 L387.3929,559.0914 L387.9809,555.5354 L388.6319,551.9894 L389.3469,548.4554 L390.1249,544.9354 L390.9649,541.4294 L391.8689,537.9384 L392.8339,534.4654 L393.8619,531.0094 L394.9509,527.5724 L396.1019,524.1564 L397.3129,520.7604 L398.5849,517.3874 L399.9159,514.0384 L401.3059,510.7134 L402.7549,507.4124 L404.2609,504.1384 L405.8249,500.8914 L407.4449,497.6734 L409.1209,494.4834 L410.8509,491.3224 L412.6359,488.1934 L414.4749,485.0954 L416.3679,482.0294 L418.3109,478.9974 L420.3069,475.9994 L422.3549,473.0354 L424.4519,470.1074 L426.5989,467.2164 L428.7959,464.3624 L431.0419,461.5464 L433.3349,458.7694 L435.6749,456.0324 L438.0629,453.3374 L440.4979,450.6824 L442.9759,448.0704 L445.5009,445.5024 L448.0689,442.9784 L450.6809,440.4984 L453.3349,438.0654 L456.0309,435.6774 L458.7669,433.3364 L461.5449,431.0434 L464.3599,428.7974 L467.2139,426.6004 L470.1049,424.4534 L473.0339,422.3564 L475.9969,420.3084 L478.9959,418.3134 L482.0279,416.3684 L485.0929,414.4764 L488.1909,412.6384 L491.3209,410.8534 L494.4809,409.1224 L497.6709,407.4464 L500.8899,405.8264 L504.1359,404.2634 L507.4109,402.7574 L510.7109,401.3084 L514.0369,399.9174 L517.3859,398.5864 L520.7589,397.3154 L524.1549,396.1034 L527.5709,394.9524 L531.0069,393.8634 L534.4629,392.8354 L537.9369,391.8704 L541.4269,390.9664 L544.9329,390.1264 L548.4539,389.3484 L551.9879,388.6344 L555.5329,387.9834 L559.0899,387.3954 L562.6569,386.8704 L566.2319,386.4094 L569.8139,386.0114 L573.4029,385.6774 L576.9969,385.4054 L580.5949,385.1974 L584.1959,385.0534 L587.7979,384.9714 L591.4019,384.9514 L595.0039,384.9954 L598.6059,385.1014 L602.2049,385.2704 L605.7999,385.5004 L609.3899,385.7934 L612.9749,386.1474 L616.5529,386.5624 L620.1239,387.0394 L623.6839,387.5774 L627.2359,388.1764 L630.7769,388.8364 L634.3059,389.5554 L637.8219,390.3354 L641.3249,391.1744 L644.8119,392.0734 L648.2839,393.0324 L651.7389,394.0494 L655.1759,395.1264 L658.5939,396.2614 L661.9929,397.4554 L665.3709,398.7084 L668.7259,400.0194 L672.0579,401.3884 L675.3669,402.8154 L678.6499,404.2994 L681.9069,405.8414 L685.1349,407.4404 L688.3359,409.0964 L691.5069,410.8084 L694.6479,412.5764 L697.7559,414.4004 L700.8319,416.2784 L703.8739,418.2114 L706.8799,420.1984 L709.8519,422.2384 L712.7869,424.3314 L715.6829,426.4764 L718.5419,428.6724 L721.3599,430.9184 L724.1379,433.2144 L726.8759,435.5584 L729.5719,437.9504 L732.2239,440.3894 L734.8339,442.8754 L737.3989,445.4064 L739.9189,447.9814 L742.3939,450.6004 L744.8229,453.2624 L747.2049,455.9664 L749.5389,458.7104 L751.8249,461.4954 L754.0619,464.3194 L756.2509,467.1814 L758.3879,470.0804 L760.4759,473.0164 L762.5119,475.9874 L764.4969,478.9944 L766.4289,482.0344 L768.3089,485.1074 L770.1349,488.2114 L771.9079,491.3474 L773.6269,494.5124 L775.2909,497.7074 L776.8989,500.9304 L778.4519,504.1804 L779.9489,507.4574 L781.3889,510.7584 L782.7729,514.0844 L784.0999,517.4334 L785.3689,520.8054 L786.5809,524.1984 L787.7329,527.6114 L788.8269,531.0444 L789.8609,534.4964 L790.8359,537.9654 L791.7489,541.4514 L792.6019,544.9524 L793.3929,548.4684 L794.1229,551.9984 L794.7909,555.5404 L795.3949,559.0944 L795.9369,562.6574 L796.4169,566.2314 L796.8319,569.8124 L797.1829,573.4004 L797.4709,576.9934 L797.6949,580.5924 L797.8539,584.1944 L797.9499,587.7984 L797.9819,591.4034 Z" id="Stroke-10" stroke-dasharray="62.183,41.455,39.383,24.873,41.455,20.728"></path>
                <path d="M844.0102,591.4034 L843.9662,595.8124 L843.8382,600.2184 L843.6272,604.6224 L843.3352,609.0204 L842.9602,613.4124 L842.5062,617.7954 L841.9712,622.1694 L841.3582,626.5324 L840.6652,630.8824 L839.8972,635.2194 L839.0522,639.5424 L838.1322,643.8474 L837.1382,648.1364 L836.0712,652.4064 L834.9292,656.6564 L833.7162,660.8864 L832.4312,665.0934 L831.0732,669.2774 L829.6452,673.4374 L828.1452,677.5704 L826.5732,681.6774 L824.9332,685.7564 L823.2222,689.8054 L821.4422,693.8244 L819.5942,697.8114 L817.6782,701.7664 L815.6972,705.6874 L813.6482,709.5744 L811.5342,713.4254 L809.3582,717.2404 L807.1172,721.0184 L804.8152,724.7584 L802.4502,728.4604 L800.0252,732.1214 L797.5392,735.7424 L794.9942,739.3224 L792.3912,742.8604 L789.7292,746.3534 L787.0082,749.8024 L784.2312,753.2064 L781.3962,756.5634 L778.5052,759.8724 L775.5572,763.1314 L772.5542,766.3404 L769.4942,769.4964 L766.3822,772.6004 L763.2142,775.6504 L759.9942,778.6454 L756.7232,781.5834 L753.4002,784.4654 L750.0262,787.2884 L746.6032,790.0524 L743.1322,792.7574 L739.6142,795.4004 L736.0492,797.9814 L732.4392,800.5004 L728.7842,802.9544 L725.0872,805.3444 L721.3472,807.6694 L717.5672,809.9274 L713.7462,812.1184 L709.8872,814.2414 L705.9892,816.2964 L702.0572,818.2804 L698.0882,820.1944 L694.0862,822.0374 L690.0512,823.8084 L685.9852,825.5064 L681.8882,827.1304 L677.7632,828.6794 L673.6102,830.1534 L669.4302,831.5504 L665.2252,832.8704 L660.9972,834.1124 L656.7462,835.2754 L652.4762,836.3584 L648.1862,837.3614 L643.8772,838.2834 L639.5542,839.1254 L635.2162,839.8864 L630.8652,840.5684 L626.5032,841.1684 L622.1332,841.6894 L617.7542,842.1324 L613.3692,842.4954 L608.9802,842.7814 L604.5862,842.9894 L600.1922,843.1224 L595.7962,843.1794 L591.4022,843.1624 L587.0092,843.0704 L582.6182,842.9054 L578.2342,842.6684 L573.8532,842.3594 L569.4792,841.9784 L565.1132,841.5274 L560.7542,841.0054 L556.4062,840.4134 L552.0672,839.7524 L547.7392,839.0214 L543.4252,838.2214 L539.1232,837.3514 L534.8372,836.4124 L530.5662,835.4024 L526.3122,834.3224 L522.0752,833.1724 L517.8592,831.9494 L513.6632,830.6554 L509.4902,829.2894 L505.3422,827.8504 L501.2182,826.3404 L497.1212,824.7564 L493.0522,823.0994 L489.0142,821.3704 L485.0062,819.5704 L481.0312,817.6974 L477.0892,815.7544 L473.1832,813.7394 L469.3132,811.6564 L465.4812,809.5044 L461.6882,807.2834 L457.9352,804.9954 L454.2232,802.6394 L450.5542,800.2184 L446.9292,797.7314 L443.3502,795.1784 L439.8172,792.5634 L436.3322,789.8834 L432.8962,787.1414 L429.5102,784.3384 L426.1752,781.4754 L422.8922,778.5524 L419.6622,775.5714 L416.4872,772.5334 L413.3652,769.4394 L410.3012,766.2904 L407.2932,763.0874 L404.3422,759.8334 L401.4492,756.5274 L398.6152,753.1704 L395.8412,749.7654 L393.1272,746.3124 L390.4752,742.8124 L387.8842,739.2674 L385.3562,735.6784 L382.8902,732.0464 L380.4882,728.3724 L378.1502,724.6574 L375.8772,720.9034 L373.6692,717.1114 L371.5272,713.2824 L369.4502,709.4174 L367.4412,705.5174 L365.4982,701.5834 L363.6242,697.6174 L361.8192,693.6204 L360.0812,689.5934 L358.4122,685.5374 L356.8152,681.4534 L355.2862,677.3424 L353.8282,673.2064 L352.4412,669.0464 L351.1232,664.8634 L349.8772,660.6594 L348.7012,656.4344 L347.5972,652.1914 L346.5632,647.9294 L345.5992,643.6504 L344.7052,639.3564 L343.8822,635.0484 L343.1282,630.7264 L342.4462,626.3924 L341.8322,622.0474 L341.2892,617.6914 L340.8172,613.3264 L340.4152,608.9544 L340.0852,604.5744 L339.8282,600.1884 L339.6462,595.7984 L339.5372,591.4034 L339.5042,587.0064 L339.5472,582.6084 L339.6682,578.2104 L339.8672,573.8144 L340.1462,569.4214 L340.5042,565.0334 L340.9432,560.6514 L341.4632,556.2774 L342.0672,551.9124 L342.7522,547.5604 L343.5222,543.2204 L344.3762,538.8964 L345.3142,534.5904 L346.3362,530.3014 L347.4442,526.0354 L348.6342,521.7914 L349.9072,517.5714 L351.2642,513.3784 L352.7012,509.2124 L354.2192,505.0764 L355.8152,500.9704 L357.4882,496.8964 L359.2362,492.8554 L361.0572,488.8474 L362.9512,484.8754 L364.9152,480.9384 L366.9482,477.0384 L369.0462,473.1744 L371.2102,469.3494 L373.4382,465.5624 L375.7272,461.8134 L378.0772,458.1034 L380.4882,454.4344 L382.9552,450.8044 L385.4812,447.2164 L388.0642,443.6704 L390.7022,440.1664 L393.3972,436.7054 L396.1472,433.2894 L398.9502,429.9184 L401.8102,426.5934 L404.7232,423.3174 L407.6902,420.0894 L410.7102,416.9124 L413.7832,413.7854 L416.9092,410.7114 L420.0862,407.6904 L423.3142,404.7234 L426.5902,401.8094 L429.9142,398.9504 L433.2842,396.1454 L436.7002,393.3964 L440.1612,390.7014 L443.6652,388.0624 L447.2122,385.4804 L450.8012,382.9544 L454.4312,380.4864 L458.1012,378.0774 L461.8102,375.7274 L465.5592,373.4384 L469.3472,371.2114 L473.1732,369.0474 L477.0362,366.9484 L480.9372,364.9164 L484.8732,362.9534 L488.8462,361.0594 L492.8532,359.2374 L496.8942,357.4894 L500.9682,355.8164 L505.0742,354.2204 L509.2102,352.7034 L513.3762,351.2664 L517.5702,349.9094 L521.7892,348.6364 L526.0332,347.4454 L530.3002,346.3384 L534.5882,345.3164 L538.8952,344.3784 L543.2192,343.5244 L547.5582,342.7544 L551.9102,342.0684 L556.2752,341.4654 L560.6492,340.9454 L565.0312,340.5064 L569.4192,340.1484 L573.8132,339.8694 L578.2082,339.6704 L582.6072,339.5494 L587.0042,339.5064 L591.4022,339.5394 L595.7962,339.6484 L600.1872,339.8314 L604.5732,340.0874 L608.9522,340.4174 L613.3242,340.8184 L617.6902,341.2914 L622.0452,341.8344 L626.3902,342.4464 L630.7242,343.1284 L635.0472,343.8784 L639.3572,344.6954 L643.6542,345.5784 L647.9352,346.5284 L652.2022,347.5454 L656.4532,348.6274 L660.6872,349.7754 L664.9042,350.9904 L669.1002,352.2724 L673.2772,353.6204 L677.4322,355.0374 L681.5642,356.5234 L685.6712,358.0774 L689.7532,359.7024 L693.8072,361.3974 L697.8312,363.1634 L701.8242,365.0024 L705.7852,366.9124 L709.7112,368.8954 L713.6002,370.9514 L717.4502,373.0804 L721.2612,375.2814 L725.0292,377.5544 L728.7532,379.8994 L732.4332,382.3154 L736.0662,384.8014 L739.6512,387.3564 L743.1862,389.9794 L746.6702,392.6684 L750.1042,395.4234 L753.4852,398.2404 L756.8122,401.1204 L760.0862,404.0604 L763.3052,407.0594 L766.4692,410.1154 L769.5772,413.2274 L772.6292,416.3944 L775.6232,419.6134 L778.5612,422.8844 L781.4412,426.2054 L784.2612,429.5744 L787.0242,432.9914 L789.7272,436.4554 L792.3702,439.9634 L794.9542,443.5134 L797.4782,447.1074 L799.9422,450.7414 L802.3442,454.4154 L804.6862,458.1294 L806.9652,461.8794 L809.1832,465.6674 L811.3372,469.4904 L813.4292,473.3494 L815.4592,477.2404 L817.4252,481.1644 L819.3272,485.1194 L821.1662,489.1054 L822.9422,493.1204 L824.6542,497.1634 L826.3002,501.2344 L827.8822,505.3314 L829.3982,509.4544 L830.8462,513.6034 L832.2272,517.7764 L833.5382,521.9714 L834.7792,526.1904 L835.9472,530.4314 L837.0412,534.6934 L838.0602,538.9744 L839.0022,543.2754 L839.8662,547.5924 L840.6522,551.9264 L841.3562,556.2754 L841.9782,560.6364 L842.5192,565.0094 L842.9762,569.3934 L843.3512,573.7854 L843.6412,578.1844 L843.8482,582.5884 L843.9712,586.9944 L844.0102,591.4034 Z" id="Stroke-11" stroke-dasharray="37.31,37.31,16.582,37.31,82.911,82.911"></path>
                <path d="M1047.0825,591.4034 L1046.7685,599.3524 L1046.0515,607.2804 L1044.9535,615.1734 L1043.4975,623.0174 L1041.7075,630.8004 L1039.6135,638.5124 L1037.2465,646.1464 L1034.6375,653.6964 L1031.8165,661.1584 L1028.8165,668.5314 L1025.6675,675.8164 L1022.3945,683.0134 L1019.0225,690.1274 L1015.5745,697.1614 L1012.0585,704.1184 L1008.4895,711.0014 L1004.8615,717.8114 L1001.1715,724.5464 L997.4175,731.2064 L993.5985,737.7914 L989.7105,744.2994 L985.7585,750.7344 L981.7445,757.0944 L977.6775,763.3844 L973.5645,769.6094 L969.4165,775.7734 L965.2455,781.8864 L961.0625,787.9554 L956.8805,793.9914 L952.7095,800.0044 L948.5595,806.0054 L944.4365,812.0044 L940.3485,818.0124 L936.2955,824.0374 L932.2755,830.0864 L928.2885,836.1664 L924.3255,842.2794 L920.3765,848.4264 L916.4305,854.6064 L912.4715,860.8124 L908.4825,867.0384 L904.4485,873.2724 L900.3475,879.5004 L896.1605,885.7054 L891.8675,891.8704 L887.4995,898.0214 L883.0065,904.1114 L878.3995,910.1474 L873.6775,916.1244 L868.8355,922.0364 L863.8715,927.8764 L858.7855,933.6384 L853.5725,939.3174 L848.2345,944.9034 L842.7675,950.3924 L837.1735,955.7744 L831.4485,961.0434 L825.5955,966.1914 L819.6125,971.2114 L813.5035,976.0944 L807.2675,980.8344 L800.9055,985.4234 L794.4215,989.8514 L787.8155,994.1114 L781.0915,998.1954 L774.2505,1002.0894 L767.2955,1005.7844 L760.2285,1009.2654 L753.0525,1012.5184 L745.7685,1015.5254 L738.3835,1018.2684 L730.8975,1020.7294 L723.3195,1022.8884 L715.6545,1024.7264 L707.9125,1026.2284 L700.0995,1027.3634 L692.2295,1028.1394 L684.3195,1028.5504 L676.3855,1028.6044 L668.4405,1028.3154 L660.5045,1027.6984 L652.5895,1026.7784 L644.7125,1025.5804 L636.8835,1024.1334 L629.1145,1022.4684 L621.4155,1020.6204 L613.7915,1018.6224 L606.2465,1016.5094 L598.7835,1014.3184 L591.4015,1012.0794 L584.0985,1009.8254 L576.8685,1007.5864 L569.7055,1005.3864 L562.6025,1003.2494 L555.5495,1001.1954 L548.5355,999.2424 L541.5505,997.4064 L534.5815,995.6994 L527.6165,994.1264 L520.6445,992.6864 L513.6555,991.3714 L506.6425,990.1684 L499.5965,989.0564 L492.5165,988.0124 L485.4005,987.0054 L478.2515,986.0054 L471.0735,984.9794 L463.8735,983.8944 L456.6595,982.7214 L449.4435,981.4304 L442.2345,979.9974 L435.0455,978.3994 L427.8865,976.6214 L420.7695,974.6514 L413.7025,972.4814 L406.6945,970.1094 L399.7515,967.5384 L392.8775,964.7724 L386.0825,961.8094 L379.3715,958.6504 L372.7445,955.3104 L366.2095,951.7854 L359.7775,948.0734 L353.4565,944.1714 L347.2565,940.0784 L341.1865,935.7954 L335.2535,931.3234 L329.4645,926.6684 L323.8255,921.8324 L318.3415,916.8234 L313.0165,911.6504 L307.8505,906.3204 L302.8445,900.8434 L297.9965,895.2334 L293.3065,889.4994 L288.7675,883.6544 L284.3955,877.6914 L280.1465,871.6584 L276.0485,865.5354 L272.0945,859.3344 L268.2795,853.0624 L264.5995,846.7294 L261.0485,840.3424 L257.6205,833.9094 L254.3105,827.4384 L251.1095,820.9334 L248.0145,814.4024 L245.0175,807.8484 L242.1115,801.2784 L239.2935,794.6934 L236.5565,788.0974 L233.8955,781.4924 L231.3085,774.8804 L228.7905,768.2604 L226.3415,761.6344 L223.9565,755.0004 L221.6365,748.3594 L219.3785,741.7104 L217.1805,735.0534 L215.0365,728.3894 L212.9405,721.7174 L210.8845,715.0414 L208.8545,708.3604 L206.8395,701.6744 L204.8225,694.9864 L202.7905,688.2954 L200.7255,681.5984 L198.6095,674.8944 L196.4275,668.1784 L194.1605,661.4474 L191.7945,654.6954 L189.3175,647.9124 L186.7245,641.0914 L184.0115,634.2214 L181.1905,627.2924 L178.2845,620.2914 L175.3165,613.2094 L172.3205,606.0384 L169.3275,598.7714 L166.3755,591.4034 L163.5015,583.9344 L160.7455,576.3644 L158.1475,568.6974 L155.7495,560.9394 L153.5885,553.0994 L151.7015,545.1894 L150.1275,537.2214 L148.9045,529.2144 L148.0725,521.1874 L147.6705,513.1614 L147.7285,505.1624 L148.2785,497.2154 L149.3405,489.3454 L150.9255,481.5804 L153.0395,473.9454 L155.6775,466.4614 L158.8265,459.1524 L162.4675,452.0344 L166.5705,445.1224 L171.1005,438.4264 L176.0185,431.9534 L181.2795,425.7034 L186.8355,419.6754 L192.6335,413.8604 L198.6255,408.2494 L204.7595,402.8254 L210.9865,397.5724 L217.2605,392.4694 L223.5335,387.4914 L229.7755,382.6184 L235.9475,377.8254 L242.0235,373.0884 L247.9815,368.3844 L253.8075,363.6934 L259.4905,358.9974 L265.0305,354.2814 L270.4325,349.5354 L275.7035,344.7534 L280.8595,339.9324 L285.9195,335.0734 L290.9025,330.1844 L295.8315,325.2714 L300.7285,320.3454 L305.6105,315.4184 L310.4955,310.4974 L315.3925,305.5874 L320.2985,300.6804 L325.2045,295.7614 L330.1025,290.8134 L334.9805,285.8134 L339.8325,280.7404 L344.6505,275.5764 L349.4355,270.3024 L354.1865,264.9034 L358.9095,259.3704 L363.6155,253.6974 L368.3185,247.8864 L373.0345,241.9444 L377.7835,235.8844 L382.5885,229.7274 L387.4705,223.5014 L392.4555,217.2394 L397.5635,210.9754 L402.8205,204.7544 L408.2455,198.6244 L413.8585,192.6344 L419.6735,186.8364 L425.7015,181.2814 L431.9515,176.0214 L438.4255,171.1034 L445.1205,166.5724 L452.0325,162.4694 L459.1495,158.8284 L466.4595,155.6794 L473.9425,153.0414 L481.5785,150.9274 L489.3445,149.3424 L497.2135,148.2814 L505.1605,147.7314 L513.1595,147.6724 L521.1845,148.0744 L529.2125,148.9064 L537.2205,150.1304 L545.1865,151.7034 L553.0985,153.5904 L560.9375,155.7514 L568.6955,158.1504 L576.3625,160.7474 L583.9335,163.5034 L591.4015,166.3774 L598.7685,169.3294 L606.0365,172.3224 L613.2075,175.3194 L620.2895,178.2864 L627.2905,181.1934 L634.2205,184.0134 L641.0905,186.7214 L647.9145,189.2924 L654.7085,191.6984 L661.4895,193.9144 L668.2755,195.9204 L675.0855,197.7014 L681.9365,199.2524 L688.8475,200.5724 L695.8295,201.6744 L702.8965,202.5724 L710.0595,203.2944 L717.3185,203.8684 L724.6805,204.3344 L732.1395,204.7304 L739.6885,205.1024 L747.3175,205.4984 L755.0115,205.9644 L762.7495,206.5504 L770.5105,207.3034 L778.2685,208.2684 L785.9985,209.4854 L793.6715,210.9904 L801.2565,212.8154 L808.7265,214.9864 L816.0545,217.5194 L823.2125,220.4294 L830.1785,223.7204 L836.9315,227.3914 L843.4535,231.4354 L849.7345,235.8384 L855.7645,240.5824 L861.5385,245.6434 L867.0585,250.9964 L872.3265,256.6094 L877.3535,262.4534 L882.1495,268.4944 L886.7305,274.7024 L891.0935,281.0644 L895.2665,287.5384 L899.2605,294.1074 L903.0885,300.7514 L906.7635,307.4504 L910.3025,314.1874 L913.7245,320.9434 L917.0465,327.7014 L920.2895,334.4484 L923.4735,341.1694 L926.6175,347.8554 L929.7395,354.4964 L932.8575,361.0884 L935.9835,367.6294 L939.1315,374.1174 L942.3075,380.5584 L945.5165,386.9554 L948.7595,393.3174 L952.0635,399.6354 L955.4875,405.8924 L958.9915,412.1174 L962.6015,418.3104 L966.3405,424.4704 L970.2235,430.6034 L974.2595,436.7184 L978.4505,442.8294 L982.7885,448.9504 L987.2575,455.0994 L991.8345,461.2954 L996.4875,467.5564 L1001.1795,473.9014 L1005.8665,480.3474 L1010.5035,486.9094 L1015.0395,493.5984 L1019.4265,500.4244 L1023.6145,507.3894 L1027.5585,514.4974 L1031.2155,521.7434 L1034.5495,529.1234 L1037.5295,536.6264 L1040.1325,544.2394 L1042.3385,551.9514 L1044.1335,559.7454 L1045.5095,567.6044 L1046.4605,575.5124 L1046.9835,583.4514 L1047.0825,591.4034 Z" id="Stroke-12" stroke-dasharray="62.183,41.455,39.383,24.873,41.455,20.728"></path>
                <path d="M1200.5005,590.5269 L1199.7815,601.1619 L1198.2105,611.7479 L1195.8355,622.2499 L1192.7135,632.6359 L1188.9115,642.8789 L1184.5025,652.9569 L1179.5635,662.8519 L1174.1735,672.5529 L1168.4145,682.0559 L1162.3625,691.3579 L1156.0955,700.4629 L1149.6795,709.3789 L1143.1755,718.1159 L1136.6385,726.6879 L1130.0925,735.1039 L1123.5735,743.3759 L1117.0635,751.5059 L1110.5595,759.4959 L1104.0495,767.3479 L1097.5295,775.0619 L1090.9965,782.6399 L1084.4545,790.0879 L1077.9125,797.4109 L1071.3865,804.6199 L1064.8975,811.7309 L1058.4715,818.7599 L1052.1375,825.7299 L1045.9225,832.6659 L1039.8555,839.5949 L1033.9655,846.5479 L1028.2725,853.5519 L1022.7955,860.6399 L1017.5445,867.8369 L1012.5235,875.1689 L1007.7305,882.6579 L1003.1545,890.3199 L998.7745,898.1649 L994.5655,906.1979 L990.4945,914.4159 L986.5225,922.8079 L982.6045,931.3569 L978.6935,940.0349 L974.7385,948.8119 L970.6865,957.6459 L966.4885,966.4909 L962.2135,975.4219 L957.7375,984.3149 L953.0895,993.1949 L948.2565,1002.0489 L943.2295,1010.8639 L938.0015,1019.6249 L932.5645,1028.3179 L926.9115,1036.9269 L921.0375,1045.4389 L914.9365,1053.8359 L908.6045,1062.0989 L902.0375,1070.2139 L895.2315,1078.1609 L888.1885,1085.9229 L880.9055,1093.4809 L873.3855,1100.8189 L865.6275,1107.9189 L857.6355,1114.7599 L849.4105,1121.3219 L840.9585,1127.5819 L832.2785,1133.5159 L823.3775,1139.0919 L814.2565,1144.2799 L804.9185,1149.0419 L795.3705,1153.3349 L785.6165,1157.1139 L775.6665,1160.3329 L765.5295,1162.9419 L755.2225,1164.8949 L744.7645,1166.1539 L734.1665,1166.6399 L723.4705,1166.3759 L712.7065,1165.3449 L701.9135,1163.5689 L691.1295,1161.0829 L680.3935,1157.9309 L669.7395,1154.1719 L659.2035,1149.8689 L648.8125,1145.0999 L638.5935,1139.9439 L628.5615,1134.4849 L618.7355,1128.8149 L609.1205,1123.0199 L599.7185,1117.1899 L590.5245,1111.4079 L581.5315,1105.7559 L572.7235,1100.3079 L564.0805,1095.1279 L555.5795,1090.2749 L547.1945,1085.7979 L538.8955,1081.7479 L530.6505,1078.1629 L522.4275,1075.0709 L514.1905,1072.4849 L505.9105,1070.4019 L497.5575,1068.8049 L489.1075,1067.6559 L480.5445,1066.9049 L471.8545,1066.4859 L463.0355,1066.3259 L454.0865,1066.3439 L445.0185,1066.4579 L435.8455,1066.5839 L426.5855,1066.6429 L417.2635,1066.5599 L407.9035,1066.2719 L398.5335,1065.7229 L389.1795,1064.8689 L379.8635,1063.6799 L370.6095,1062.1369 L361.4355,1060.2319 L352.3515,1057.9699 L343.3685,1055.3609 L334.5055,1052.3989 L325.7785,1049.0819 L317.1795,1045.4509 L308.7295,1041.4959 L300.4495,1037.2039 L292.3645,1032.5689 L284.4925,1027.5859 L276.8545,1022.2569 L269.4685,1016.5839 L262.3475,1010.5759 L255.5055,1004.2419 L248.9515,997.5979 L242.6925,990.6619 L236.7315,983.4539 L231.0655,975.9999 L225.6905,968.3239 L220.5965,960.4559 L215.7685,952.4249 L211.2475,944.2089 L206.9185,935.9279 L202.8445,927.5329 L199.0125,919.0459 L195.4065,910.4869 L192.0145,901.8779 L188.8165,893.2349 L185.8005,884.5769 L182.9455,875.9169 L180.2365,867.2699 L177.6545,858.6479 L175.1825,850.0619 L172.8025,841.5199 L170.4985,833.0289 L168.2575,824.5939 L166.0645,816.2169 L163.9095,807.8989 L161.7835,799.6379 L159.6795,791.4339 L157.5915,783.2819 L155.5125,775.1789 L153.4375,767.1219 L151.3575,759.1079 L149.2635,751.1329 L147.1335,743.1989 L144.9435,735.3049 L142.6645,727.4519 L140.2595,719.6389 L137.6905,711.8629 L134.9205,704.1219 L131.9035,696.4079 L128.5975,688.7129 L124.9545,681.0249 L120.9355,673.3289 L116.4975,665.6059 L111.6125,657.8339 L106.2625,649.9869 L100.4455,642.0369 L94.1875,633.9509 L87.5415,625.6989 L80.5755,617.2529 L73.3665,608.5869 L66.0015,599.6829 L58.5695,590.5269 L51.1725,581.1119 L43.9075,571.4389 L36.8785,561.5119 L30.1875,551.3439 L23.9345,540.9569 L18.2145,530.3749 L13.1215,519.6309 L8.7565,508.7649 L5.2205,497.8239 L2.6105,486.8619 L1.0135,475.9379 L0.5005,465.1129 L1.1235,454.4529 L2.9185,444.0199 L5.8955,433.8759 L10.0455,424.0769 L15.3365,414.6739 L21.7155,405.7099 L29.1135,397.2179 L37.4425,389.2209 L46.6005,381.7339 L56.4725,374.7559 L66.9375,368.2769 L77.8695,362.2779 L89.1405,356.7269 L100.6205,351.5849 L112.1885,346.8019 L123.7265,342.3249 L135.1145,338.0889 L146.2735,334.0389 L157.1135,330.1079 L167.5645,326.2319 L177.5725,322.3529 L187.1025,318.4149 L196.1325,314.3709 L204.6615,310.1799 L212.6995,305.8159 L220.2755,301.2559 L227.4265,296.4949 L234.1995,291.5349 L240.6505,286.3859 L246.8375,281.0689 L252.8155,275.6079 L258.6375,270.0269 L264.3465,264.3479 L269.9645,258.5769 L275.4895,252.6929 L280.9025,246.6569 L286.1815,240.4189 L291.3005,233.9249 L296.2435,227.1199 L300.9985,219.9499 L305.5615,212.3669 L309.9395,204.3349 L314.1505,195.8229 L318.2225,186.8199 L322.1895,177.3259 L326.1005,167.3579 L330.0055,156.9489 L333.9645,146.1499 L338.0375,135.0269 L342.2935,123.6709 L346.7835,112.1569 L351.5745,100.6069 L356.7225,89.1349 L362.2755,77.8699 L368.2745,66.9399 L374.7535,56.4739 L381.7315,46.6019 L389.2195,37.4449 L397.2155,29.1159 L405.7075,21.7179 L414.6725,15.3379 L424.0755,10.0469 L433.8745,5.8979 L444.0185,2.9199 L454.4505,1.1259 L465.1115,0.5019 L475.9365,1.0149 L486.8595,2.6129 L497.8215,5.2219 L508.7635,8.7589 L519.6285,13.1229 L530.3725,18.2159 L540.9545,23.9359 L551.3425,30.1899 L561.5105,36.8809 L571.4365,43.9089 L581.1105,51.1739 L590.5245,58.5719 L599.6815,66.0029 L608.5845,73.3689 L617.2505,80.5779 L625.6965,87.5439 L633.9485,94.1899 L642.0345,100.4469 L649.9855,106.2549 L657.8415,111.5459 L665.6435,116.2499 L673.4375,120.3059 L681.2745,123.6619 L689.2035,126.2829 L697.2725,128.1519 L705.5285,129.2739 L714.0105,129.6749 L722.7515,129.3979 L731.7785,128.5079 L741.1065,127.0859 L750.7415,125.2239 L760.6805,123.0299 L770.9065,120.6169 L781.3945,118.1069 L792.1105,115.6219 L803.0055,113.2879 L814.0265,111.2249 L825.1135,109.5489 L836.1995,108.3639 L847.2145,107.7639 L858.0875,107.8309 L868.7485,108.6299 L879.1295,110.2089 L889.1665,112.6009 L898.8025,115.8209 L907.9875,119.8689 L916.6835,124.7259 L924.8555,130.3599 L932.4885,136.7259 L939.5725,143.7659 L946.1105,151.4149 L952.1165,159.5989 L957.6135,168.2399 L962.6345,177.2579 L967.2175,186.5739 L971.3605,196.1599 L975.1385,205.9139 L978.5775,215.7889 L981.7145,225.7369 L984.5855,235.7139 L987.2345,245.6729 L989.7105,255.5709 L992.0625,265.3679 L994.3445,275.0289 L996.6055,284.5229 L998.9005,293.8249 L1001.2755,302.9159 L1003.7745,311.7859 L1006.4365,320.4309 L1009.2915,328.8529 L1012.3605,337.0629 L1015.6575,345.0759 L1019.1875,352.9159 L1023.0195,360.5659 L1027.3035,367.9779 L1031.9385,375.2349 L1036.9965,382.3339 L1042.5315,389.2809 L1048.5875,396.0909 L1055.1885,402.7909 L1062.3385,409.4149 L1070.0185,416.0059 L1078.1895,422.6099 L1086.7945,429.2789 L1095.7515,436.0639 L1104.9685,443.0129 L1114.3335,450.1729 L1123.7315,457.5839 L1133.0375,465.2779 L1142.1255,473.2809 L1150.8715,481.6069 L1159.1585,490.2609 L1166.8835,499.2409 L1173.9505,508.5319 L1180.2845,518.1139 L1185.8225,527.9589 L1190.5165,538.0349 L1194.3325,548.3049 L1197.2485,558.7299 L1199.2495,569.2699 L1200.3305,579.8829 L1200.5005,590.5269 Z" id="Stroke-13" stroke-dasharray="93.27500000000001,51.819,24.873,24.873,41.455,41.455"></path>
                <polygon id="Stroke-15" points="591.1752 616.6324 591.1752 616.6324 601.5612 584.6744 580.7892 584.6744"></polygon>
                <polyline id="Stroke-16" points="591.1674 616.6324 591.1674 616.6324 580.7814 584.6744 566.2394 584.6744"></polyline>
                <g id="Group-27" transform="translate(562.000000, 564.140000)">
                    <path d="M4.2348,20.5451 L4.2348,20.5451 L1.0748,30.2551 C0.7888,31.1371 1.0978,32.1101 1.8528,32.6601 L29.1628,52.5031" id="Stroke-17"></path>
                    <path d="M4.2387,20.5451 L18.7927,20.5451 L12.5287,1.2971 C12.2087,0.3121 10.8107,0.3121 10.4787,1.2971 L4.2387,20.5451 Z" id="Stroke-19"></path>
                    <polyline id="Stroke-21" points="29.1752 52.4924 29.1752 52.4924 39.5612 20.5344 54.1132 20.5344"></polyline>
                    <path d="M54.1039,20.5451 L54.1039,20.5451 L57.2639,30.2551 C57.5499,31.1371 57.2409,32.1101 56.4859,32.6601 L29.1759,52.4921" id="Stroke-23"></path>
                    <path d="M54.1118,20.5451 L39.5578,20.5451 L45.8098,1.2971 C46.1308,0.3121 47.5278,0.3121 47.8598,1.2971 L54.1118,20.5451 Z" id="Stroke-25"></path>
                </g>
            </g>
        </g>
    </g>
</svg>