<?xml version="1.0" encoding="utf-8"?>
<!-- Generator: Adobe Illustrator 25.3.0, SVG Export Plug-In . SVG Version: 6.00 Build 0)  -->
<svg version="1.1" id="Layer_1" xmlns="http://www.w3.org/2000/svg" xmlns:xlink="http://www.w3.org/1999/xlink" x="0px" y="0px"
	 viewBox="0 0 216 216" style="enable-background:new 0 0 216 216;" xml:space="preserve">
<style type="text/css">
	.st0{fill:#E24329;}
	.st1{fill:#FC6D26;}
	.st2{fill:#FCA326;}
	.st3{fill:#FFC46C;}
	.st4{fill:#7F6997;}
	.st5{opacity:0.4;}
	.st6{fill:#584088;}
	.st7{fill:#AFA3C6;}
	.st8{fill:#380D75;}
	.st9{opacity:0.4;fill:#584088;}
	.st10{fill:none;stroke:#380D75;stroke-width:6;stroke-linecap:round;stroke-linejoin:round;stroke-miterlimit:10;}
	.st11{fill:#F9F7FF;}
	.st12{fill:#E5E0FC;}
	.st13{fill:#AFAAE5;}
	.st14{fill:#D9D3EA;}
	.st15{fill:#978ACE;}
	.st16{fill:#CAB5FF;}
	.st17{fill:#AC7FFF;}
	.st18{fill:#180633;}
	.st19{fill:#6E49CB;}
	.st20{fill:#FCF7F2;}
	.st21{fill:#E5DAD1;}
	.st22{fill:#FFD8A4;}
	.st23{fill:#FCA121;}
	.st24{fill:#E58615;}
	.st25{fill:#FFD8CC;}
	.st26{fill:#FF9769;}
	.st27{fill:#E85929;}
	.st28{fill:#FF908D;}
	.st29{fill:#4BEACC;}
	.st30{fill:#FF675F;}
	.st31{fill:#DB3B21;}
	.st32{fill:#AF1B1B;}
	.st33{fill:#5AC4FF;}
	.st34{fill:#94DEFF;}
	.st35{fill:#18A3FF;}
	.st36{fill:#007FC6;}
	.st37{fill:#FF99D1;}
	.st38{fill:#F968B3;}
	.st39{fill:#F7489C;}
	.st40{fill:#C13880;}
	.st41{fill:#00CFB4;}
	.st42{fill:#04AF92;}
	.st43{fill:#068970;}
	.st44{fill:#CCCCCC;}
	.st45{fill:#8C929D;}
	.st46{fill:#2E2E2E;}
	.st47{fill:none;stroke:#380D75;stroke-width:4;stroke-linecap:round;stroke-linejoin:round;stroke-miterlimit:10;}
	.st48{fill:none;stroke:#380D75;stroke-width:2.5;stroke-linecap:round;stroke-linejoin:round;stroke-miterlimit:10;}
	.st49{fill:none;stroke:#AFAAE5;stroke-width:4;stroke-linecap:round;stroke-linejoin:round;stroke-miterlimit:10;}
	.st50{fill:none;stroke:#AFAAE5;stroke-width:2.5;stroke-linecap:round;stroke-linejoin:round;stroke-miterlimit:10;}
</style>
<g>
	<g>
		<g>
			<g id="g48_3_" transform="translate(155.197863, 1.160267)">
				<g id="path50_3_">
					<path class="st0" d="M-47.2,203.7L-47.2,203.7L-9.1,87.3h-76.2L-47.2,203.7L-47.2,203.7z"/>
				</g>
			</g>
			<g id="g56_3_" transform="translate(28.531199, 1.160800)">
				<g id="path58_3_">
					<path class="st1" d="M79.4,203.7L41.3,87.3H-12L79.4,203.7L79.4,203.7z"/>
				</g>
			</g>
			<g id="g72_3_" transform="translate(29.421866, 280.255593)">
				<g id="path74_5_">
					<path class="st0" d="M-12.9-191.8h53.4l-23-70.1c-1.2-3.6-6.3-3.6-7.5,0L-12.9-191.8L-12.9-191.8z"/>
				</g>
			</g>
			<g id="g76_3_" transform="translate(247.197860, 1.160800)">
				<g id="path78_3_">
					<path class="st1" d="M-139.2,203.7l38.1-116.5h53.4L-139.2,203.7L-139.2,203.7z"/>
				</g>
			</g>
			<g id="g80_3_" transform="translate(246.307061, 0.255867)">
				<g id="path82_3_">
					<path class="st2" d="M-46.9,88.2L-46.9,88.2l11.6,35.4c1,3.2-0.1,6.8-2.9,8.8l-100.2,72.3L-46.9,88.2L-46.9,88.2z"/>
				</g>
			</g>
			<g id="g80_2_" transform="translate(246.307061, 0.255867)">
				<g id="path82_2_">
					<path class="st2" d="M-229.8,88.2L-229.8,88.2l-11.6,35.4c-1,3.2,0.1,6.8,2.9,8.8l100.2,72.3L-229.8,88.2L-229.8,88.2z"/>
				</g>
			</g>
			<g id="g84_3_" transform="translate(336.973725, 280.255593)">
				<g id="path86_5_">
					<path class="st0" d="M-137.5-191.8h-53.4l22.9-70.1c1.2-3.6,6.3-3.6,7.5,0L-137.5-191.8L-137.5-191.8z"/>
				</g>
			</g>
		</g>
	</g>
	<g>
		<path class="st3" d="M145.6,113.5L145.6,113.5c0-4.5-3.6-8.1-8.1-8.1h0c-4.5,0-8.1,3.6-8.1,8.1v0c0,5-1.3,9.2-2.4,11.9
			c-0.6,1.5,0.5,3.1,2.1,3.1h16.6c1.6,0,2.7-1.7,2.1-3.2C146.8,122.8,145.6,118.9,145.6,113.5z"/>
	</g>
	<g>
		<path class="st4" d="M150.6,55.1v28.7c0,29.9-85.3,27.8-85.3,0V55.1"/>
	</g>
	<g class="st5">
		<path class="st6" d="M65.3,64.4l38.3,18.1c2.2,1.1,4.8,1.1,7.1,0l39.9-18.4v-9H65.3V64.4z"/>
	</g>
	<g>
		<polyline class="st7" points="141.6,58.3 107.2,74.2 40.3,42.6 108.8,11.1 175.7,42.6 141.6,58.3 		"/>
	</g>
	<g>
		<g>
			<g>
				<g>
					<g id="g48_1_" transform="translate(155.197863, 1.160267)">
						<g id="path50_1_">
							<path class="st8" d="M-47.2,206.7c-0.3,0-0.6,0-0.9-0.2c-1.6-0.5-2.4-2.2-1.9-3.8l25.3-76.7c0.5-1.6,6.2,0.3,5.7,1.9
								l-25.3,76.7C-44.7,205.9-45.9,206.7-47.2,206.7z"/>
						</g>
					</g>
					<g id="g56_1_" transform="translate(28.531199, 1.160800)">
						<g id="path58_2_">
							<path class="st8" d="M79.5,206.7c-0.9,0-1.8-0.4-2.4-1.1L-15.7,88c-0.7-0.9-0.8-2.1-0.3-3.2c0.5-1,1.5-1.7,2.7-1.7h50
								c1.7,0,3,1.3,3,3c0,1.7-1.3,3-3,3H-7.2l78.5,99.4L41,96.4c-0.5-1.6,0.3-3.3,1.9-3.8c1.6-0.5,3.3,0.3,3.8,1.9l35.6,108.3
								c0.5,1.4-0.1,2.9-1.4,3.6C80.4,206.6,79.9,206.7,79.5,206.7z"/>
						</g>
					</g>
					<g id="g64_1_" transform="translate(0.088533, 0.255867)">
						<g id="path66_1_">
							<path class="st8" d="M107.9,207.7c-0.6,0-1.2-0.2-1.7-0.6l-101.7-73c-3.9-2.8-5.5-7.7-4-12.2l11.8-35.7c0.3-1,1.2-1.8,2.3-2
								c1.1-0.2,2.2,0.2,2.9,1.1l92.8,117.6c0.9,1.2,0.8,2.8-0.2,3.9C109.5,207.4,108.7,207.7,107.9,207.7z M16.2,93.4l-10,30.4
								c-0.7,2,0.1,4.2,1.8,5.5l84.4,60.6L16.2,93.4z"/>
						</g>
					</g>
					<g id="g72_1_" transform="translate(29.421866, 280.255593)">
						<g id="path74_4_">
							<path class="st8" d="M-14.2-189.9c-0.3,0-0.6,0-0.9-0.2c-1.6-0.5-2.4-2.2-1.9-3.8l23.2-70.8c1-2.9,3.6-4.8,6.7-4.8
								c0,0,0,0,0,0c3.1,0,5.7,1.9,6.6,4.8l6.4,19.6c0.5,1.6-0.3,3.3-1.9,3.8c-1.6,0.5-3.3-0.3-3.8-1.9l-6.4-19.6
								c-0.2-0.5-0.6-0.7-0.9-0.7c-0.3,0-0.8,0.1-1,0.7l-23.2,70.8C-11.8-190.7-13-189.9-14.2-189.9z"/>
						</g>
						<g id="path74_3_">
							<path class="st8" d="M35.6-203c-1.3,0-2.4-0.8-2.8-2.1l-7.7-23.3c-0.5-1.6,0.3-3.3,1.9-3.8c1.6-0.5,3.3,0.3,3.8,1.9l7.7,23.3
								c0.5,1.6-0.3,3.3-1.9,3.8C36.2-203.1,35.9-203,35.6-203z"/>
						</g>
					</g>
					<g id="g76_1_" transform="translate(247.197860, 1.160800)">
						<g id="path78_1_">
							<path class="st8" d="M-139.2,206.7c-0.7,0-1.3-0.2-1.9-0.6c-1.3-1-1.5-2.9-0.5-4.2l92.9-117.6c1-1.3,2.9-1.5,4.2-0.5
								c1.3,1,1.5,2.9,0.5,4.2l-92.9,117.6C-137.4,206.4-138.3,206.7-139.2,206.7z"/>
						</g>
					</g>
					<g id="g80_1_" transform="translate(246.307061, 0.255867)">
						<g id="path82_1_">
							<path class="st8" d="M-138.3,207.6c-0.8,0-1.6-0.3-2.2-0.9c-1-1.1-1.1-2.8-0.2-3.9l92.8-117.5c0.7-0.9,1.8-1.3,2.9-1.1
								c1.1,0.2,2,1,2.3,2l11.8,35.7c1.5,4.5-0.1,9.4-4,12.2l-101.7,73C-137.1,207.5-137.7,207.6-138.3,207.6z M-46.6,93.4
								l-76.2,96.4l84.4-60.5c1.7-1.2,2.5-3.5,1.8-5.5L-46.6,93.4z"/>
						</g>
					</g>
					<g id="g84_1_" transform="translate(336.973725, 280.255593)">
						<g id="path86_4_">
							<path class="st8" d="M-186.4-201.9c-0.3,0-0.6,0-0.9-0.2c-1.6-0.5-2.4-2.2-1.9-3.8l7.9-23.9c0.5-1.6,2.2-2.4,3.8-1.9
								c1.6,0.5,2.4,2.2,1.9,3.8l-7.9,23.9C-183.9-202.7-185.1-201.9-186.4-201.9z"/>
						</g>
						<g id="path86_1_">
							<path class="st8" d="M-136.1-189.9h-49.6c-1.7,0-3-1.3-3-3s1.3-3,3-3h45.5l-22-66.9c-0.2-0.6-0.7-0.7-1-0.7
								c-0.3,0-0.8,0.1-0.9,0.7l-6.4,19.5c-0.5,1.6-2.2,2.4-3.8,1.9c-1.6-0.5-2.4-2.2-1.9-3.8l6.4-19.5c1-2.9,3.5-4.8,6.6-4.8
								c3.1,0,5.7,1.8,6.7,4.7l23.3,70.8c0.3,0.9,0.1,1.9-0.4,2.7C-134.2-190.3-135.1-189.9-136.1-189.9z"/>
						</g>
					</g>
				</g>
			</g>
		</g>
	</g>
	<g>
		<g>
			<path class="st8" d="M109.1,108.4c-11.7,0-22.8-2-31.3-5.8c-10.2-4.5-15.6-11-15.6-18.9V55.1c0-1.7,1.3-3,3-3c1.7,0,3,1.3,3,3
				v28.7c0,6.7,6.5,11,12,13.4c7.6,3.3,18.1,5.3,28.8,5.3c10.6,0,20.3-1.8,27.3-5c7.4-3.4,11.1-8,11.1-13.6V55.1c0-1.7,1.3-3,3-3
				s3,1.3,3,3v28.7c0,8-5.1,14.6-14.6,19C131.2,106.4,120.6,108.4,109.1,108.4z"/>
		</g>
		<g>
			<path class="st8" d="M107.2,77.2c-0.4,0-0.9-0.1-1.3-0.3L39,45.4c-1.1-0.5-1.7-1.6-1.7-2.7c0-1.2,0.7-2.2,1.7-2.7l68.5-31.6
				c0.8-0.4,1.7-0.4,2.5,0L177,39.9c1.1,0.5,1.7,1.6,1.7,2.7c0,1.2-0.7,2.2-1.7,2.7l-34,15.7l-1.3-2.7l1.3,2.7L108.4,77
				C108,77.1,107.6,77.2,107.2,77.2z M47.4,42.7l59.8,28.2l61.4-28.3l-59.8-28.2L47.4,42.7z"/>
		</g>
		<g>
			<path class="st8" d="M134.5,105.4V66.8c0-3.7-2-7.1-5.2-8.9l-22.8-12.7c-1.4-0.8-2-2.6-1.2-4.1c0.8-1.4,2.6-2,4.1-1.2l22.8,12.7
				c5.1,2.9,8.3,8.3,8.3,14.1v38.6c0,0.5-0.5,0-1.3,0.2C137.4,106.1,134.5,106.6,134.5,105.4z"/>
		</g>
		<g>
			<path class="st8" d="M145.8,129.5h-16.6c-1.8,0-3.4-0.9-4.4-2.3c-1-1.5-1.2-3.3-0.5-4.9c1-2.4,2.2-6.3,2.2-10.7
				c0-6.1,5-11.1,11.1-11.1c6.1,0,11.1,5,11.1,11.1c0,3.9,0.7,7.4,2.1,10.6c0.7,1.6,0.5,3.5-0.4,5
				C149.2,128.6,147.6,129.5,145.8,129.5z M145.1,124.5L145.1,124.5L145.1,124.5z M130.3,123.5h14.5c-1.4-3.7-2.1-7.7-2.1-12
				c0-2.8-2.3-5.1-5.1-5.1c-2.8,0-5.1,2.3-5.1,5.1C132.5,115.5,131.7,119.6,130.3,123.5z"/>
		</g>
	</g>
</g>
</svg>
