<?xml version="1.0" encoding="UTF-8"?>
<svg width="351px" height="168px" viewBox="0 0 351 168" version="1.1" xmlns="http://www.w3.org/2000/svg" xmlns:xlink="http://www.w3.org/1999/xlink">
    <!-- Generator: Sketch 47.1 (45422) - http://www.bohemiancoding.com/sketch -->
    <title>gitlab-gke-integration-image</title>
    <desc>Created with Sketch.</desc>
    <defs></defs>
    <g id="Desktop" stroke="none" stroke-width="1" fill="none" fill-rule="evenodd">
        <g id="gke-promo-block-1-copy" transform="translate(-210.000000, -65.000000)">
            <g id="gitlab-gke-integration-image" transform="translate(210.000000, 65.000000)">
                <g id="Group-17" transform="translate(0.000000, 28.820084)">
                    <path d="M119.965158,63.6827201 L113.236096,43.0040733 L99.9247544,1.9880711 C99.242317,-0.108774773 96.2676142,-0.108774773 95.5608721,1.9880711 L82.2490535,42.9792867 L38.0245357,42.9792867 L24.7127171,1.9880711 C24.0302797,-0.108774773 21.0560535,-0.108774773 20.3488349,1.9880711 L7.06179753,42.9792867 L0.333212457,63.6827201 C-0.276787464,65.5598238 0.381821826,67.6328364 1.99069662,68.8035238 L60.1370329,111.062666 L118.282893,68.8035238 C119.892244,67.6328364 120.574205,65.5598238 119.965158,63.6827201" id="Fill-1" fill="#FC6D26"></path>
                    <polygon id="Fill-3" fill="#E24329" points="60.1528548 111.034924 60.1528548 111.034924 82.2653519 42.9763314 38.0403576 42.9763314"></polygon>
                    <polygon id="Fill-5" fill="#FC6D26" points="60.1365563 111.034924 38.0240592 42.9763314 7.06179753 42.9763314"></polygon>
                    <path d="M7.05102722,42.9994973 L7.05102722,42.9994973 L0.322442146,63.6781441 C-0.287081213,65.5552478 0.371051515,67.6282605 1.97992631,68.7989478 L60.1262626,111.05809 L7.05102722,42.9994973 Z" id="Fill-7" fill="#FCA326"></path>
                    <path d="M7.05936706,42.9994973 L38.04641,42.9994973 L24.7102867,2.007805 C24.0273727,-0.0890408749 21.0531465,-0.0890408749 20.3464044,2.007805 L7.05936706,42.9994973 Z" id="Fill-9" fill="#E24329"></path>
                    <polygon id="Fill-11" fill="#FC6D26" points="60.1528548 111.034924 82.2653519 42.9763314 113.252395 42.9763314"></polygon>
                    <path d="M113.229996,42.9994973 L113.229996,42.9994973 L119.959058,63.6781441 C120.568105,65.5552478 119.910449,67.6282605 118.301574,68.7989478 L60.1552376,111.033304 L113.229996,42.9994973 Z" id="Fill-13" fill="#FCA326"></path>
                    <path d="M113.246247,42.9994973 L82.2596809,42.9994973 L95.5710229,2.007805 C96.2539369,-0.0890408749 99.228163,-0.0890408749 99.9349051,2.007805 L113.246247,42.9994973 Z" id="Fill-15" fill="#E24329"></path>
                </g>
                <g id="Group-27" transform="translate(175.247525, 84.000000) rotate(-270.000000) translate(-175.247525, -84.000000) translate(91.479208, 55.179916)" fill="#6B4FB9">
                    <path d="M96.386329,12.9897912 C94.477341,12.9897912 92.9247177,14.5379892 92.9247177,16.4415363 C92.9247177,18.3447036 94.477341,19.8932813 96.386329,19.8932813 C98.295317,19.8932813 99.8479403,18.3447036 99.8479403,16.4415363 C99.8479403,14.5379892 98.295317,12.9897912 96.386329,12.9897912 M96.386329,22.1711596 C93.2182617,22.1711596 90.6403284,19.6005739 90.6403284,16.4415363 C90.6403284,13.2824986 93.2182617,10.7119129 96.386329,10.7119129 C99.5543962,10.7119129 102.13233,13.2824986 102.13233,16.4415363 C102.13233,19.6005739 99.5543962,22.1711596 96.386329,22.1711596 M98.4281923,26.5226666 C98.8325292,26.5226666 99.2132608,26.7371668 99.4192365,27.095553 L100.993942,29.8392575 C102.057706,29.4759359 103.069691,28.9899885 104.018093,28.3871101 L102.848866,25.4490266 C102.670303,25.0010439 102.794422,24.4889009 103.158401,24.1715165 C104.091955,23.3579343 104.863317,22.3936324 105.450786,21.3051862 C105.679986,20.8803619 106.152474,20.6468794 106.631054,20.7193918 L109.763713,21.2026817 C110.14216,20.1472647 110.39192,19.055022 110.510327,17.9400006 L107.477801,17.0197377 C107.014831,16.8792685 106.690448,16.4631761 106.669127,15.9810252 C106.61354,14.7467947 106.338652,13.5444546 105.851315,12.4074137 C105.66133,11.963607 105.772123,11.4484269 106.128107,11.121931 L108.459707,8.98110494 C107.86805,8.02819249 107.167885,7.15234826 106.367207,6.36458199 L103.755007,8.15537404 C103.357143,8.4275805 102.828307,8.4218858 102.436534,8.1379103 C101.434068,7.41164675 100.319667,6.87596568 99.1245503,6.54719191 C98.6581542,6.41887142 98.3234911,6.01151084 98.2892253,5.53049886 L98.0642129,2.37753555 C96.9471466,2.24352037 95.8243692,2.24427966 94.7080643,2.37753555 L94.4830519,5.53049886 C94.4487861,6.01151084 94.1141231,6.41887142 93.6477269,6.54719191 C92.4526106,6.87596568 91.3382093,7.41164675 90.3357431,8.1379103 C89.9439703,8.4218858 89.4151342,8.4275805 89.0176505,8.15537404 L86.4050705,6.36458199 C85.6043921,7.15234826 84.9042268,8.02819249 84.3125699,8.98110494 L86.6445507,11.121931 C87.0005347,11.4488065 87.1113276,11.9639867 86.9213425,12.4077933 C86.4336254,13.544075 86.1587372,14.7464151 86.1031504,15.9810252 C86.0818295,16.4631761 85.7574462,16.8792685 85.2944766,17.0197377 L82.2619498,17.9400006 C82.3803573,19.055022 82.6301172,20.1472647 83.0085643,21.2026817 L86.1412236,20.7193918 C86.6213261,20.647259 87.092291,20.8803619 87.3214914,21.3051862 C87.9089602,22.3936324 88.6803223,23.3579343 89.6138761,24.1715165 C89.9778555,24.4889009 90.1019739,25.0010439 89.9234108,25.4490266 L88.754565,28.3871101 C89.7025865,28.9899885 90.7149517,29.4759359 91.778335,29.8392575 L93.3530407,27.095553 C93.5932823,26.6771827 94.0722426,26.4543303 94.5485378,26.54051 C95.7672595,26.7610846 97.0034948,26.7610846 98.2237395,26.54051 C98.2922711,26.5283613 98.3608028,26.5226666 98.4281923,26.5226666 M100.456349,32.3346733 C100.054678,32.3346733 99.672423,32.122451 99.4653051,31.7614072 L97.8235906,28.9015309 C96.8671929,29.012008 95.9050843,29.012008 94.9486866,28.9015309 L93.3073529,31.7614072 C93.0484554,32.2124272 92.5173349,32.4314831 92.0132463,32.2940511 C90.0897905,31.7663426 88.2965449,30.904925 86.683766,29.7344751 C86.2619155,29.4288598 86.1016275,28.8768539 86.2942777,28.3935641 L87.5129994,25.3313362 C86.829967,24.6540471 86.2303148,23.9038658 85.7201345,23.0895243 L82.4549807,23.593315 C81.9375665,23.6726611 81.4357623,23.393621 81.2301673,22.9160259 C80.4447181,21.0880285 80.0019273,19.1529708 79.9139783,17.1655219 C79.8911344,16.6461657 80.2238938,16.1773024 80.7226521,16.0258235 L83.8838662,15.0668367 C83.9885674,14.1124056 84.2029192,13.1769569 84.5238759,12.2711206 L82.092905,10.0395591 C81.7095083,9.68762689 81.6135639,9.12119446 81.860278,8.66334091 C82.80335,6.9112728 84.0441542,5.35927834 85.5484245,4.0513965 C85.9409588,3.7100944 86.5166249,3.67706516 86.9460901,3.97091147 L89.6690822,5.83763279 C90.4830862,5.32473051 91.3496312,4.90825842 92.2595797,4.59353156 L92.4941103,1.30693271 C92.5310413,0.787956093 92.9159609,0.360094606 93.4284255,0.267081239 C95.3910967,-0.0890270796 97.3811805,-0.0890270796 99.3438517,0.267081239 C99.8563164,0.360094606 100.241236,0.787956093 100.278167,1.30693271 L100.512698,4.59353156 C101.422646,4.90825842 102.289191,5.32473051 103.103195,5.83763279 L105.826187,3.97091147 C106.256033,3.67706516 106.831699,3.7100944 107.223853,4.0513965 C108.728123,5.35927834 109.968927,6.9112728 110.911999,8.66334091 C111.158713,9.12119446 111.062769,9.68762689 110.679372,10.0395591 L108.248782,12.2711206 C108.569358,13.1769569 108.78371,14.1124056 108.888411,15.0668367 L112.049625,16.0258235 C112.548383,16.1773024 112.881143,16.6461657 112.858299,17.1655219 C112.77035,19.1529708 112.327559,21.0880285 111.54211,22.9160259 C111.336896,23.393621 110.834711,23.6711426 110.317297,23.593315 L107.052143,23.0895243 C106.541962,23.9038658 105.94231,24.6540471 105.259659,25.3313362 L106.47838,28.3935641 C106.67103,28.8768539 106.510742,29.4288598 106.088511,29.7344751 C104.475352,30.9053046 102.682106,31.7663426 100.759412,32.2940511 C100.658898,32.3213857 100.556862,32.3346733 100.456349,32.3346733" id="Fill-19"></path>
                    <path d="M71.3475535,36.6148354 L71.3514137,36.6148354 L71.3475535,36.6148354 Z M72.3087431,37.6610807 C72.0701828,37.6610807 71.8281483,37.6855186 71.5857278,37.7359217 C70.6689305,37.9264605 69.8818359,38.4595111 69.3692014,39.2365583 C68.856953,40.0132237 68.6805419,40.9407164 68.8731658,41.8472078 C69.2711524,43.7209035 71.1364006,44.9229401 73.0298283,44.5304072 C74.924028,44.1363469 76.1407627,42.292053 75.7427762,40.4187392 C75.3953583,38.7856036 73.9331149,37.6610807 72.3087431,37.6610807 L72.3087431,37.6610807 Z M72.306427,46.8966782 C69.6100779,46.8966782 67.1827846,45.0302376 66.6068429,42.3184001 C66.2868324,40.8131813 66.5786635,39.2739787 67.4298374,37.9845004 C68.2806253,36.695022 69.5869167,35.8106774 71.1093792,35.4937491 C74.2508093,34.8377456 77.347847,36.8374489 78.0090991,39.9475469 C78.6699652,43.0568813 76.649923,46.1188673 73.5065629,46.7725798 C73.1043301,46.8562031 72.7024834,46.8966782 72.306427,46.8966782 L72.306427,46.8966782 Z M67.2345113,54.4655381 C68.3010843,54.863035 69.4074174,55.132615 70.5384558,55.2704597 L71.5270527,52.2455123 C71.6776005,51.7838661 72.1064686,51.4661741 72.5967139,51.4524278 C73.8528227,51.4184439 75.07998,51.1633738 76.2442161,50.6940908 C76.6989475,50.5111888 77.2204604,50.6314688 77.5462613,50.9934544 L79.6824955,53.3692715 C80.662214,52.7919273 81.5647285,52.1046129 82.3788445,51.3157286 L80.603925,48.6653675 C80.332939,48.2606157 80.3491518,47.7310017 80.6444571,47.3434327 C81.4002841,46.3510269 81.9638731,45.2433051 82.3190115,44.0504326 C82.4575926,43.5849679 82.8775823,43.2562025 83.3678276,43.2298555 L86.5768111,43.0591724 C86.7316051,41.9419045 86.7509061,40.8154724 86.6354861,39.6932406 L83.434223,39.4133508 C82.9451358,39.3709664 82.5367267,39.0280729 82.4143584,38.558408 C82.1005242,37.3544621 81.5759231,36.2272664 80.8552239,35.2096591 C80.5734294,34.8121622 80.5757455,34.2825482 80.8610142,33.8873424 L82.7266485,31.2984578 C81.9399399,30.4820809 81.0617446,29.7649828 80.1028711,29.1548003 L77.8855728,31.4561583 C77.5474193,31.8078342 77.0220462,31.9097858 76.5738771,31.7116102 C75.4270119,31.2033793 74.2095051,30.9066885 72.9549404,30.8295566 C72.4654672,30.7993911 72.0477936,30.4671891 71.9134587,30.0009608 L71.0310172,26.9439387 C69.8949606,27.0435993 68.7805211,27.275377 67.7004374,27.6365989 L68.1374119,30.7860267 C68.2034213,31.266765 67.9567546,31.7371935 67.5209381,31.9598071 C66.4037965,32.5298963 65.4101812,33.286324 64.5678858,34.2080891 C64.2389968,34.5681655 63.7155538,34.6846272 63.2631385,34.4971431 L60.2965754,33.2737233 C59.6669769,34.2141986 59.1555006,35.2211143 58.7675505,36.281106 L61.529137,37.9073684 C61.9510568,38.1555653 62.168772,38.6397402 62.0730391,39.1158964 C61.8271444,40.3347341 61.8051412,41.5749549 62.0089598,42.8014294 C62.0880938,43.2802585 61.8533937,43.7567966 61.4237536,43.9904835 L58.6073523,45.5220493 C58.9578584,46.5950236 59.434593,47.6179766 60.0309937,48.5794532 L63.0380888,47.4576032 C63.4962945,47.2853928 64.0151052,47.4201828 64.3316416,47.7909508 C65.1415113,48.7405903 66.1084912,49.5302383 67.2051738,50.1385116 C67.6328839,50.3760169 67.8633378,50.8540823 67.7799575,51.3321477 L67.2345113,54.4655381 Z M71.3560459,57.6401674 C71.3328847,57.6401674 71.3089515,57.6397855 71.2850183,57.6382582 C69.2657481,57.5156871 67.306697,57.0383853 65.4619079,56.2189537 C64.979769,56.0047407 64.7053088,55.4949825 64.7948655,54.9798785 L65.3634728,51.7136073 C64.5439525,51.1878117 63.7919857,50.5734289 63.1160649,49.8769502 L59.9811972,51.0465304 C59.4859336,51.2317235 58.9277488,51.0606585 58.6243372,50.6329962 C57.4624172,48.9945148 56.6185777,47.1819138 56.1155937,45.2448324 C55.984347,44.7377471 56.2163449,44.2077512 56.6795688,43.9561178 L59.6152503,42.3596389 C59.5199034,41.3981623 59.5365022,40.433631 59.6654329,39.4759728 L56.7868824,37.7813608 C56.332923,37.51369 56.1190679,36.9756755 56.2680716,36.4743177 C56.837837,34.5548011 57.7445978,32.7716018 58.9628766,31.1739775 C59.281343,30.756243 59.8460902,30.6061794 60.3328613,30.8066461 L63.4248808,32.0819963 C64.1251209,31.40881 64.8979328,30.8200105 65.73521,30.3224712 L65.2797065,27.0397809 C65.2082928,26.5216221 65.5001238,26.0214099 65.9895971,25.8236161 C67.8617937,25.0675701 69.8366715,24.6570906 71.8586439,24.6028692 C72.3886492,24.5898866 72.8580494,24.9304891 73.0035789,25.4333742 L73.9234644,28.6202223 C74.8923744,28.7420297 75.8392812,28.9726619 76.7541484,29.3098279 L79.0652496,26.9111003 C79.4300384,26.5323137 80.0075242,26.4460175 80.469204,26.7014694 C82.2344731,27.6782197 83.7901333,28.9493696 85.0929506,30.4797899 C85.4334201,30.8795778 85.4569673,31.456922 85.1500815,31.8822933 L83.2053132,34.5811482 C83.7125433,35.4059255 84.1209524,36.2822515 84.4247501,37.1998164 L87.7618922,37.491925 C88.2888094,37.537746 88.7172915,37.9306608 88.8029879,38.4469103 C89.1314909,40.4217939 89.0963631,42.4169152 88.6995346,44.3784343 C88.5960813,44.8912473 88.1540885,45.2692703 87.6263992,45.2975265 L84.2811507,45.4758465 C83.9456994,46.3827197 83.5071807,47.2449176 82.9713851,48.0517484 L84.8211925,50.8147527 C85.1130236,51.2508155 85.0697894,51.8270142 84.7154231,52.214965 C83.3604932,53.6995643 81.7619847,54.9172565 79.9631319,55.8336758 C79.4941177,56.0734722 78.918562,55.9673203 78.5676699,55.5766965 L76.3411071,53.1004552 C75.4146593,53.4063101 74.460032,53.6048676 73.4880339,53.6938367 L72.4577468,56.8470828 C72.3029528,57.3220935 71.8555557,57.6401674 71.3560459,57.6401674 L71.3560459,57.6401674 Z" id="Fill-21"></path>
                    <path d="M6.86486856,46.8619247 C4.3412666,46.8619247 2.28828952,44.7597768 2.28828952,42.1757322 C2.28828952,39.5916876 4.3412666,37.4895397 6.86486856,37.4895397 C9.38847051,37.4895397 11.4414476,39.5916876 11.4414476,42.1757322 C11.4414476,44.7597768 9.38847051,46.8619247 6.86486856,46.8619247 M48.6261523,41.0041841 L13.6263827,41.0041841 C13.0791001,37.6851883 10.2595461,35.1464435 6.86486856,35.1464435 C3.07927493,35.1464435 0,38.2998605 0,42.1757322 C0,46.0516039 3.07927493,49.2050209 6.86486856,49.2050209 C10.2595461,49.2050209 13.0791001,46.6662762 13.6263827,43.3472803 L48.6261523,43.3472803 C49.2577202,43.3472803 49.770297,42.8228173 49.770297,42.1757322 C49.770297,41.5286471 49.2577202,41.0041841 48.6261523,41.0041841" id="Fill-23"></path>
                    <path d="M160.671765,17.3389121 C158.148163,17.3389121 156.095186,15.2367643 156.095186,12.6527197 C156.095186,10.068675 158.148163,7.9665272 160.671765,7.9665272 C163.195367,7.9665272 165.248344,10.068675 165.248344,12.6527197 C165.248344,15.2367643 163.195367,17.3389121 160.671765,17.3389121 M160.671765,5.62343096 C157.277088,5.62343096 154.457534,8.16217573 153.910251,11.4811715 L118.910481,11.4811715 C118.278913,11.4811715 117.766337,12.0056346 117.766337,12.6527197 C117.766337,13.2998047 118.278913,13.8242678 118.910481,13.8242678 L153.910251,13.8242678 C154.457534,17.1432636 157.277088,19.6820084 160.671765,19.6820084 C164.457359,19.6820084 167.536634,16.5285914 167.536634,12.6527197 C167.536634,8.77684798 164.457359,5.62343096 160.671765,5.62343096" id="Fill-25"></path>
                </g>
                <g id="Page-1" transform="translate(233.000000, 33.000000)">
                    <path d="M77.4905221,83.0688826 L65.5119372,103.836103 L34.1929286,103.836103 C31.3979255,103.840257 28.8108838,102.353324 27.4133823,99.9318658 L2.08366617,55.7807547 C0.702801518,53.3759105 0.702801518,50.4186583 2.08366617,48.0138141 L11.6914895,31.150831 L41.5547673,83.0688826 L77.4489298,83.0688826 L77.4905221,83.0688826 Z" id="Fill-1" fill="#FFCC40"></path>
                    <path d="M116.962455,55.7815854 L91.632739,99.928543 C90.2352374,102.350001 87.6481958,103.841087 84.8531927,103.836934 L65.512769,103.836934 L77.491354,83.0697133 L95.4176391,51.9188823 L77.491354,20.7680513 L101.115785,20.7680513 L116.796086,48.0561793 C118.214384,50.419489 118.276772,53.355974 116.962455,55.7815854" id="Fill-4" fill="#DA4437"></path>
                    <path d="M101.115785,20.7672207 L41.5555991,20.7672207 L23.629314,51.9180516 L11.6923214,31.150831 L27.4142141,3.90423748 C28.8117157,1.486933 31.3987573,0 34.1937605,0 L84.8531927,0 C87.6481958,0 90.2352374,1.486933 91.632739,3.90423748 L101.115785,20.7672207 Z" id="Fill-7" fill="#4284F3"></path>
                    <polygon id="Fill-9" fill="#DFDFDF" points="77.4905221 20.7672207 95.4168073 51.9180516 77.4489298 83.0688826 41.5547673 83.0688826 23.6284822 51.9180516 41.5963596 20.7672207"></polygon>
                    <path d="M59.5234766,36.3426361 C68.1372437,36.3426361 75.1205924,43.3162688 75.1205924,51.9180516 C75.1205924,60.5198344 68.1372437,67.4934671 59.5234766,67.4934671 C50.9097094,67.4934671 43.9263607,60.5198344 43.9263607,51.9180516 C43.9263607,43.3162688 50.9097094,36.3426361 59.5234766,36.3426361" id="Fill-11" fill="#FFFFFF"></path>
                    <path d="M27.4133823,4.56920389 C28.8108838,2.14774596 31.3979255,0.660812961 34.1929286,0.664966405 L84.8523608,0.664966405 C87.647364,0.660812961 90.2344056,2.14774596 91.6319072,4.56920389 L101.114954,20.767636 L91.6319072,3.90465283 C90.2344056,1.48734834 87.647364,-0.00373809972 84.8523608,0.000415344413 L34.1929286,0.000415344413 C31.3979255,-0.00373809972 28.8108838,1.48734834 27.4133823,3.90465283 L11.6914895,31.1512463 L11.6914895,31.4835219 L27.4133823,4.56920389 Z" id="Fill-13" fill="#FFFFFF" opacity="0.2"></path>
                    <polyline id="Fill-15" fill-opacity="0.2" fill="#1A237E" points="23.6297299 51.9180516 41.5560151 20.7672207 101.082927 20.7589138 100.708597 20.0943627 41.5560151 20.1026696 23.6297299 51.2535006"></polyline>
                    <path d="M2.14938202,48.6791959 L11.7987977,32.0654194 L23.694198,52.83264 L41.5165024,83.6968834 L77.1070411,83.7633385 L77.4813718,83.0987874 L41.5788908,83.0780202 L11.6989761,31.1516617 L2.10778971,47.7654382 C1.392402,49.0280852 1.04718584,50.4693303 1.1095743,51.9188823 C1.21355507,50.7725317 1.5670897,49.6677156 2.14938202,48.6791959" id="Fill-17" fill-opacity="0.2" fill="#FFFFFF"></path>
                    <path d="M65.886268,103.170722 L34.1929286,103.170722 C31.3979255,103.174875 28.8108838,101.687942 27.4133823,99.2706375 L2.08366617,55.1569074 C1.47641846,54.0770119 1.13536153,52.8683596 1.08545076,51.6264798 C1.0230623,53.0760319 1.36827846,54.517277 2.08366617,55.779924 L27.4133823,99.9310351 C28.8108838,102.352493 31.3979255,103.839426 34.1929286,103.835273 L65.5119372,103.835273 L65.886268,103.170722 Z" id="Fill-19" fill-opacity="0.2" fill="#BE360C"></path>
                    <polygon id="Fill-21" fill-opacity="0.2" fill="#3E2723" points="95.7928017 51.9180516 77.8665166 20.7672207 77.4921858 20.7672207 95.418471 51.9180516"></polygon>
                    <path d="M116.962455,55.1569074 L91.632739,99.2706375 C90.2352374,101.687942 87.6481958,103.174875 84.8531927,103.170722 L65.8870998,103.170722 L65.512769,103.835273 L84.8531927,103.835273 C87.6481958,103.839426 90.2352374,102.352493 91.632739,99.9310351 L116.962455,55.8214584 C117.677843,54.5588114 118.023059,53.1175663 117.960671,51.6680143 C117.906601,52.8932803 117.565544,54.0894722 116.962455,55.1569074" id="Fill-23" fill-opacity="0.2" fill="#3E2723"></path>
                    <path d="M101.115785,21.4326024 L116.796086,48.7207303 C117.407493,49.8006258 117.74855,51.0134315 117.794301,52.2511578 C117.85669,50.8016058 117.511474,49.3603607 116.796086,48.0977137 L101.115785,20.7680513 L77.491354,20.7680513 L77.8656848,21.4326024" id="Fill-26" fill-opacity="0.2" fill="#FFFFFF"></path>
                    <polygon id="Fill-28" fill-opacity="0.2" fill="#FFFFFF" points="77.4905221 83.7342644 95.791138 51.9188823 95.4168073 51.9188823 77.4905221 83.0697133 65.5119372 103.836934 65.886268 103.836934"></polygon>
                </g>
            </g>
        </g>
    </g>
</svg>